%!PS-Adobe-3.0 EPSF-3.0
%%Creator: cairo 1.15.10 (http://cairographics.org)
%%CreationDate: Sun Jun 21 13:38:13 2020
%%Pages: 1
%%DocumentData: Clean7Bit
%%LanguageLevel: 2
%%BoundingBox: 0 0 360 216
%%EndComments
%%BeginProlog
50 dict begin
/q { gsave } bind def
/Q { grestore } bind def
/cm { 6 array astore concat } bind def
/w { setlinewidth } bind def
/J { setlinecap } bind def
/j { setlinejoin } bind def
/M { setmiterlimit } bind def
/d { setdash } bind def
/m { moveto } bind def
/l { lineto } bind def
/c { curveto } bind def
/h { closepath } bind def
/re { exch dup neg 3 1 roll 5 3 roll moveto 0 rlineto
      0 exch rlineto 0 rlineto closepath } bind def
/S { stroke } bind def
/f { fill } bind def
/f* { eofill } bind def
/n { newpath } bind def
/W { clip } bind def
/W* { eoclip } bind def
/BT { } bind def
/ET { } bind def
/BDC { mark 3 1 roll /BDC pdfmark } bind def
/EMC { mark /EMC pdfmark } bind def
/cairo_store_point { /cairo_point_y exch def /cairo_point_x exch def } def
/Tj { show currentpoint cairo_store_point } bind def
/TJ {
  {
    dup
    type /stringtype eq
    { show } { -0.001 mul 0 cairo_font_matrix dtransform rmoveto } ifelse
  } forall
  currentpoint cairo_store_point
} bind def
/cairo_selectfont { cairo_font_matrix aload pop pop pop 0 0 6 array astore
    cairo_font exch selectfont cairo_point_x cairo_point_y moveto } bind def
/Tf { pop /cairo_font exch def /cairo_font_matrix where
      { pop cairo_selectfont } if } bind def
/Td { matrix translate cairo_font_matrix matrix concatmatrix dup
      /cairo_font_matrix exch def dup 4 get exch 5 get cairo_store_point
      /cairo_font where { pop cairo_selectfont } if } bind def
/Tm { 2 copy 8 2 roll 6 array astore /cairo_font_matrix exch def
      cairo_store_point /cairo_font where { pop cairo_selectfont } if } bind def
/g { setgray } bind def
/rg { setrgbcolor } bind def
/d1 { setcachedevice } bind def
/cairo_data_source {
  CairoDataIndex CairoData length lt
    { CairoData CairoDataIndex get /CairoDataIndex CairoDataIndex 1 add def }
    { () } ifelse
} def
/cairo_flush_ascii85_file { cairo_ascii85_file status { cairo_ascii85_file flushfile } if } def
/cairo_image { image cairo_flush_ascii85_file } def
/cairo_imagemask { imagemask cairo_flush_ascii85_file } def
%%EndProlog
%%BeginSetup
%%EndSetup
%%Page: 1 1
%%BeginPageSetup
%%PageBoundingBox: 0 0 360 216
%%EndPageSetup
q 48 29 298 181 rectclip
1 0 0 -1 0 216 cm q
0 g
0.2 w
0 J
0 j
[ 0.2 2] 0 d
3.8 M q 1 0 0 1 0 0 cm
51.75 183.051 m 341.449 183.051 l S Q
0.25 w
[] 0.0 d
q 1 0 0 1 0 0 cm
51.75 183.051 m 48.051 183.051 l S Q
q 1 0 0 1 0 0 cm
341.449 183.051 m 345.148 183.051 l S Q
q 1 0 0 1 0 0 cm
51.75 165.648 m 49.898 165.648 l S Q
q 1 0 0 1 0 0 cm
341.449 165.648 m 343.301 165.648 l S Q
q 1 0 0 1 0 0 cm
51.75 155.5 m 49.898 155.5 l S Q
q 1 0 0 1 0 0 cm
341.449 155.5 m 343.301 155.5 l S Q
q 1 0 0 1 0 0 cm
51.75 148.301 m 49.898 148.301 l S Q
q 1 0 0 1 0 0 cm
341.449 148.301 m 343.301 148.301 l S Q
q 1 0 0 1 0 0 cm
51.75 142.699 m 49.898 142.699 l S Q
q 1 0 0 1 0 0 cm
341.449 142.699 m 343.301 142.699 l S Q
q 1 0 0 1 0 0 cm
51.75 138.102 m 49.898 138.102 l S Q
q 1 0 0 1 0 0 cm
341.449 138.102 m 343.301 138.102 l S Q
q 1 0 0 1 0 0 cm
51.75 134.25 m 49.898 134.25 l S Q
q 1 0 0 1 0 0 cm
341.449 134.25 m 343.301 134.25 l S Q
q 1 0 0 1 0 0 cm
51.75 130.898 m 49.898 130.898 l S Q
q 1 0 0 1 0 0 cm
341.449 130.898 m 343.301 130.898 l S Q
q 1 0 0 1 0 0 cm
51.75 127.949 m 49.898 127.949 l S Q
q 1 0 0 1 0 0 cm
341.449 127.949 m 343.301 127.949 l S Q
0.2 w
[ 0.2 2] 0 d
q 1 0 0 1 0 0 cm
51.75 125.301 m 341.449 125.301 l S Q
0.25 w
[] 0.0 d
q 1 0 0 1 0 0 cm
51.75 125.301 m 48.051 125.301 l S Q
q 1 0 0 1 0 0 cm
341.449 125.301 m 345.148 125.301 l S Q
q 1 0 0 1 0 0 cm
51.75 107.949 m 49.898 107.949 l S Q
q 1 0 0 1 0 0 cm
341.449 107.949 m 343.301 107.949 l S Q
q 1 0 0 1 0 0 cm
51.75 97.75 m 49.898 97.75 l S Q
q 1 0 0 1 0 0 cm
341.449 97.75 m 343.301 97.75 l S Q
q 1 0 0 1 0 0 cm
51.75 90.551 m 49.898 90.551 l S Q
q 1 0 0 1 0 0 cm
341.449 90.551 m 343.301 90.551 l S Q
q 1 0 0 1 0 0 cm
51.75 84.949 m 49.898 84.949 l S Q
q 1 0 0 1 0 0 cm
341.449 84.949 m 343.301 84.949 l S Q
q 1 0 0 1 0 0 cm
51.75 80.398 m 49.898 80.398 l S Q
q 1 0 0 1 0 0 cm
341.449 80.398 m 343.301 80.398 l S Q
q 1 0 0 1 0 0 cm
51.75 76.551 m 49.898 76.551 l S Q
q 1 0 0 1 0 0 cm
341.449 76.551 m 343.301 76.551 l S Q
q 1 0 0 1 0 0 cm
51.75 73.199 m 49.898 73.199 l S Q
q 1 0 0 1 0 0 cm
341.449 73.199 m 343.301 73.199 l S Q
q 1 0 0 1 0 0 cm
51.75 70.25 m 49.898 70.25 l S Q
q 1 0 0 1 0 0 cm
341.449 70.25 m 343.301 70.25 l S Q
0.2 w
[ 0.2 2] 0 d
q 1 0 0 1 0 0 cm
51.75 67.602 m 341.449 67.602 l S Q
0.25 w
[] 0.0 d
q 1 0 0 1 0 0 cm
51.75 67.602 m 48.051 67.602 l S Q
q 1 0 0 1 0 0 cm
341.449 67.602 m 345.148 67.602 l S Q
q 1 0 0 1 0 0 cm
51.75 50.199 m 49.898 50.199 l S Q
q 1 0 0 1 0 0 cm
341.449 50.199 m 343.301 50.199 l S Q
q 1 0 0 1 0 0 cm
51.75 40.051 m 49.898 40.051 l S Q
q 1 0 0 1 0 0 cm
341.449 40.051 m 343.301 40.051 l S Q
q 1 0 0 1 0 0 cm
51.75 32.801 m 49.898 32.801 l S Q
q 1 0 0 1 0 0 cm
341.449 32.801 m 343.301 32.801 l S Q
q 1 0 0 1 0 0 cm
51.75 27.25 m 49.898 27.25 l S Q
q 1 0 0 1 0 0 cm
341.449 27.25 m 343.301 27.25 l S Q
q 1 0 0 1 0 0 cm
51.75 22.648 m 49.898 22.648 l S Q
q 1 0 0 1 0 0 cm
341.449 22.648 m 343.301 22.648 l S Q
q 1 0 0 1 0 0 cm
51.75 18.801 m 49.898 18.801 l S Q
q 1 0 0 1 0 0 cm
341.449 18.801 m 343.301 18.801 l S Q
q 1 0 0 1 0 0 cm
51.75 15.449 m 49.898 15.449 l S Q
q 1 0 0 1 0 0 cm
341.449 15.449 m 343.301 15.449 l S Q
q 1 0 0 1 0 0 cm
51.75 12.5 m 49.898 12.5 l S Q
q 1 0 0 1 0 0 cm
341.449 12.5 m 343.301 12.5 l S Q
0.2 w
[ 0.2 2] 0 d
q 1 0 0 1 0 0 cm
51.75 9.852 m 341.449 9.852 l S Q
0.25 w
[] 0.0 d
q 1 0 0 1 0 0 cm
51.75 9.852 m 48.051 9.852 l S Q
q 1 0 0 1 0 0 cm
341.449 9.852 m 345.148 9.852 l S Q
0.2 w
[ 0.2 2] 0 d
q 1 0 0 1 0 0 cm
51.75 183.051 m 51.75 9.852 l S Q
0.25 w
[] 0.0 d
q 1 0 0 1 0 0 cm
51.75 183.051 m 51.75 186.75 l S Q
q 1 0 0 1 0 0 cm
51.75 9.852 m 51.75 6.148 l S Q
0.2 w
[ 0.2 2] 0 d
q 1 0 0 1 0 0 cm
83.949 183.051 m 83.949 9.852 l S Q
0.25 w
[] 0.0 d
q 1 0 0 1 0 0 cm
83.949 183.051 m 83.949 186.75 l S Q
q 1 0 0 1 0 0 cm
83.949 9.852 m 83.949 6.148 l S Q
0.2 w
[ 0.2 2] 0 d
q 1 0 0 1 0 0 cm
116.148 183.051 m 116.148 9.852 l S Q
0.25 w
[] 0.0 d
q 1 0 0 1 0 0 cm
116.148 183.051 m 116.148 186.75 l S Q
q 1 0 0 1 0 0 cm
116.148 9.852 m 116.148 6.148 l S Q
0.2 w
[ 0.2 2] 0 d
q 1 0 0 1 0 0 cm
148.301 183.051 m 148.301 179.352 l S Q
[ 0.2 2] 0 d
q 1 0 0 1 0 0 cm
148.301 148.352 m 148.301 9.852 l S Q
0.25 w
[] 0.0 d
q 1 0 0 1 0 0 cm
148.301 183.051 m 148.301 186.75 l S Q
q 1 0 0 1 0 0 cm
148.301 9.852 m 148.301 6.148 l S Q
0.2 w
[ 0.2 2] 0 d
q 1 0 0 1 0 0 cm
180.5 183.051 m 180.5 179.352 l S Q
[ 0.2 2] 0 d
q 1 0 0 1 0 0 cm
180.5 148.352 m 180.5 9.852 l S Q
0.25 w
[] 0.0 d
q 1 0 0 1 0 0 cm
180.5 183.051 m 180.5 186.75 l S Q
q 1 0 0 1 0 0 cm
180.5 9.852 m 180.5 6.148 l S Q
0.2 w
[ 0.2 2] 0 d
q 1 0 0 1 0 0 cm
212.699 183.051 m 212.699 179.352 l S Q
[ 0.2 2] 0 d
q 1 0 0 1 0 0 cm
212.699 148.352 m 212.699 9.852 l S Q
0.25 w
[] 0.0 d
q 1 0 0 1 0 0 cm
212.699 183.051 m 212.699 186.75 l S Q
q 1 0 0 1 0 0 cm
212.699 9.852 m 212.699 6.148 l S Q
0.2 w
[ 0.2 2] 0 d
q 1 0 0 1 0 0 cm
244.898 183.051 m 244.898 179.352 l S Q
[ 0.2 2] 0 d
q 1 0 0 1 0 0 cm
244.898 148.352 m 244.898 9.852 l S Q
0.25 w
[] 0.0 d
q 1 0 0 1 0 0 cm
244.898 183.051 m 244.898 186.75 l S Q
q 1 0 0 1 0 0 cm
244.898 9.852 m 244.898 6.148 l S Q
0.2 w
[ 0.2 2] 0 d
q 1 0 0 1 0 0 cm
277.051 183.051 m 277.051 179.352 l S Q
[ 0.2 2] 0 d
q 1 0 0 1 0 0 cm
277.051 148.352 m 277.051 9.852 l S Q
0.25 w
[] 0.0 d
q 1 0 0 1 0 0 cm
277.051 183.051 m 277.051 186.75 l S Q
q 1 0 0 1 0 0 cm
277.051 9.852 m 277.051 6.148 l S Q
0.2 w
[ 0.2 2] 0 d
q 1 0 0 1 0 0 cm
309.25 183.051 m 309.25 179.352 l S Q
[ 0.2 2] 0 d
q 1 0 0 1 0 0 cm
309.25 148.352 m 309.25 9.852 l S Q
0.25 w
[] 0.0 d
q 1 0 0 1 0 0 cm
309.25 183.051 m 309.25 186.75 l S Q
q 1 0 0 1 0 0 cm
309.25 9.852 m 309.25 6.148 l S Q
0.2 w
[ 0.2 2] 0 d
q 1 0 0 1 0 0 cm
341.449 183.051 m 341.449 9.852 l S Q
0.25 w
[] 0.0 d
q 1 0 0 1 0 0 cm
341.449 183.051 m 341.449 186.75 l S Q
q 1 0 0 1 0 0 cm
341.449 9.852 m 341.449 6.148 l S Q
q 1 0 0 1 0 0 cm
51.75 9.852 289.699 173.199 re S Q
0.580392 0 0.827451 rg
0.75 w
q 1 0 0 1 0 0 cm
290.148 156.102 m 327.852 156.102 l S Q
q 1 0 0 1 0 0 cm
67.852 150.949 m 68.352 150.398 l 71.852 146.898 l 72.352 146.449 l 72.852
 145.949 l 73.398 145.5 l 73.898 145.051 l 74.398 144.551 l 74.898 144.102
 l 75.398 143.648 l 76.898 142.301 l 77.398 141.898 l 78.398 141 l 78.898
 140.602 l 79.398 140.148 l 80.398 139.352 l 80.898 138.898 l 81.398 138.5
 l 81.949 138.102 l 82.449 137.699 l 82.949 137.301 l 83.449 136.898 l 84.449
 136.102 l 84.949 135.75 l 85.449 135.352 l 85.949 134.949 l 86.449 134.602
 l 86.949 134.199 l 87.449 133.852 l 87.949 133.449 l 88.449 133.102 l 88.949
 132.75 l 89.449 132.352 l 89.949 132 l 90.5 131.648 l 91 131.301 l 91.5
 130.949 l 92 130.602 l 93 129.898 l 93.5 129.551 l 94 129.25 l 94.5 128.898
 l 95 128.551 l 95.5 128.199 l 96 127.898 l 96.5 127.551 l 97 127.25 l 97.5
 126.898 l 98 126.602 l 98.5 126.25 l 99.051 125.949 l 99.551 125.648 l 
100.051 125.301 l 101.551 124.398 l 102.051 124.102 l 102.551 123.75 l 103.551
 123.148 l 104.051 122.852 l 104.551 122.551 l 105.051 122.301 l 106.551
 121.398 l 107.051 121.102 l 107.602 120.801 l 108.102 120.551 l 109.102
 119.949 l 109.602 119.699 l 110.102 119.398 l 110.602 119.148 l 111.102
 118.852 l 111.602 118.602 l 112.102 118.301 l 112.602 118.051 l 113.102
 117.75 l 114.102 117.25 l 114.602 116.949 l 115.602 116.449 l 116.148 116.148
 l 123.648 112.398 l 124.199 112.148 l 124.699 111.898 l 125.199 111.699
 l 126.699 110.949 l 127.199 110.75 l 128.199 110.25 l 128.699 110.051 l
 129.199 109.801 l 129.699 109.602 l 130.699 109.102 l 131.199 108.898 l
 131.699 108.648 l 132.199 108.449 l 132.75 108.199 l 133.75 107.801 l 134.25
 107.551 l 134.75 107.352 l 135.25 107.102 l 135.75 106.898 l 136.25 106.699
 l 136.75 106.449 l 138.25 105.852 l 138.75 105.602 l 139.25 105.398 l 140.75
 104.801 l 141.301 104.551 l 141.801 104.352 l 142.301 104.148 l 144.301
 103.352 l 144.801 103.148 l 146.801 102.352 l 147.301 102.148 l 149.301
 101.352 l 149.852 101.148 l 150.352 100.949 l 150.852 100.801 l 151.352
 100.602 l 151.852 100.398 l 152.852 100 l 153.352 99.852 l 153.852 99.648
 l 154.852 99.25 l 155.352 99.102 l 155.852 98.898 l 156.852 98.5 l 157.352
 98.352 l 157.852 98.148 l 158.398 98 l 159.398 97.602 l 159.898 97.449 
l 160.398 97.25 l 160.898 97.102 l 161.398 96.898 l 161.898 96.699 l 162.398
 96.551 l 162.898 96.352 l 163.398 96.199 l 163.898 96 l 164.398 95.852 
l 164.898 95.648 l 165.398 95.5 l 165.898 95.301 l 166.398 95.148 l 166.949
 95 l 167.449 94.801 l 167.949 94.648 l 168.449 94.449 l 168.949 94.301 
l 169.449 94.148 l 169.949 93.949 l 170.449 93.801 l 170.949 93.648 l 171.449
 93.449 l 171.949 93.301 l 172.449 93.148 l 172.949 92.949 l 173.449 92.801
 l 173.949 92.648 l 174.449 92.449 l 174.949 92.301 l 175.5 92.148 l 176.5
 91.852 l 177 91.648 l 178 91.352 l 178.5 91.199 l 179 91.051 l 179.5 90.852
 l 180 90.699 l 180.5 90.551 l 181 90.398 l 182 90.102 l 182.5 89.949 l 
183 89.801 l 183.5 89.648 l 184.051 89.449 l 184.551 89.301 l 185.051 89.148
 l 186.051 88.852 l 186.551 88.699 l 187.051 88.551 l 187.551 88.398 l 188.551
 88.102 l 189.051 87.949 l 189.551 87.801 l 190.051 87.648 l 191.051 87.352
 l 191.551 87.199 l 192.051 87.102 l 192.602 86.949 l 193.102 86.801 l 193.602
 86.648 l 194.602 86.352 l 195.102 86.199 l 195.602 86.051 l 196.102 85.898
 l 196.602 85.801 l 197.102 85.648 l 198.102 85.352 l 198.602 85.199 l 199.102
 85.051 l 199.602 84.949 l 200.102 84.801 l 200.602 84.648 l 201.148 84.5
 l 201.648 84.352 l 202.148 84.25 l 202.648 84.102 l 203.148 83.949 l 203.648
 83.801 l 204.148 83.699 l 204.648 83.551 l 205.148 83.398 l 205.648 83.301
 l 206.148 83.148 l 207.148 82.852 l 207.648 82.75 l 208.148 82.602 l 208.648
 82.449 l 209.148 82.352 l 209.699 82.199 l 210.199 82.051 l 210.699 81.949
 l 211.199 81.801 l 211.699 81.699 l 212.199 81.551 l 212.699 81.398 l 213.199
 81.301 l 213.699 81.148 l 214.199 81 l 214.699 80.898 l 215.199 80.75 l
 215.699 80.648 l 216.199 80.5 l 216.699 80.398 l 217.199 80.25 l 217.699
 80.148 l 218.25 80 l 218.75 79.852 l 219.25 79.75 l 219.75 79.602 l 220.25
 79.5 l 220.75 79.352 l 221.25 79.25 l 221.75 79.102 l 222.25 79 l 222.75
 78.852 l 223.25 78.75 l 223.75 78.602 l 224.25 78.5 l 224.75 78.352 l 225.75
 78.148 l 226.25 78 l 226.801 77.898 l 227.301 77.75 l 227.801 77.648 l 
228.301 77.5 l 228.801 77.398 l 229.301 77.301 l 229.801 77.148 l 230.301
 77.051 l 230.801 76.898 l 231.301 76.801 l 231.801 76.699 l 232.301 76.551
 l 232.801 76.449 l 233.301 76.352 l 233.801 76.199 l 234.301 76.102 l 234.801
 76 l 235.352 75.852 l 235.852 75.75 l 236.352 75.602 l 237.352 75.398 l
 237.852 75.301 l 238.352 75.148 l 238.852 75.051 l 239.352 74.949 l 239.852
 74.801 l 240.352 74.699 l 240.852 74.602 l 241.352 74.449 l 241.852 74.352
 l 242.852 74.148 l 243.352 74 l 243.898 73.898 l 244.398 73.801 l 244.898
 73.699 l 245.398 73.551 l 245.898 73.449 l 246.398 73.352 l 247.398 73.148
 l 247.898 73 l 248.398 72.898 l 248.898 72.801 l 249.398 72.699 l 249.898
 72.602 l 250.398 72.449 l 250.898 72.352 l 251.898 72.148 l 252.449 72.051
 l 252.949 71.949 l 253.449 71.801 l 253.949 71.699 l 254.449 71.602 l 255.449
 71.398 l 255.949 71.301 l 256.449 71.148 l 256.949 71.051 l 257.449 70.949
 l 257.949 70.852 l 258.949 70.648 l 259.449 70.551 l 259.949 70.449 l 260.449
 70.352 l 261 70.25 l 261.5 70.102 l 262.5 69.898 l 263 69.801 l 263.5 69.699
 l 264 69.602 l 265 69.398 l 265.5 69.301 l 266 69.199 l 266.5 69.102 l 
267.5 68.898 l 268 68.801 l 268.5 68.699 l 269.051 68.602 l 270.051 68.398
 l 270.551 68.301 l 271.051 68.199 l 271.551 68.102 l 272.551 67.898 l 273.051
 67.801 l 273.551 67.699 l 274.051 67.602 l 275.051 67.398 l 275.551 67.301
 l 276.051 67.199 l 276.551 67.102 l 277.051 67 l 277.602 66.898 l 278.102
 66.801 l 278.602 66.699 l 279.102 66.602 l 280.102 66.398 l 280.602 66.301
 l 281.102 66.199 l 281.602 66.102 l 282.602 65.898 l 283.102 65.852 l 284.102
 65.648 l 284.602 65.551 l 285.102 65.449 l 285.602 65.352 l 286.148 65.25
 l 286.648 65.148 l 287.148 65.051 l 287.648 64.949 l 288.148 64.898 l 288.648
 64.801 l 289.148 64.699 l 289.648 64.602 l 290.648 64.398 l 291.148 64.301
 l 291.648 64.25 l 292.148 64.148 l 292.648 64.051 l 293.148 63.949 l 293.648
 63.852 l 294.148 63.75 l 294.699 63.648 l 295.199 63.602 l 296.199 63.398
 l 296.699 63.301 l 297.199 63.199 l 297.699 63.148 l 298.199 63.051 l 298.699
 62.949 l 299.199 62.852 l 300.199 62.648 l 300.699 62.602 l 301.699 62.398
 l 302.199 62.301 l 302.699 62.25 l 303.25 62.148 l 303.75 62.051 l 304.25
 61.949 l 304.75 61.852 l 305.25 61.801 l 305.75 61.699 l 306.25 61.602 
l 306.75 61.5 l 307.25 61.449 l 307.75 61.352 l 308.75 61.148 l 309.25 61.102
 l 310.25 60.898 l 310.75 60.801 l 311.25 60.75 l 311.801 60.648 l 312.301
 60.551 l 312.801 60.5 l 313.301 60.398 l 313.801 60.301 l 314.301 60.199
 l 314.801 60.148 l 315.301 60.051 l 315.801 59.949 l 316.301 59.898 l 316.801
 59.801 l 317.301 59.699 l 317.801 59.602 l 318.301 59.551 l 318.801 59.449
 l 319.301 59.352 l 319.801 59.301 l 320.352 59.199 l 320.852 59.102 l 321.352
 59.051 l 321.852 58.949 l 322.352 58.852 l 322.852 58.801 l 323.352 58.699
 l 323.852 58.602 l 324.352 58.551 l 324.852 58.449 l 325.352 58.352 l 325.852
 58.301 l 326.352 58.199 l 326.852 58.102 l 327.352 58.051 l 327.852 57.949
 l 328.352 57.898 l 328.898 57.801 l 329.398 57.699 l 329.898 57.648 l 330.398
 57.551 l 330.898 57.449 l 331.398 57.398 l 331.898 57.301 l 332.398 57.25
 l 332.898 57.148 l 333.398 57.051 l 333.898 57 l 334.398 56.898 l 334.898
 56.852 l 335.898 56.648 l 336.398 56.602 l 336.898 56.5 l 337.449 56.449
 l 337.949 56.352 l 338.449 56.25 l 338.949 56.199 l 339.449 56.102 l 339.949
 56.051 l 340.449 55.949 l 340.949 55.898 l 341.449 55.801 l S Q
0 0.619608 0.45098 rg
q 1 0 0 1 0 0 cm
290.148 171.602 m 327.852 171.602 l S Q
q 1 0 0 1 0 0 cm
67.852 150.949 m 83.949 150.25 l 100.051 152.352 l 116.148 150.949 l 132.199
 133.551 l 148.301 135.75 l 164.398 114.148 l 180.5 117.602 l 196.602 107.199
 l 212.699 102.648 l 228.801 101.051 l 244.898 101.75 l 261 96.051 l 277.051
 93.602 l 293.148 95.898 l 309.25 91.699 l 325.352 97.5 l 341.449 86.25 
l S Q
70.852 150.949 m 70.852 154.949 64.852 154.949 64.852 150.949 c 64.852 
146.949 70.852 146.949 70.852 150.949 c f
q 1 0 0 1 0 0 cm
70.852 150.949 m 70.852 154.949 64.852 154.949 64.852 150.949 c 64.852 
146.949 70.852 146.949 70.852 150.949 c S Q
86.949 150.25 m 86.949 154.25 80.949 154.25 80.949 150.25 c 80.949 146.25
 86.949 146.25 86.949 150.25 c f
q 1 0 0 1 0 0 cm
86.949 150.25 m 86.949 154.25 80.949 154.25 80.949 150.25 c 80.949 146.25
 86.949 146.25 86.949 150.25 c S Q
103.051 152.352 m 103.051 156.352 97.051 156.352 97.051 152.352 c 97.051
 148.352 103.051 148.352 103.051 152.352 c f
q 1 0 0 1 0 0 cm
103.051 152.352 m 103.051 156.352 97.051 156.352 97.051 152.352 c 97.051
 148.352 103.051 148.352 103.051 152.352 c S Q
119.148 150.949 m 119.148 154.949 113.148 154.949 113.148 150.949 c 113.148
 146.949 119.148 146.949 119.148 150.949 c f
q 1 0 0 1 0 0 cm
119.148 150.949 m 119.148 154.949 113.148 154.949 113.148 150.949 c 113.148
 146.949 119.148 146.949 119.148 150.949 c S Q
135.199 133.551 m 135.199 137.551 129.199 137.551 129.199 133.551 c 129.199
 129.551 135.199 129.551 135.199 133.551 c f
q 1 0 0 1 0 0 cm
135.199 133.551 m 135.199 137.551 129.199 137.551 129.199 133.551 c 129.199
 129.551 135.199 129.551 135.199 133.551 c S Q
151.301 135.75 m 151.301 139.75 145.301 139.75 145.301 135.75 c 145.301
 131.75 151.301 131.75 151.301 135.75 c f
q 1 0 0 1 0 0 cm
151.301 135.75 m 151.301 139.75 145.301 139.75 145.301 135.75 c 145.301
 131.75 151.301 131.75 151.301 135.75 c S Q
167.398 114.148 m 167.398 118.148 161.398 118.148 161.398 114.148 c 161.398
 110.148 167.398 110.148 167.398 114.148 c f
q 1 0 0 1 0 0 cm
167.398 114.148 m 167.398 118.148 161.398 118.148 161.398 114.148 c 161.398
 110.148 167.398 110.148 167.398 114.148 c S Q
183.5 117.602 m 183.5 121.602 177.5 121.602 177.5 117.602 c 177.5 113.602
 183.5 113.602 183.5 117.602 c f
q 1 0 0 1 0 0 cm
183.5 117.602 m 183.5 121.602 177.5 121.602 177.5 117.602 c 177.5 113.602
 183.5 113.602 183.5 117.602 c S Q
199.602 107.199 m 199.602 111.199 193.602 111.199 193.602 107.199 c 193.602
 103.199 199.602 103.199 199.602 107.199 c f
q 1 0 0 1 0 0 cm
199.602 107.199 m 199.602 111.199 193.602 111.199 193.602 107.199 c 193.602
 103.199 199.602 103.199 199.602 107.199 c S Q
215.699 102.648 m 215.699 106.648 209.699 106.648 209.699 102.648 c 209.699
 98.648 215.699 98.648 215.699 102.648 c f
q 1 0 0 1 0 0 cm
215.699 102.648 m 215.699 106.648 209.699 106.648 209.699 102.648 c 209.699
 98.648 215.699 98.648 215.699 102.648 c S Q
231.801 101.051 m 231.801 105.051 225.801 105.051 225.801 101.051 c 225.801
 97.051 231.801 97.051 231.801 101.051 c f
q 1 0 0 1 0 0 cm
231.801 101.051 m 231.801 105.051 225.801 105.051 225.801 101.051 c 225.801
 97.051 231.801 97.051 231.801 101.051 c S Q
247.898 101.75 m 247.898 105.75 241.898 105.75 241.898 101.75 c 241.898
 97.75 247.898 97.75 247.898 101.75 c f
q 1 0 0 1 0 0 cm
247.898 101.75 m 247.898 105.75 241.898 105.75 241.898 101.75 c 241.898
 97.75 247.898 97.75 247.898 101.75 c S Q
264 96.051 m 264 100.051 258 100.051 258 96.051 c 258 92.051 264 92.051
 264 96.051 c f
q 1 0 0 1 0 0 cm
264 96.051 m 264 100.051 258 100.051 258 96.051 c 258 92.051 264 92.051
 264 96.051 c S Q
280.051 93.602 m 280.051 97.602 274.051 97.602 274.051 93.602 c 274.051
 89.602 280.051 89.602 280.051 93.602 c f
q 1 0 0 1 0 0 cm
280.051 93.602 m 280.051 97.602 274.051 97.602 274.051 93.602 c 274.051
 89.602 280.051 89.602 280.051 93.602 c S Q
296.148 95.898 m 296.148 99.898 290.148 99.898 290.148 95.898 c 290.148
 91.898 296.148 91.898 296.148 95.898 c f
q 1 0 0 1 0 0 cm
296.148 95.898 m 296.148 99.898 290.148 99.898 290.148 95.898 c 290.148
 91.898 296.148 91.898 296.148 95.898 c S Q
312.25 91.699 m 312.25 95.699 306.25 95.699 306.25 91.699 c 306.25 87.699
 312.25 87.699 312.25 91.699 c f
q 1 0 0 1 0 0 cm
312.25 91.699 m 312.25 95.699 306.25 95.699 306.25 91.699 c 306.25 87.699
 312.25 87.699 312.25 91.699 c S Q
328.352 97.5 m 328.352 101.5 322.352 101.5 322.352 97.5 c 322.352 93.5 
328.352 93.5 328.352 97.5 c f
q 1 0 0 1 0 0 cm
328.352 97.5 m 328.352 101.5 322.352 101.5 322.352 97.5 c 322.352 93.5 
328.352 93.5 328.352 97.5 c S Q
344.449 86.25 m 344.449 90.25 338.449 90.25 338.449 86.25 c 338.449 82.25
 344.449 82.25 344.449 86.25 c f
q 1 0 0 1 0 0 cm
344.449 86.25 m 344.449 90.25 338.449 90.25 338.449 86.25 c 338.449 82.25
 344.449 82.25 344.449 86.25 c S Q
312 171.602 m 312 175.602 306 175.602 306 171.602 c 306 167.602 312 167.602
 312 171.602 c f
q 1 0 0 1 0 0 cm
312 171.602 m 312 175.602 306 175.602 306 171.602 c 306 167.602 312 167.602
 312 171.602 c S Q
0 g
0.25 w
q 1 0 0 1 0 0 cm
51.75 9.852 289.699 173.199 re S Q
Q Q
showpage
%%Trailer
end
%%EOF
