1 117 5.85 4.76217393479776 0.05
2 100 5 4.60517018598809 0.05
3 88 4.4 4.47733681447821 0.05
4 72 3.6 4.27666611901606 0.05
6 53 2.65 3.97029191355212 0.05
9 29.5 1.475 3.38439026334577 0.05
10 25.2 1.26 3.22684399451738 0.05
13 15.2 0.76 2.72129542785223 0.05
15 11.1 0.555 2.40694510831829 0.05


1 119.975700195713 4.78728922390742
1.03125 119.334875006814 4.78193361670065
1.0625 118.697472652056 4.77657800949388
1.09375 118.063474849084 4.77122240228711
1.125 117.432863413194 4.76586679508034
1.15625 116.805620256814 4.76051118787357
1.1875 116.181727388979 4.7551555806668
1.21875 115.561166914823 4.74979997346002
1.25 114.943921035059 4.74444436625325
1.28125 114.329972045473 4.73908875904648
1.3125 113.719302336412 4.73373315183971
1.34375 113.111894392284 4.72837754463294
1.375 112.507730791051 4.72302193742617
1.40625 111.906794203732 4.7176663302194
1.4375 111.309067393906 4.71231072301262
1.46875 110.714533217214 4.70695511580585
1.5 110.123174620873 4.70159950859908
1.53125 109.534974643181 4.69624390139231
1.5625 108.949916413038 4.69088829418554
1.59375 108.367983149451 4.68553268697877
1.625 107.789158161066 4.680177079772
1.65625 107.213424845676 4.67482147256522
1.6875 106.640766689756 4.66946586535845
1.71875 106.071167267983 4.66411025815168
1.75 105.504610242766 4.65875465094491
1.78125 104.941079363777 4.65339904373814
1.8125 104.380558467489 4.64804343653137
1.84375 103.823031476705 4.6426878293246
1.875 103.268482400103 4.63733222211783
1.90625 102.716895331777 4.63197661491105
1.9375 102.168254450775 4.62662100770428
1.96875 101.622544020654 4.62126540049751
2 101.07974838902 4.61590979329074
2.03125 100.539851987085 4.61055418608397
2.0625 100.002839329219 4.6051985788772
2.09375 99.4686950125025 4.59984297167043
2.125 98.9374037162904 4.59448736446365
2.15625 98.4089502017682 4.58913175725688
2.1875 97.8833193115168 4.58377615005011
2.21875 97.360495969077 4.57842054284334
2.25 96.8404651785175 4.57306493563657
2.28125 96.3232120240049 4.5677093284298
2.3125 95.808721669375 4.56235372122303
2.34375 95.2969793577086 4.55699811401626
2.375 94.7879704109068 4.55164250680948
2.40625 94.2816802292714 4.54628689960271
2.4375 93.7780942910847 4.54093129239594
2.46875 93.2771981521945 4.53557568518917
2.5 92.7789774455985 4.5302200779824
2.53125 92.2834178810328 4.52486447077563
2.5625 91.7905052445623 4.51950886356886
2.59375 91.3002253981722 4.51415325636208
2.625 90.8125642793634 4.50879764915531
2.65625 90.3275079007483 4.50344204194854
2.6875 89.8450423496505 4.49808643474177
2.71875 89.3651537877046 4.492730827535
2.75 88.8878284504605 4.48737522032823
2.78125 88.4130526469881 4.48201961312146
2.8125 87.9408127594839 4.47666400591468
2.84375 87.4710952428817 4.47130839870791
2.875 87.0038866244632 4.46595279150114
2.90625 86.5391735034718 4.46059718429437
2.9375 86.0769425507282 4.4552415770876
2.96875 85.6171805082485 4.44988596988083
3 85.1598741888628 4.44453036267406
3.03125 84.7050104758386 4.43917475546728
3.0625 84.2525763225031 4.43381914826051
3.09375 83.8025587518698 4.42846354105374
3.125 83.354944856266 4.42310793384697
3.15625 82.9097217969627 4.4177523266402
3.1875 82.4668768038062 4.41239671943343
3.21875 82.0263971748521 4.40704111222666
3.25 81.5882702760005 4.40168550501989
3.28125 81.1524835406343 4.39632989781311
3.3125 80.7190244692579 4.39097429060634
3.34375 80.2878806291396 4.38561868339957
3.375 79.8590396539542 4.3802630761928
3.40625 79.4324892434289 4.37490746898603
3.4375 79.00821716299 4.36955186177926
3.46875 78.5862112434123 4.36419625457249
3.5 78.1664593804703 4.35884064736571
3.53125 77.7489495345902 4.35348504015894
3.5625 77.3336697305055 4.34812943295217
3.59375 76.9206080569126 4.3427738257454
3.625 76.5097526661302 4.33741821853863
3.65625 76.1010917737585 4.33206261133186
3.6875 75.6946136583419 4.32670700412509
3.71875 75.2903066610322 4.32135139691832
3.75 74.8881591852548 4.31599578971154
3.78125 74.4881596963757 4.31064018250477
3.8125 74.0902967213706 4.305284575298
3.84375 73.6945588484963 4.29992896809123
3.875 73.3009347269626 4.29457336088446
3.90625 72.9094130666075 4.28921775367769
3.9375 72.519982637573 4.28386214647092
3.96875 72.132632269983 4.27850653926414
4 71.7473508536228 4.27315093205737
4.03125 71.3641273376209 4.2677953248506
4.0625 70.9829507301317 4.26243971764383
4.09375 70.6038100980199 4.25708411043706
4.125 70.2266945665477 4.25172850323029
4.15625 69.8515933190621 4.24637289602352
4.1875 69.4784955966852 4.24101728881674
4.21875 69.1073906980053 4.23566168160997
4.25 68.7382679787702 4.2303060744032
4.28125 68.3711168515817 4.22495046719643
4.3125 68.0059267855917 4.21959485998966
4.34375 67.642687306201 4.21423925278289
4.375 67.2813879947576 4.20888364557612
4.40625 66.9220184882593 4.20352803836935
4.4375 66.5645684790549 4.19817243116257
4.46875 66.2090277145501 4.1928168239558
4.5 65.8553859969124 4.18746121674903
4.53125 65.5036331827787 4.18210560954226
4.5625 65.153759182965 4.17675000233549
4.59375 64.8057539621761 4.17139439512872
4.625 64.4596075387185 4.16603878792195
4.65625 64.1153099842139 4.16068318071517
4.6875 63.7728514233142 4.1553275735084
4.71875 63.4322220334184 4.14997196630163
4.75 63.0934120443911 4.14461635909486
4.78125 62.7564117382818 4.13926075188809
4.8125 62.4212114490464 4.13390514468132
4.84375 62.0878015622702 4.12854953747455
4.875 61.7561725148917 4.12319393026777
4.90625 61.4263147949285 4.117838323061
4.9375 61.0982189412046 4.11248271585423
4.96875 60.7718755430788 4.10712710864746
5 60.4472752401748 4.10177150144069
5.03125 60.1244087221129 4.09641589423392
5.0625 59.803266728243 4.09106028702715
5.09375 59.4838400473785 4.08570467982037
5.125 59.1661195175326 4.0803490726136
5.15625 58.8500960256555 4.07499346540683
5.1875 58.5357605073726 4.06963785820006
5.21875 58.2231039467249 4.06428225099329
5.25 57.9121173759102 4.05892664378652
5.28125 57.6027918750261 4.05357103657975
5.3125 57.2951185718137 4.04821542937298
5.34375 56.9890886414038 4.0428598221662
5.375 56.684693306063 4.03750421495943
5.40625 56.3819238349427 4.03214860775266
5.4375 56.080771543828 4.02679300054589
5.46875 55.7812277948892 4.02143739333912
5.5 55.4832839964336 4.01608178613235
5.53125 55.1869316026592 4.01072617892558
5.5625 54.8921621134097 4.0053705717188
5.59375 54.5989670739307 4.00001496451203
5.625 54.3073380746269 3.99465935730526
5.65625 54.0172667508212 3.98930375009849
5.6875 53.7287447825148 3.98394814289172
5.71875 53.4417638941482 3.97859253568495
5.75 53.1563158543643 3.97323692847818
5.78125 52.8723924757719 3.96788132127141
5.8125 52.5899856147112 3.96252571406463
5.84375 52.3090871710199 3.95717010685786
5.875 52.0296890878011 3.95181449965109
5.90625 51.7517833511923 3.94645889244432
5.9375 51.475361990135 3.94110328523755
5.96875 51.2004170761469 3.93574767803078
6 50.9269407230936 3.93039207082401
6.03125 50.6549250869631 3.92503646361723
6.0625 50.3843623656407 3.91968085641046
6.09375 50.1152447986846 3.91432524920369
6.125 49.8475646671041 3.90896964199692
6.15625 49.581314293138 3.90361403479015
6.1875 49.3164860400339 3.89825842758338
6.21875 49.0530723118299 3.89290282037661
6.25 48.7910655531359 3.88754721316983
6.28125 48.5304582489179 3.88219160596306
6.3125 48.2712429242814 3.87683599875629
6.34375 48.0134121442577 3.87148039154952
6.375 47.7569585135905 3.86612478434275
6.40625 47.5018746765235 3.86076917713598
6.4375 47.2481533165899 3.85541356992921
6.46875 46.995787156402 3.85005796272243
6.5 46.7447689574431 3.84470235551566
6.53125 46.4950915198592 3.83934674830889
6.5625 46.246747682253 3.83399114110212
6.59375 45.9997303214782 3.82863553389535
6.625 45.7540323524355 3.82327992668858
6.65625 45.5096467278688 3.81792431948181
6.6875 45.266566438164 3.81256871227504
6.71875 45.0247845111468 3.80721310506826
6.75 44.7842940118838 3.80185749786149
6.78125 44.5450880424828 3.79650189065472
6.8125 44.3071597418954 3.79114628344795
6.84375 44.0705022857199 3.78579067624118
6.875 43.835108886006 3.78043506903441
6.90625 43.6009727910596 3.77507946182764
6.9375 43.3680872852493 3.76972385462086
6.96875 43.1364456888141 3.76436824741409
7 42.9060413576715 3.75901264020732
7.03125 42.6768676832266 3.75365703300055
7.0625 42.4489180921835 3.74830142579378
7.09375 42.2221860463558 3.74294581858701
7.125 41.9966650424795 3.73759021138024
7.15625 41.7723486120267 3.73223460417347
7.1875 41.5492303210195 3.72687899696669
7.21875 41.3273037698458 3.72152338975992
7.25 41.1065625930758 3.71616778255315
7.28125 40.8870004592793 3.71081217534638
7.3125 40.6686110708441 3.70545656813961
7.34375 40.4513881637952 3.70010096093284
7.375 40.2353255076155 3.69474535372607
7.40625 40.0204169050671 3.68938974651929
7.4375 39.8066561920129 3.68403413931252
7.46875 39.5940372372405 3.67867853210575
7.5 39.3825539422863 3.67332292489898
7.53125 39.17220024126 3.66796731769221
7.5625 38.9629701006711 3.66261171048544
7.59375 38.7548575192558 3.65725610327867
7.625 38.5478565278048 3.65190049607189
7.65625 38.3419611889921 3.64654488886512
7.6875 38.1371655972047 3.64118928165835
7.71875 37.9334638783729 3.63583367445158
7.75 37.7308501898026 3.63047806724481
7.78125 37.529318720007 3.62512246003804
7.8125 37.32886368854 3.61976685283127
7.84375 37.1294793458308 3.6144112456245
7.875 36.9311599730186 3.60905563841772
7.90625 36.7338998817888 3.60370003121095
7.9375 36.5376934142095 3.59834442400418
7.96875 36.3425349425698 3.59298881679741
8 36.1484188692178 3.58763320959064
8.03125 35.9553396264004 3.58227760238387
8.0625 35.7632916761036 3.5769219951771
8.09375 35.5722695098932 3.57156638797032
8.125 35.3822676487574 3.56621078076355
8.15625 35.1932806429495 3.56085517355678
8.1875 35.0053030718313 3.55549956635001
8.21875 34.8183295437178 3.55014395914324
8.25 34.6323546957227 3.54478835193647
8.28125 34.4473731936043 3.5394327447297
8.3125 34.2633797316128 3.53407713752292
8.34375 34.0803690323377 3.52872153031615
8.375 33.898335846557 3.52336592310938
8.40625 33.717274953086 3.51801031590261
8.4375 33.5371811586283 3.51265470869584
8.46875 33.3580492976259 3.50729910148907
8.5 33.1798742321119 3.5019434942823
8.53125 33.0026508515627 3.49658788707552
8.5625 32.8263740727514 3.49123227986875
8.59375 32.6510388396023 3.48587667266198
8.625 32.4766401230455 3.48052106545521
8.65625 32.3031729208728 3.47516545824844
8.6875 32.1306322575944 3.46980985104167
8.71875 31.9590131842959 3.4644542438349
8.75 31.7883107784967 3.45909863662813
8.78125 31.6185201440083 3.45374302942135
8.8125 31.4496364107945 3.44838742221458
8.84375 31.2816547348311 3.44303181500781
8.875 31.1145702979675 3.43767620780104
8.90625 30.9483783077879 3.43232060059427
8.9375 30.7830739974746 3.4269649933875
8.96875 30.6186526256706 3.42160938618073
9 30.4551094763439 3.41625377897395
9.03125 30.2924398586522 3.41089817176718
9.0625 30.1306391068086 3.40554256456041
9.09375 29.9697025799471 3.40018695735364
9.125 29.8096256619903 3.39483135014687
9.15625 29.6504037615163 3.3894757429401
9.1875 29.4920323116276 3.38412013573333
9.21875 29.3345067698196 3.37876452852656
9.25 29.1778226178508 3.37340892131978
9.28125 29.0219753616127 3.36805331411301
9.3125 28.8669605310012 3.36269770690624
9.34375 28.7127736797884 3.35734209969947
9.375 28.5594103854951 3.3519864924927
9.40625 28.4068662492635 3.34663088528593
9.4375 28.2551368957317 3.34127527807916
9.46875 28.1042179729078 3.33591967087238
9.5 27.9541051520452 3.33056406366561
9.53125 27.8047941275182 3.32520845645884
9.5625 27.6562806166989 3.31985284925207
9.59375 27.5085603598341 3.3144972420453
9.625 27.3616291199232 3.30914163483853
9.65625 27.2154826825967 3.30378602763176
9.6875 27.0701168559951 3.29843042042498
9.71875 26.925527470649 3.29307481321821
9.75 26.7817103793593 3.28771920601144
9.78125 26.6386614570784 3.28236359880467
9.8125 26.4963766007916 3.2770079915979
9.84375 26.3548517293998 3.27165238439113
9.875 26.214082783602 3.26629677718436
9.90625 26.0740657257793 3.26094116997759
9.9375 25.9347965398789 3.25558556277081
9.96875 25.7962712312988 3.25022995556404
10 25.6584858267733 3.24487434835727
10.03125 25.5214363742593 3.2395187411505
10.0625 25.3851189428225 3.23416313394373
10.09375 25.2495296225249 3.22880752673696
10.125 25.1146645243128 3.22345191953019
10.15625 24.9805197799047 3.21809631232341
10.1875 24.8470915416811 3.21274070511664
10.21875 24.7143759825736 3.20738509790987
10.25 24.5823692959552 3.2020294907031
10.28125 24.4510676955314 3.19667388349633
10.3125 24.3204674152312 3.19131827628956
10.34375 24.1905647090994 3.18596266908279
10.375 24.061355851189 3.18060706187601
10.40625 23.9328371354544 3.17525145466924
10.4375 23.8050048756451 3.16989584746247
10.46875 23.6778554051999 3.1645402402557
10.5 23.5513850771417 3.15918463304893
10.53125 23.4255902639731 3.15382902584216
10.5625 23.3004673575721 3.14847341863539
10.59375 23.1760127690888 3.14311781142862
10.625 23.0522229288423 3.13776220422184
10.65625 22.9290942862187 3.13240659701507
10.6875 22.8066233095686 3.1270509898083
10.71875 22.6848064861063 3.12169538260153
10.75 22.563640321809 3.11633977539476
10.78125 22.4431213413163 3.11098416818799
10.8125 22.3232460878311 3.10562856098122
10.84375 22.2040111230195 3.10027295377444
10.875 22.0854130269133 3.09491734656767
10.90625 21.9674483978109 3.0895617393609
10.9375 21.8501138521804 3.08420613215413
10.96875 21.7334060245624 3.07885052494736
11 21.6173215674733 3.07349491774059
11.03125 21.5018571513092 3.06813931053382
11.0625 21.387009464251 3.06278370332704
11.09375 21.2727752121686 3.05742809612027
11.125 21.1591511185271 3.0520724889135
11.15625 21.0461339242923 3.04671688170673
11.1875 20.9337203878376 3.04136127449996
11.21875 20.8219072848508 3.03600566729319
11.25 20.7106914082417 3.03065006008642
11.28125 20.6000695680501 3.02529445287965
11.3125 20.4900385913545 3.01993884567287
11.34375 20.3805953221805 3.0145832384661
11.375 20.271736621411 3.00922763125933
11.40625 20.1634593666958 3.00387202405256
11.4375 20.0557604523619 2.99851641684579
11.46875 19.9486367893249 2.99316080963902
11.5 19.8420853049998 2.98780520243225
11.53125 19.7361029432133 2.98244959522547
11.5625 19.630686664116 2.9770939880187
11.59375 19.5258334440954 2.97173838081193
11.625 19.4215402756887 2.96638277360516
11.65625 19.317804167497 2.96102716639839
11.6875 19.2146221440992 2.95567155919162
11.71875 19.1119912459671 2.95031595198485
11.75 19.0099085293798 2.94496034477807
11.78125 18.9083710663401 2.9396047375713
11.8125 18.8073759444896 2.93424913036453
11.84375 18.706920267026 2.92889352315776
11.875 18.6070011526197 2.92353791595099
11.90625 18.5076157353308 2.91818230874422
11.9375 18.4087611645276 2.91282670153745
11.96875 18.3104346048041 2.90747109433068
12 18.2126332358993 2.9021154871239
12.03125 18.115354252616 2.89675987991713
12.0625 18.0185948647402 2.89140427271036
12.09375 17.9223522969614 2.88604866550359
12.125 17.8266237887928 2.88069305829682
12.15625 17.7314065944922 2.87533745109005
12.1875 17.6366979829832 2.86998184388328
12.21875 17.5424952377767 2.8646262366765
12.25 17.4487956568935 2.85927062946973
12.28125 17.3555965527862 2.85391502226296
12.3125 17.2628952522624 2.84855941505619
12.34375 17.170689096408 2.84320380784942
12.375 17.0789754405112 2.83784820064265
12.40625 16.9877516539859 2.83249259343588
12.4375 16.8970151202972 2.8271369862291
12.46875 16.8067632368856 2.82178137902233
12.5 16.7169934150925 2.81642577181556
12.53125 16.6277030800866 2.81107016460879
12.5625 16.5388896707889 2.80571455740202
12.59375 16.4505506398003 2.80035895019525
12.625 16.362683453328 2.79500334298848
12.65625 16.2752855911128 2.78964773578171
12.6875 16.1883545463571 2.78429212857493
12.71875 16.1018878256527 2.77893652136816
12.75 16.0158829489096 2.77358091416139
12.78125 15.9303374492844 2.76822530695462
12.8125 15.8452488731101 2.76286969974785
12.84375 15.7606147798254 2.75751409254108
12.875 15.6764327419046 2.75215848533431
12.90625 15.5927003447883 2.74680287812753
12.9375 15.5094151868138 2.74144727092076
12.96875 15.4265748791466 2.73609166371399
13 15.3441770457114 2.73073605650722
13.03125 15.2622193231244 2.72538044930045
13.0625 15.1806993606253 2.72002484209368
13.09375 15.0996148200098 2.71466923488691
13.125 15.0189633755627 2.70931362768013
13.15625 14.9387427139911 2.70395802047336
13.1875 14.8589505343581 2.69860241326659
13.21875 14.7795845480168 2.69324680605982
13.25 14.7006424785446 2.68789119885305
13.28125 14.6221220616778 2.68253559164628
13.3125 14.544021045247 2.67717998443951
13.34375 14.4663371891122 2.67182437723274
13.375 14.3890682650987 2.66646877002596
13.40625 14.312212056933 2.66111316281919
13.4375 14.2357663601795 2.65575755561242
13.46875 14.1597289821771 2.65040194840565
13.5 14.0840977419763 2.64504634119888
13.53125 14.0088704702767 2.63969073399211
13.5625 13.9340450093647 2.63433512678534
13.59375 13.8596192130519 2.62897951957856
13.625 13.785590946613 2.62362391237179
13.65625 13.7119580867253 2.61826830516502
13.6875 13.6387185214069 2.61291269795825
13.71875 13.5658701499569 2.60755709075148
13.75 13.493410882895 2.60220148354471
13.78125 13.421338641901 2.59684587633794
13.8125 13.349651359756 2.59149026913116
13.84375 13.2783469802825 2.58613466192439
13.875 13.2074234582858 2.58077905471762
13.90625 13.1368787594949 2.57542344751085
13.9375 13.0667108605048 2.57006784030408
13.96875 12.9969177487179 2.56471223309731
14 12.9274974222865 2.55935662589054
14.03125 12.8584478900552 2.55400101868377
14.0625 12.7897671715043 2.54864541147699
14.09375 12.7214532966922 2.54328980427022
14.125 12.6535043061998 2.53793419706345
14.15625 12.5859182510734 2.53257858985668
14.1875 12.5186931927694 2.52722298264991
14.21875 12.4518272030987 2.52186737544314
14.25 12.3853183641709 2.51651176823637
14.28125 12.3191647683398 2.51115616102959
14.3125 12.2533645181486 2.50580055382282
14.34375 12.187915726275 2.50044494661605
14.375 12.1228165154779 2.49508933940928
14.40625 12.0580650185427 2.48973373220251
14.4375 11.9936593782283 2.48437812499574
14.46875 11.9295977472138 2.47902251778897
14.5 11.8658782880452 2.47366691058219
14.53125 11.8024991730829 2.46831130337542
14.5625 11.7394585844492 2.46295569616865
14.59375 11.6767547139764 2.45760008896188
14.625 11.6143857631547 2.45224448175511
14.65625 11.5523499430804 2.44688887454834
14.6875 11.4906454744053 2.44153326734157
14.71875 11.4292705872849 2.4361776601348
14.75 11.3682235213279 2.43082205292802
14.78125 11.3075025255461 2.42546644572125
14.8125 11.2471058583036 2.42011083851448
14.84375 11.1870317872671 2.41475523130771
14.875 11.1272785893561 2.40939962410094
14.90625 11.0678445506939 2.40404401689417
14.9375 11.0087279665579 2.3986884096874
14.96875 10.9499271413307 2.39333280248062


1 4.75745170092414
1.03125 4.75209609371737
1.0625 4.7467404865106
1.09375 4.74138487930383
1.125 4.73602927209706
1.15625 4.73067366489029
1.1875 4.72531805768352
1.21875 4.71996245047674
1.25 4.71460684326997
1.28125 4.7092512360632
1.3125 4.70389562885643
1.34375 4.69854002164966
1.375 4.69318441444289
1.40625 4.68782880723612
1.4375 4.68247320002934
1.46875 4.67711759282257
1.5 4.6717619856158
1.53125 4.66640637840903
1.5625 4.66105077120226
1.59375 4.65569516399549
1.625 4.65033955678872
1.65625 4.64498394958194
1.6875 4.63962834237517
1.71875 4.6342727351684
1.75 4.62891712796163
1.78125 4.62356152075486
1.8125 4.61820591354809
1.84375 4.61285030634132
1.875 4.60749469913454
1.90625 4.60213909192777
1.9375 4.596783484721
1.96875 4.59142787751423
2 4.58607227030746
2.03125 4.58071666310069
2.0625 4.57536105589392
2.09375 4.57000544868715
2.125 4.56464984148037
2.15625 4.5592942342736
2.1875 4.55393862706683
2.21875 4.54858301986006
2.25 4.54322741265329
2.28125 4.53787180544652
2.3125 4.53251619823975
2.34375 4.52716059103297
2.375 4.5218049838262
2.40625 4.51644937661943
2.4375 4.51109376941266
2.46875 4.50573816220589
2.5 4.50038255499912
2.53125 4.49502694779235
2.5625 4.48967134058558
2.59375 4.4843157333788
2.625 4.47896012617203
2.65625 4.47360451896526
2.6875 4.46824891175849
2.71875 4.46289330455172
2.75 4.45753769734495
2.78125 4.45218209013818
2.8125 4.4468264829314
2.84375 4.44147087572463
2.875 4.43611526851786
2.90625 4.43075966131109
2.9375 4.42540405410432
2.96875 4.42004844689755
3 4.41469283969078
3.03125 4.409337232484
3.0625 4.40398162527723
3.09375 4.39862601807046
3.125 4.39327041086369
3.15625 4.38791480365692
3.1875 4.38255919645015
3.21875 4.37720358924338
3.25 4.3718479820366
3.28125 4.36649237482983
3.3125 4.36113676762306
3.34375 4.35578116041629
3.375 4.35042555320952
3.40625 4.34506994600275
3.4375 4.33971433879598
3.46875 4.33435873158921
3.5 4.32900312438243
3.53125 4.32364751717566
3.5625 4.31829190996889
3.59375 4.31293630276212
3.625 4.30758069555535
3.65625 4.30222508834858
3.6875 4.29686948114181
3.71875 4.29151387393503
3.75 4.28615826672826
3.78125 4.28080265952149
3.8125 4.27544705231472
3.84375 4.27009144510795
3.875 4.26473583790118
3.90625 4.25938023069441
3.9375 4.25402462348764
3.96875 4.24866901628086
4 4.24331340907409
4.03125 4.23795780186732
4.0625 4.23260219466055
4.09375 4.22724658745378
4.125 4.22189098024701
4.15625 4.21653537304024
4.1875 4.21117976583346
4.21875 4.20582415862669
4.25 4.20046855141992
4.28125 4.19511294421315
4.3125 4.18975733700638
4.34375 4.18440172979961
4.375 4.17904612259284
4.40625 4.17369051538607
4.4375 4.16833490817929
4.46875 4.16297930097252
4.5 4.15762369376575
4.53125 4.15226808655898
4.5625 4.14691247935221
4.59375 4.14155687214544
4.625 4.13620126493867
4.65625 4.13084565773189
4.6875 4.12549005052512
4.71875 4.12013444331835
4.75 4.11477883611158
4.78125 4.10942322890481
4.8125 4.10406762169804
4.84375 4.09871201449127
4.875 4.09335640728449
4.90625 4.08800080007772
4.9375 4.08264519287095
4.96875 4.07728958566418
5 4.07193397845741
5.03125 4.06657837125064
5.0625 4.06122276404387
5.09375 4.05586715683709
5.125 4.05051154963032
5.15625 4.04515594242355
5.1875 4.03980033521678
5.21875 4.03444472801001
5.25 4.02908912080324
5.28125 4.02373351359647
5.3125 4.01837790638969
5.34375 4.01302229918292
5.375 4.00766669197615
5.40625 4.00231108476938
5.4375 3.99695547756261
5.46875 3.99159987035584
5.5 3.98624426314907
5.53125 3.9808886559423
5.5625 3.97553304873552
5.59375 3.97017744152875
5.625 3.96482183432198
5.65625 3.95946622711521
5.6875 3.95411061990844
5.71875 3.94875501270167
5.75 3.9433994054949
5.78125 3.93804379828812
5.8125 3.93268819108135
5.84375 3.92733258387458
5.875 3.92197697666781
5.90625 3.91662136946104
5.9375 3.91126576225427
5.96875 3.9059101550475
6 3.90055454784073
6.03125 3.89519894063395
6.0625 3.88984333342718
6.09375 3.88448772622041
6.125 3.87913211901364
6.15625 3.87377651180687
6.1875 3.8684209046001
6.21875 3.86306529739333
6.25 3.85770969018655
6.28125 3.85235408297978
6.3125 3.84699847577301
6.34375 3.84164286856624
6.375 3.83628726135947
6.40625 3.8309316541527
6.4375 3.82557604694593
6.46875 3.82022043973915
6.5 3.81486483253238
6.53125 3.80950922532561
6.5625 3.80415361811884
6.59375 3.79879801091207
6.625 3.7934424037053
6.65625 3.78808679649853
6.6875 3.78273118929176
6.71875 3.77737558208498
6.75 3.77201997487821
6.78125 3.76666436767144
6.8125 3.76130876046467
6.84375 3.7559531532579
6.875 3.75059754605113
6.90625 3.74524193884436
6.9375 3.73988633163758
6.96875 3.73453072443081
7 3.72917511722404
7.03125 3.72381951001727
7.0625 3.7184639028105
7.09375 3.71310829560373
7.125 3.70775268839696
7.15625 3.70239708119018
7.1875 3.69704147398341
7.21875 3.69168586677664
7.25 3.68633025956987
7.28125 3.6809746523631
7.3125 3.67561904515633
7.34375 3.67026343794956
7.375 3.66490783074279
7.40625 3.65955222353601
7.4375 3.65419661632924
7.46875 3.64884100912247
7.5 3.6434854019157
7.53125 3.63812979470893
7.5625 3.63277418750216
7.59375 3.62741858029539
7.625 3.62206297308861
7.65625 3.61670736588184
7.6875 3.61135175867507
7.71875 3.6059961514683
7.75 3.60064054426153
7.78125 3.59528493705476
7.8125 3.58992932984799
7.84375 3.58457372264121
7.875 3.57921811543444
7.90625 3.57386250822767
7.9375 3.5685069010209
7.96875 3.56315129381413
8 3.55779568660736
8.03125 3.55244007940059
8.0625 3.54708447219382
8.09375 3.54172886498704
8.125 3.53637325778027
8.15625 3.5310176505735
8.1875 3.52566204336673
8.21875 3.52030643615996
8.25 3.51495082895319
8.28125 3.50959522174642
8.3125 3.50423961453964
8.34375 3.49888400733287
8.375 3.4935284001261
8.40625 3.48817279291933
8.4375 3.48281718571256
8.46875 3.47746157850579
8.5 3.47210597129902
8.53125 3.46675036409224
8.5625 3.46139475688547
8.59375 3.4560391496787
8.625 3.45068354247193
8.65625 3.44532793526516
8.6875 3.43997232805839
8.71875 3.43461672085162
8.75 3.42926111364485
8.78125 3.42390550643807
8.8125 3.4185498992313
8.84375 3.41319429202453
8.875 3.40783868481776
8.90625 3.40248307761099
8.9375 3.39712747040422
8.96875 3.39177186319745
9 3.38641625599067
9.03125 3.3810606487839
9.0625 3.37570504157713
9.09375 3.37034943437036
9.125 3.36499382716359
9.15625 3.35963821995682
9.1875 3.35428261275005
9.21875 3.34892700554327
9.25 3.3435713983365
9.28125 3.33821579112973
9.3125 3.33286018392296
9.34375 3.32750457671619
9.375 3.32214896950942
9.40625 3.31679336230265
9.4375 3.31143775509588
9.46875 3.3060821478891
9.5 3.30072654068233
9.53125 3.29537093347556
9.5625 3.29001532626879
9.59375 3.28465971906202
9.625 3.27930411185525
9.65625 3.27394850464848
9.6875 3.2685928974417
9.71875 3.26323729023493
9.75 3.25788168302816
9.78125 3.25252607582139
9.8125 3.24717046861462
9.84375 3.24181486140785
9.875 3.23645925420108
9.90625 3.2311036469943
9.9375 3.22574803978753
9.96875 3.22039243258076
10 3.21503682537399
10.03125 3.20968121816722
10.0625 3.20432561096045
10.09375 3.19897000375368
10.125 3.19361439654691
10.15625 3.18825878934013
10.1875 3.18290318213336
10.21875 3.17754757492659
10.25 3.17219196771982
10.28125 3.16683636051305
10.3125 3.16148075330628
10.34375 3.15612514609951
10.375 3.15076953889273
10.40625 3.14541393168596
10.4375 3.14005832447919
10.46875 3.13470271727242
10.5 3.12934711006565
10.53125 3.12399150285888
10.5625 3.11863589565211
10.59375 3.11328028844533
10.625 3.10792468123856
10.65625 3.10256907403179
10.6875 3.09721346682502
10.71875 3.09185785961825
10.75 3.08650225241148
10.78125 3.08114664520471
10.8125 3.07579103799794
10.84375 3.07043543079116
10.875 3.06507982358439
10.90625 3.05972421637762
10.9375 3.05436860917085
10.96875 3.04901300196408
11 3.04365739475731
11.03125 3.03830178755054
11.0625 3.03294618034376
11.09375 3.02759057313699
11.125 3.02223496593022
11.15625 3.01687935872345
11.1875 3.01152375151668
11.21875 3.00616814430991
11.25 3.00081253710314
11.28125 2.99545692989636
11.3125 2.99010132268959
11.34375 2.98474571548282
11.375 2.97939010827605
11.40625 2.97403450106928
11.4375 2.96867889386251
11.46875 2.96332328665574
11.5 2.95796767944897
11.53125 2.95261207224219
11.5625 2.94725646503542
11.59375 2.94190085782865
11.625 2.93654525062188
11.65625 2.93118964341511
11.6875 2.92583403620834
11.71875 2.92047842900157
11.75 2.91512282179479
11.78125 2.90976721458802
11.8125 2.90441160738125
11.84375 2.89905600017448
11.875 2.89370039296771
11.90625 2.88834478576094
11.9375 2.88298917855417
11.96875 2.87763357134739
12 2.87227796414062
12.03125 2.86692235693385
12.0625 2.86156674972708
12.09375 2.85621114252031
12.125 2.85085553531354
12.15625 2.84549992810677
12.1875 2.8401443209
12.21875 2.83478871369322
12.25 2.82943310648645
12.28125 2.82407749927968
12.3125 2.81872189207291
12.34375 2.81336628486614
12.375 2.80801067765937
12.40625 2.8026550704526
12.4375 2.79729946324582
12.46875 2.79194385603905
12.5 2.78658824883228
12.53125 2.78123264162551
12.5625 2.77587703441874
12.59375 2.77052142721197
12.625 2.7651658200052
12.65625 2.75981021279843
12.6875 2.75445460559165
12.71875 2.74909899838488
12.75 2.74374339117811
12.78125 2.73838778397134
12.8125 2.73303217676457
12.84375 2.7276765695578
12.875 2.72232096235103
12.90625 2.71696535514425
12.9375 2.71160974793748
12.96875 2.70625414073071
13 2.70089853352394
13.03125 2.69554292631717
13.0625 2.6901873191104
13.09375 2.68483171190363
13.125 2.67947610469685
13.15625 2.67412049749008
13.1875 2.66876489028331
13.21875 2.66340928307654
13.25 2.65805367586977
13.28125 2.652698068663
13.3125 2.64734246145623
13.34375 2.64198685424945
13.375 2.63663124704268
13.40625 2.63127563983591
13.4375 2.62592003262914
13.46875 2.62056442542237
13.5 2.6152088182156
13.53125 2.60985321100883
13.5625 2.60449760380206
13.59375 2.59914199659528
13.625 2.59378638938851
13.65625 2.58843078218174
13.6875 2.58307517497497
13.71875 2.5777195677682
13.75 2.57236396056143
13.78125 2.56700835335466
13.8125 2.56165274614788
13.84375 2.55629713894111
13.875 2.55094153173434
13.90625 2.54558592452757
13.9375 2.5402303173208
13.96875 2.53487471011403
14 2.52951910290726
14.03125 2.52416349570048
14.0625 2.51880788849371
14.09375 2.51345228128694
14.125 2.50809667408017
14.15625 2.5027410668734
14.1875 2.49738545966663
14.21875 2.49202985245986
14.25 2.48667424525309
14.28125 2.48131863804631
14.3125 2.47596303083954
14.34375 2.47060742363277
14.375 2.465251816426
14.40625 2.45989620921923
14.4375 2.45454060201246
14.46875 2.44918499480569
14.5 2.44382938759891
14.53125 2.43847378039214
14.5625 2.43311817318537
14.59375 2.4277625659786
14.625 2.42240695877183
14.65625 2.41705135156506
14.6875 2.41169574435829
14.71875 2.40634013715151
14.75 2.40098452994474
14.78125 2.39562892273797
14.8125 2.3902733155312
14.84375 2.38491770832443
14.875 2.37956210111766
14.90625 2.37420649391089
14.9375 2.36885088670412
14.96875 2.36349527949734


1 4.8171267468907
1.03125 4.81177113968393
1.0625 4.80641553247716
1.09375 4.80105992527039
1.125 4.79570431806362
1.15625 4.79034871085685
1.1875 4.78499310365008
1.21875 4.7796374964433
1.25 4.77428188923653
1.28125 4.76892628202976
1.3125 4.76357067482299
1.34375 4.75821506761622
1.375 4.75285946040945
1.40625 4.74750385320268
1.4375 4.7421482459959
1.46875 4.73679263878913
1.5 4.73143703158236
1.53125 4.72608142437559
1.5625 4.72072581716882
1.59375 4.71537020996205
1.625 4.71001460275528
1.65625 4.70465899554851
1.6875 4.69930338834173
1.71875 4.69394778113496
1.75 4.68859217392819
1.78125 4.68323656672142
1.8125 4.67788095951465
1.84375 4.67252535230788
1.875 4.66716974510111
1.90625 4.66181413789433
1.9375 4.65645853068756
1.96875 4.65110292348079
2 4.64574731627402
2.03125 4.64039170906725
2.0625 4.63503610186048
2.09375 4.62968049465371
2.125 4.62432488744694
2.15625 4.61896928024016
2.1875 4.61361367303339
2.21875 4.60825806582662
2.25 4.60290245861985
2.28125 4.59754685141308
2.3125 4.59219124420631
2.34375 4.58683563699954
2.375 4.58148002979276
2.40625 4.57612442258599
2.4375 4.57076881537922
2.46875 4.56541320817245
2.5 4.56005760096568
2.53125 4.55470199375891
2.5625 4.54934638655214
2.59375 4.54399077934536
2.625 4.53863517213859
2.65625 4.53327956493182
2.6875 4.52792395772505
2.71875 4.52256835051828
2.75 4.51721274331151
2.78125 4.51185713610474
2.8125 4.50650152889796
2.84375 4.50114592169119
2.875 4.49579031448442
2.90625 4.49043470727765
2.9375 4.48507910007088
2.96875 4.47972349286411
3 4.47436788565734
3.03125 4.46901227845057
3.0625 4.46365667124379
3.09375 4.45830106403702
3.125 4.45294545683025
3.15625 4.44758984962348
3.1875 4.44223424241671
3.21875 4.43687863520994
3.25 4.43152302800317
3.28125 4.42616742079639
3.3125 4.42081181358962
3.34375 4.41545620638285
3.375 4.41010059917608
3.40625 4.40474499196931
3.4375 4.39938938476254
3.46875 4.39403377755577
3.5 4.388678170349
3.53125 4.38332256314222
3.5625 4.37796695593545
3.59375 4.37261134872868
3.625 4.36725574152191
3.65625 4.36190013431514
3.6875 4.35654452710837
3.71875 4.3511889199016
3.75 4.34583331269482
3.78125 4.34047770548805
3.8125 4.33512209828128
3.84375 4.32976649107451
3.875 4.32441088386774
3.90625 4.31905527666097
3.9375 4.3136996694542
3.96875 4.30834406224742
4 4.30298845504065
4.03125 4.29763284783388
4.0625 4.29227724062711
4.09375 4.28692163342034
4.125 4.28156602621357
4.15625 4.2762104190068
4.1875 4.27085481180002
4.21875 4.26549920459325
4.25 4.26014359738648
4.28125 4.25478799017971
4.3125 4.24943238297294
4.34375 4.24407677576617
4.375 4.2387211685594
4.40625 4.23336556135263
4.4375 4.22800995414585
4.46875 4.22265434693908
4.5 4.21729873973231
4.53125 4.21194313252554
4.5625 4.20658752531877
4.59375 4.201231918112
4.625 4.19587631090523
4.65625 4.19052070369845
4.6875 4.18516509649168
4.71875 4.17980948928491
4.75 4.17445388207814
4.78125 4.16909827487137
4.8125 4.1637426676646
4.84375 4.15838706045783
4.875 4.15303145325105
4.90625 4.14767584604428
4.9375 4.14232023883751
4.96875 4.13696463163074
5 4.13160902442397
5.03125 4.1262534172172
5.0625 4.12089781001043
5.09375 4.11554220280366
5.125 4.11018659559688
5.15625 4.10483098839011
5.1875 4.09947538118334
5.21875 4.09411977397657
5.25 4.0887641667698
5.28125 4.08340855956303
5.3125 4.07805295235626
5.34375 4.07269734514948
5.375 4.06734173794271
5.40625 4.06198613073594
5.4375 4.05663052352917
5.46875 4.0512749163224
5.5 4.04591930911563
5.53125 4.04056370190886
5.5625 4.03520809470209
5.59375 4.02985248749531
5.625 4.02449688028854
5.65625 4.01914127308177
5.6875 4.013785665875
5.71875 4.00843005866823
5.75 4.00307445146146
5.78125 3.99771884425469
5.8125 3.99236323704791
5.84375 3.98700762984114
5.875 3.98165202263437
5.90625 3.9762964154276
5.9375 3.97094080822083
5.96875 3.96558520101406
6 3.96022959380729
6.03125 3.95487398660051
6.0625 3.94951837939374
6.09375 3.94416277218697
6.125 3.9388071649802
6.15625 3.93345155777343
6.1875 3.92809595056666
6.21875 3.92274034335989
6.25 3.91738473615311
6.28125 3.91202912894634
6.3125 3.90667352173957
6.34375 3.9013179145328
6.375 3.89596230732603
6.40625 3.89060670011926
6.4375 3.88525109291249
6.46875 3.87989548570572
6.5 3.87453987849894
6.53125 3.86918427129217
6.5625 3.8638286640854
6.59375 3.85847305687863
6.625 3.85311744967186
6.65625 3.84776184246509
6.6875 3.84240623525832
6.71875 3.83705062805154
6.75 3.83169502084477
6.78125 3.826339413638
6.8125 3.82098380643123
6.84375 3.81562819922446
6.875 3.81027259201769
6.90625 3.80491698481092
6.9375 3.79956137760415
6.96875 3.79420577039737
7 3.7888501631906
7.03125 3.78349455598383
7.0625 3.77813894877706
7.09375 3.77278334157029
7.125 3.76742773436352
7.15625 3.76207212715675
7.1875 3.75671651994997
7.21875 3.7513609127432
7.25 3.74600530553643
7.28125 3.74064969832966
7.3125 3.73529409112289
7.34375 3.72993848391612
7.375 3.72458287670935
7.40625 3.71922726950257
7.4375 3.7138716622958
7.46875 3.70851605508903
7.5 3.70316044788226
7.53125 3.69780484067549
7.5625 3.69244923346872
7.59375 3.68709362626195
7.625 3.68173801905517
7.65625 3.6763824118484
7.6875 3.67102680464163
7.71875 3.66567119743486
7.75 3.66031559022809
7.78125 3.65495998302132
7.8125 3.64960437581455
7.84375 3.64424876860778
7.875 3.638893161401
7.90625 3.63353755419423
7.9375 3.62818194698746
7.96875 3.62282633978069
8 3.61747073257392
8.03125 3.61211512536715
8.0625 3.60675951816038
8.09375 3.6014039109536
8.125 3.59604830374683
8.15625 3.59069269654006
8.1875 3.58533708933329
8.21875 3.57998148212652
8.25 3.57462587491975
8.28125 3.56927026771298
8.3125 3.5639146605062
8.34375 3.55855905329943
8.375 3.55320344609266
8.40625 3.54784783888589
8.4375 3.54249223167912
8.46875 3.53713662447235
8.5 3.53178101726558
8.53125 3.52642541005881
8.5625 3.52106980285203
8.59375 3.51571419564526
8.625 3.51035858843849
8.65625 3.50500298123172
8.6875 3.49964737402495
8.71875 3.49429176681818
8.75 3.48893615961141
8.78125 3.48358055240463
8.8125 3.47822494519786
8.84375 3.47286933799109
8.875 3.46751373078432
8.90625 3.46215812357755
8.9375 3.45680251637078
8.96875 3.45144690916401
9 3.44609130195724
9.03125 3.44073569475046
9.0625 3.43538008754369
9.09375 3.43002448033692
9.125 3.42466887313015
9.15625 3.41931326592338
9.1875 3.41395765871661
9.21875 3.40860205150984
9.25 3.40324644430306
9.28125 3.39789083709629
9.3125 3.39253522988952
9.34375 3.38717962268275
9.375 3.38182401547598
9.40625 3.37646840826921
9.4375 3.37111280106244
9.46875 3.36575719385566
9.5 3.36040158664889
9.53125 3.35504597944212
9.5625 3.34969037223535
9.59375 3.34433476502858
9.625 3.33897915782181
9.65625 3.33362355061504
9.6875 3.32826794340826
9.71875 3.32291233620149
9.75 3.31755672899472
9.78125 3.31220112178795
9.8125 3.30684551458118
9.84375 3.30148990737441
9.875 3.29613430016764
9.90625 3.29077869296087
9.9375 3.28542308575409
9.96875 3.28006747854732
10 3.27471187134055
10.03125 3.26935626413378
10.0625 3.26400065692701
10.09375 3.25864504972024
10.125 3.25328944251347
10.15625 3.24793383530669
10.1875 3.24257822809992
10.21875 3.23722262089315
10.25 3.23186701368638
10.28125 3.22651140647961
10.3125 3.22115579927284
10.34375 3.21580019206607
10.375 3.2104445848593
10.40625 3.20508897765252
10.4375 3.19973337044575
10.46875 3.19437776323898
10.5 3.18902215603221
10.53125 3.18366654882544
10.5625 3.17831094161867
10.59375 3.1729553344119
10.625 3.16759972720512
10.65625 3.16224411999835
10.6875 3.15688851279158
10.71875 3.15153290558481
10.75 3.14617729837804
10.78125 3.14082169117127
10.8125 3.1354660839645
10.84375 3.13011047675772
10.875 3.12475486955095
10.90625 3.11939926234418
10.9375 3.11404365513741
10.96875 3.10868804793064
11 3.10333244072387
11.03125 3.0979768335171
11.0625 3.09262122631033
11.09375 3.08726561910355
11.125 3.08191001189678
11.15625 3.07655440469001
11.1875 3.07119879748324
11.21875 3.06584319027647
11.25 3.0604875830697
11.28125 3.05513197586293
11.3125 3.04977636865615
11.34375 3.04442076144938
11.375 3.03906515424261
11.40625 3.03370954703584
11.4375 3.02835393982907
11.46875 3.0229983326223
11.5 3.01764272541553
11.53125 3.01228711820875
11.5625 3.00693151100198
11.59375 3.00157590379521
11.625 2.99622029658844
11.65625 2.99086468938167
11.6875 2.9855090821749
11.71875 2.98015347496813
11.75 2.97479786776135
11.78125 2.96944226055458
11.8125 2.96408665334781
11.84375 2.95873104614104
11.875 2.95337543893427
11.90625 2.9480198317275
11.9375 2.94266422452073
11.96875 2.93730861731396
12 2.93195301010718
12.03125 2.92659740290041
12.0625 2.92124179569364
12.09375 2.91588618848687
12.125 2.9105305812801
12.15625 2.90517497407333
12.1875 2.89981936686656
12.21875 2.89446375965978
12.25 2.88910815245301
12.28125 2.88375254524624
12.3125 2.87839693803947
12.34375 2.8730413308327
12.375 2.86768572362593
12.40625 2.86233011641916
12.4375 2.85697450921238
12.46875 2.85161890200561
12.5 2.84626329479884
12.53125 2.84090768759207
12.5625 2.8355520803853
12.59375 2.83019647317853
12.625 2.82484086597176
12.65625 2.81948525876499
12.6875 2.81412965155821
12.71875 2.80877404435144
12.75 2.80341843714467
12.78125 2.7980628299379
12.8125 2.79270722273113
12.84375 2.78735161552436
12.875 2.78199600831759
12.90625 2.77664040111081
12.9375 2.77128479390404
12.96875 2.76592918669727
13 2.7605735794905
13.03125 2.75521797228373
13.0625 2.74986236507696
13.09375 2.74450675787019
13.125 2.73915115066342
13.15625 2.73379554345664
13.1875 2.72843993624987
13.21875 2.7230843290431
13.25 2.71772872183633
13.28125 2.71237311462956
13.3125 2.70701750742279
13.34375 2.70166190021602
13.375 2.69630629300924
13.40625 2.69095068580247
13.4375 2.6855950785957
13.46875 2.68023947138893
13.5 2.67488386418216
13.53125 2.66952825697539
13.5625 2.66417264976862
13.59375 2.65881704256184
13.625 2.65346143535507
13.65625 2.6481058281483
13.6875 2.64275022094153
13.71875 2.63739461373476
13.75 2.63203900652799
13.78125 2.62668339932122
13.8125 2.62132779211445
13.84375 2.61597218490767
13.875 2.6106165777009
13.90625 2.60526097049413
13.9375 2.59990536328736
13.96875 2.59454975608059
14 2.58919414887382
14.03125 2.58383854166705
14.0625 2.57848293446027
14.09375 2.5731273272535
14.125 2.56777172004673
14.15625 2.56241611283996
14.1875 2.55706050563319
14.21875 2.55170489842642
14.25 2.54634929121965
14.28125 2.54099368401287
14.3125 2.5356380768061
14.34375 2.53028246959933
14.375 2.52492686239256
14.40625 2.51957125518579
14.4375 2.51421564797902
14.46875 2.50886004077225
14.5 2.50350443356548
14.53125 2.4981488263587
14.5625 2.49279321915193
14.59375 2.48743761194516
14.625 2.48208200473839
14.65625 2.47672639753162
14.6875 2.47137079032485
14.71875 2.46601518311808
14.75 2.4606595759113
14.78125 2.45530396870453
14.8125 2.44994836149776
14.84375 2.44459275429099
14.875 2.43923714708422
14.90625 2.43388153987745
14.9375 2.42852593267068
14.96875 2.4231703254639


1 4.78375369000149
1.03125 4.77828759736016
1.0625 4.77282150471883
1.09375 4.7673554120775
1.125 4.76188931943616
1.15625 4.75642322679483
1.1875 4.7509571341535
1.21875 4.74549104151217
1.25 4.74002494887084
1.28125 4.7345588562295
1.3125 4.72909276358817
1.34375 4.72362667094684
1.375 4.71816057830551
1.40625 4.71269448566418
1.4375 4.70722839302285
1.46875 4.70176230038151
1.5 4.69629620774018
1.53125 4.69083011509885
1.5625 4.68536402245752
1.59375 4.67989792981619
1.625 4.67443183717486
1.65625 4.66896574453352
1.6875 4.66349965189219
1.71875 4.65803355925086
1.75 4.65256746660953
1.78125 4.6471013739682
1.8125 4.64163528132686
1.84375 4.63616918868553
1.875 4.6307030960442
1.90625 4.62523700340287
1.9375 4.61977091076154
1.96875 4.61430481812021
2 4.60883872547887
2.03125 4.60337263283754
2.0625 4.59790654019621
2.09375 4.59244044755488
2.125 4.58697435491355
2.15625 4.58150826227222
2.1875 4.57604216963088
2.21875 4.57057607698955
2.25 4.56510998434822
2.28125 4.55964389170689
2.3125 4.55417779906556
2.34375 4.54871170642422
2.375 4.54324561378289
2.40625 4.53777952114156
2.4375 4.53231342850023
2.46875 4.5268473358589
2.5 4.52138124321757
2.53125 4.51591515057623
2.5625 4.5104490579349
2.59375 4.50498296529357
2.625 4.49951687265224
2.65625 4.49405078001091
2.6875 4.48858468736958
2.71875 4.48311859472824
2.75 4.47765250208691
2.78125 4.47218640944558
2.8125 4.46672031680425
2.84375 4.46125422416292
2.875 4.45578813152158
2.90625 4.45032203888025
2.9375 4.44485594623892
2.96875 4.43938985359759
3 4.43392376095626
3.03125 4.42845766831493
3.0625 4.42299157567359
3.09375 4.41752548303226
3.125 4.41205939039093
3.15625 4.4065932977496
3.1875 4.40112720510827
3.21875 4.39566111246694
3.25 4.3901950198256
3.28125 4.38472892718427
3.3125 4.37926283454294
3.34375 4.37379674190161
3.375 4.36833064926028
3.40625 4.36286455661894
3.4375 4.35739846397761
3.46875 4.35193237133628
3.5 4.34646627869495
3.53125 4.34100018605362
3.5625 4.33553409341229
3.59375 4.33006800077095
3.625 4.32460190812962
3.65625 4.31913581548829
3.6875 4.31366972284696
3.71875 4.30820363020563
3.75 4.3027375375643
3.78125 4.29727144492296
3.8125 4.29180535228163
3.84375 4.2863392596403
3.875 4.28087316699897
3.90625 4.27540707435764
3.9375 4.2699409817163
3.96875 4.26447488907497
4 4.25900879643364
4.03125 4.25354270379231
4.0625 4.24807661115098
4.09375 4.24261051850965
4.125 4.23714442586831
4.15625 4.23167833322698
4.1875 4.22621224058565
4.21875 4.22074614794432
4.25 4.21528005530299
4.28125 4.20981396266166
4.3125 4.20434787002032
4.34375 4.19888177737899
4.375 4.19341568473766
4.40625 4.18794959209633
4.4375 4.182483499455
4.46875 4.17701740681366
4.5 4.17155131417233
4.53125 4.166085221531
4.5625 4.16061912888967
4.59375 4.15515303624834
4.625 4.14968694360701
4.65625 4.14422085096567
4.6875 4.13875475832434
4.71875 4.13328866568301
4.75 4.12782257304168
4.78125 4.12235648040035
4.8125 4.11689038775902
4.84375 4.11142429511768
4.875 4.10595820247635
4.90625 4.10049210983502
4.9375 4.09502601719369
4.96875 4.08955992455236
5 4.08409383191102
5.03125 4.07862773926969
5.0625 4.07316164662836
5.09375 4.06769555398703
5.125 4.0622294613457
5.15625 4.05676336870437
5.1875 4.05129727606303
5.21875 4.0458311834217
5.25 4.04036509078037
5.28125 4.03489899813904
5.3125 4.02943290549771
5.34375 4.02396681285638
5.375 4.01850072021504
5.40625 4.01303462757371
5.4375 4.00756853493238
5.46875 4.00210244229105
5.5 3.99663634964972
5.53125 3.99117025700839
5.5625 3.98570416436705
5.59375 3.98023807172572
5.625 3.97477197908439
5.65625 3.96930588644306
5.6875 3.96383979380173
5.71875 3.95837370116039
5.75 3.95290760851906
5.78125 3.94744151587773
5.8125 3.9419754232364
5.84375 3.93650933059507
5.875 3.93104323795374
5.90625 3.9255771453124
5.9375 3.92011105267107
5.96875 3.91464496002974
6 3.90917886738841
6.03125 3.90371277474708
6.0625 3.89824668210575
6.09375 3.89278058946441
6.125 3.88731449682308
6.15625 3.88184840418175
6.1875 3.87638231154042
6.21875 3.87091621889909
6.25 3.86545012625775
6.28125 3.85998403361642
6.3125 3.85451794097509
6.34375 3.84905184833376
6.375 3.84358575569243
6.40625 3.8381196630511
6.4375 3.83265357040976
6.46875 3.82718747776843
6.5 3.8217213851271
6.53125 3.81625529248577
6.5625 3.81078919984444
6.59375 3.80532310720311
6.625 3.79985701456177
6.65625 3.79439092192044
6.6875 3.78892482927911
6.71875 3.78345873663778
6.75 3.77799264399645
6.78125 3.77252655135511
6.8125 3.76706045871378
6.84375 3.76159436607245
6.875 3.75612827343112
6.90625 3.75066218078979
6.9375 3.74519608814846
6.96875 3.73972999550712
7 3.73426390286579
7.03125 3.72879781022446
7.0625 3.72333171758313
7.09375 3.7178656249418
7.125 3.71239953230047
7.15625 3.70693343965913
7.1875 3.7014673470178
7.21875 3.69600125437647
7.25 3.69053516173514
7.28125 3.68506906909381
7.3125 3.67960297645247
7.34375 3.67413688381114
7.375 3.66867079116981
7.40625 3.66320469852848
7.4375 3.65773860588715
7.46875 3.65227251324582
7.5 3.64680642060448
7.53125 3.64134032796315
7.5625 3.63587423532182
7.59375 3.63040814268049
7.625 3.62494205003916
7.65625 3.61947595739783
7.6875 3.61400986475649
7.71875 3.60854377211516
7.75 3.60307767947383
7.78125 3.5976115868325
7.8125 3.59214549419117
7.84375 3.58667940154983
7.875 3.5812133089085
7.90625 3.57574721626717
7.9375 3.57028112362584
7.96875 3.56481503098451
8 3.55934893834318
8.03125 3.55388284570184
8.0625 3.54841675306051
8.09375 3.54295066041918
8.125 3.53748456777785
8.15625 3.53201847513652
8.1875 3.52655238249519
8.21875 3.52108628985385
8.25 3.51562019721252
8.28125 3.51015410457119
8.3125 3.50468801192986
8.34375 3.49922191928853
8.375 3.49375582664719
8.40625 3.48828973400586
8.4375 3.48282364136453
8.46875 3.4773575487232
8.5 3.47189145608187
8.53125 3.46642536344054
8.5625 3.4609592707992
8.59375 3.45549317815787
8.625 3.45002708551654
8.65625 3.44456099287521
8.6875 3.43909490023388
8.71875 3.43362880759255
8.75 3.42816271495121
8.78125 3.42269662230988
8.8125 3.41723052966855
8.84375 3.41176443702722
8.875 3.40629834438589
8.90625 3.40083225174455
8.9375 3.39536615910322
8.96875 3.38990006646189
9 3.38443397382056
9.03125 3.37896788117923
9.0625 3.3735017885379
9.09375 3.36803569589656
9.125 3.36256960325523
9.15625 3.3571035106139
9.1875 3.35163741797257
9.21875 3.34617132533124
9.25 3.34070523268991
9.28125 3.33523914004857
9.3125 3.32977304740724
9.34375 3.32430695476591
9.375 3.31884086212458
9.40625 3.31337476948325
9.4375 3.30790867684192
9.46875 3.30244258420058
9.5 3.29697649155925
9.53125 3.29151039891792
9.5625 3.28604430627659
9.59375 3.28057821363526
9.625 3.27511212099392
9.65625 3.26964602835259
9.6875 3.26417993571126
9.71875 3.25871384306993
9.75 3.2532477504286
9.78125 3.24778165778727
9.8125 3.24231556514593
9.84375 3.2368494725046
9.875 3.23138337986327
9.90625 3.22591728722194
9.9375 3.22045119458061
9.96875 3.21498510193928
10 3.20951900929794
10.03125 3.20405291665661
10.0625 3.19858682401528
10.09375 3.19312073137395
10.125 3.18765463873262
10.15625 3.18218854609128
10.1875 3.17672245344995
10.21875 3.17125636080862
10.25 3.16579026816729
10.28125 3.16032417552596
10.3125 3.15485808288463
10.34375 3.14939199024329
10.375 3.14392589760196
10.40625 3.13845980496063
10.4375 3.1329937123193
10.46875 3.12752761967797
10.5 3.12206152703664
10.53125 3.1165954343953
10.5625 3.11112934175397
10.59375 3.10566324911264
10.625 3.10019715647131
10.65625 3.09473106382998
10.6875 3.08926497118864
10.71875 3.08379887854731
10.75 3.07833278590598
10.78125 3.07286669326465
10.8125 3.06740060062332
10.84375 3.06193450798199
10.875 3.05646841534065
10.90625 3.05100232269932
10.9375 3.04553623005799
10.96875 3.04007013741666
11 3.03460404477533
11.03125 3.029137952134
11.0625 3.02367185949266
11.09375 3.01820576685133
11.125 3.01273967421
11.15625 3.00727358156867
11.1875 3.00180748892734
11.21875 2.996341396286
11.25 2.99087530364467
11.28125 2.98540921100334
11.3125 2.97994311836201
11.34375 2.97447702572068
11.375 2.96901093307935
11.40625 2.96354484043801
11.4375 2.95807874779668
11.46875 2.95261265515535
11.5 2.94714656251402
11.53125 2.94168046987269
11.5625 2.93621437723136
11.59375 2.93074828459002
11.625 2.92528219194869
11.65625 2.91981609930736
11.6875 2.91435000666603
11.71875 2.9088839140247
11.75 2.90341782138336
11.78125 2.89795172874203
11.8125 2.8924856361007
11.84375 2.88701954345937
11.875 2.88155345081804
11.90625 2.87608735817671
11.9375 2.87062126553537
11.96875 2.86515517289404
12 2.85968908025271
12.03125 2.85422298761138
12.0625 2.84875689497005
12.09375 2.84329080232872
12.125 2.83782470968738
12.15625 2.83235861704605
12.1875 2.82689252440472
12.21875 2.82142643176339
12.25 2.81596033912206
12.28125 2.81049424648072
12.3125 2.80502815383939
12.34375 2.79956206119806
12.375 2.79409596855673
12.40625 2.7886298759154
12.4375 2.78316378327407
12.46875 2.77769769063273
12.5 2.7722315979914
12.53125 2.76676550535007
12.5625 2.76129941270874
12.59375 2.75583332006741
12.625 2.75036722742608
12.65625 2.74490113478474
12.6875 2.73943504214341
12.71875 2.73396894950208
12.75 2.72850285686075
12.78125 2.72303676421942
12.8125 2.71757067157808
12.84375 2.71210457893675
12.875 2.70663848629542
12.90625 2.70117239365409
12.9375 2.69570630101276
12.96875 2.69024020837143
13 2.68477411573009
13.03125 2.67930802308876
13.0625 2.67384193044743
13.09375 2.6683758378061
13.125 2.66290974516477
13.15625 2.65744365252344
13.1875 2.6519775598821
13.21875 2.64651146724077
13.25 2.64104537459944
13.28125 2.63557928195811
13.3125 2.63011318931678
13.34375 2.62464709667544
13.375 2.61918100403411
13.40625 2.61371491139278
13.4375 2.60824881875145
13.46875 2.60278272611012
13.5 2.59731663346879
13.53125 2.59185054082745
13.5625 2.58638444818612
13.59375 2.58091835554479
13.625 2.57545226290346
13.65625 2.56998617026213
13.6875 2.5645200776208
13.71875 2.55905398497946
13.75 2.55358789233813
13.78125 2.5481217996968
13.8125 2.54265570705547
13.84375 2.53718961441414
13.875 2.5317235217728
13.90625 2.52625742913147
13.9375 2.52079133649014
13.96875 2.51532524384881
14 2.50985915120748
14.03125 2.50439305856615
14.0625 2.49892696592481
14.09375 2.49346087328348
14.125 2.48799478064215
14.15625 2.48252868800082
14.1875 2.47706259535949
14.21875 2.47159650271816
14.25 2.46613041007682
14.28125 2.46066431743549
14.3125 2.45519822479416
14.34375 2.44973213215283
14.375 2.4442660395115
14.40625 2.43879994687016
14.4375 2.43333385422883
14.46875 2.4278677615875
14.5 2.42240166894617
14.53125 2.41693557630484
14.5625 2.41146948366351
14.59375 2.40600339102217
14.625 2.40053729838084
14.65625 2.39507120573951
14.6875 2.38960511309818
14.71875 2.38413902045685
14.75 2.37867292781552
14.78125 2.37320683517418
14.8125 2.36774074253285
14.84375 2.36227464989152
14.875 2.35680855725019
14.90625 2.35134246460886
14.9375 2.34587637196752
14.96875 2.34041027932619


1 4.79082475781336
1.03125 4.78557963604115
1.0625 4.78033451426893
1.09375 4.77508939249672
1.125 4.76984427072451
1.15625 4.7645991489523
1.1875 4.75935402718009
1.21875 4.75410890540788
1.25 4.74886378363567
1.28125 4.74361866186346
1.3125 4.73837354009125
1.34375 4.73312841831904
1.375 4.72788329654682
1.40625 4.72263817477461
1.4375 4.7173930530024
1.46875 4.71214793123019
1.5 4.70690280945798
1.53125 4.70165768768577
1.5625 4.69641256591356
1.59375 4.69116744414135
1.625 4.68592232236914
1.65625 4.68067720059693
1.6875 4.67543207882472
1.71875 4.6701869570525
1.75 4.66494183528029
1.78125 4.65969671350808
1.8125 4.65445159173587
1.84375 4.64920646996366
1.875 4.64396134819145
1.90625 4.63871622641924
1.9375 4.63347110464703
1.96875 4.62822598287482
2 4.62298086110261
2.03125 4.61773573933039
2.0625 4.61249061755818
2.09375 4.60724549578597
2.125 4.60200037401376
2.15625 4.59675525224155
2.1875 4.59151013046934
2.21875 4.58626500869713
2.25 4.58101988692492
2.28125 4.57577476515271
2.3125 4.5705296433805
2.34375 4.56528452160828
2.375 4.56003939983607
2.40625 4.55479427806386
2.4375 4.54954915629165
2.46875 4.54430403451944
2.5 4.53905891274723
2.53125 4.53381379097502
2.5625 4.52856866920281
2.59375 4.5233235474306
2.625 4.51807842565839
2.65625 4.51283330388618
2.6875 4.50758818211396
2.71875 4.50234306034175
2.75 4.49709793856954
2.78125 4.49185281679733
2.8125 4.48660769502512
2.84375 4.48136257325291
2.875 4.4761174514807
2.90625 4.47087232970849
2.9375 4.46562720793628
2.96875 4.46038208616407
3 4.45513696439185
3.03125 4.44989184261964
3.0625 4.44464672084743
3.09375 4.43940159907522
3.125 4.43415647730301
3.15625 4.4289113555308
3.1875 4.42366623375859
3.21875 4.41842111198638
3.25 4.41317599021417
3.28125 4.40793086844196
3.3125 4.40268574666974
3.34375 4.39744062489753
3.375 4.39219550312532
3.40625 4.38695038135311
3.4375 4.3817052595809
3.46875 4.37646013780869
3.5 4.37121501603648
3.53125 4.36596989426427
3.5625 4.36072477249206
3.59375 4.35547965071985
3.625 4.35023452894764
3.65625 4.34498940717542
3.6875 4.33974428540321
3.71875 4.334499163631
3.75 4.32925404185879
3.78125 4.32400892008658
3.8125 4.31876379831437
3.84375 4.31351867654216
3.875 4.30827355476995
3.90625 4.30302843299774
3.9375 4.29778331122553
3.96875 4.29253818945331
4 4.2872930676811
4.03125 4.28204794590889
4.0625 4.27680282413668
4.09375 4.27155770236447
4.125 4.26631258059226
4.15625 4.26106745882005
4.1875 4.25582233704784
4.21875 4.25057721527563
4.25 4.24533209350342
4.28125 4.24008697173121
4.3125 4.23484184995899
4.34375 4.22959672818678
4.375 4.22435160641457
4.40625 4.21910648464236
4.4375 4.21386136287015
4.46875 4.20861624109794
4.5 4.20337111932573
4.53125 4.19812599755352
4.5625 4.19288087578131
4.59375 4.1876357540091
4.625 4.18239063223688
4.65625 4.17714551046467
4.6875 4.17190038869246
4.71875 4.16665526692025
4.75 4.16141014514804
4.78125 4.15616502337583
4.8125 4.15091990160362
4.84375 4.14567477983141
4.875 4.1404296580592
4.90625 4.13518453628699
4.9375 4.12993941451477
4.96875 4.12469429274256
5 4.11944917097035
5.03125 4.11420404919814
5.0625 4.10895892742593
5.09375 4.10371380565372
5.125 4.09846868388151
5.15625 4.0932235621093
5.1875 4.08797844033709
5.21875 4.08273331856488
5.25 4.07748819679267
5.28125 4.07224307502045
5.3125 4.06699795324824
5.34375 4.06175283147603
5.375 4.05650770970382
5.40625 4.05126258793161
5.4375 4.0460174661594
5.46875 4.04077234438719
5.5 4.03552722261498
5.53125 4.03028210084277
5.5625 4.02503697907056
5.59375 4.01979185729834
5.625 4.01454673552613
5.65625 4.00930161375392
5.6875 4.00405649198171
5.71875 3.9988113702095
5.75 3.99356624843729
5.78125 3.98832112666508
5.8125 3.98307600489287
5.84375 3.97783088312066
5.875 3.97258576134845
5.90625 3.96734063957623
5.9375 3.96209551780402
5.96875 3.95685039603181
6 3.9516052742596
6.03125 3.94636015248739
6.0625 3.94111503071518
6.09375 3.93586990894297
6.125 3.93062478717076
6.15625 3.92537966539855
6.1875 3.92013454362634
6.21875 3.91488942185413
6.25 3.90964430008191
6.28125 3.9043991783097
6.3125 3.89915405653749
6.34375 3.89390893476528
6.375 3.88866381299307
6.40625 3.88341869122086
6.4375 3.87817356944865
6.46875 3.87292844767644
6.5 3.86768332590423
6.53125 3.86243820413202
6.5625 3.8571930823598
6.59375 3.85194796058759
6.625 3.84670283881538
6.65625 3.84145771704317
6.6875 3.83621259527096
6.71875 3.83096747349875
6.75 3.82572235172654
6.78125 3.82047722995433
6.8125 3.81523210818212
6.84375 3.80998698640991
6.875 3.80474186463769
6.90625 3.79949674286548
6.9375 3.79425162109327
6.96875 3.78900649932106
7 3.78376137754885
7.03125 3.77851625577664
7.0625 3.77327113400443
7.09375 3.76802601223222
7.125 3.76278089046001
7.15625 3.7575357686878
7.1875 3.75229064691559
7.21875 3.74704552514337
7.25 3.74180040337116
7.28125 3.73655528159895
7.3125 3.73131015982674
7.34375 3.72606503805453
7.375 3.72081991628232
7.40625 3.71557479451011
7.4375 3.7103296727379
7.46875 3.70508455096569
7.5 3.69983942919348
7.53125 3.69459430742126
7.5625 3.68934918564905
7.59375 3.68410406387684
7.625 3.67885894210463
7.65625 3.67361382033242
7.6875 3.66836869856021
7.71875 3.663123576788
7.75 3.65787845501579
7.78125 3.65263333324358
7.8125 3.64738821147137
7.84375 3.64214308969916
7.875 3.63689796792694
7.90625 3.63165284615473
7.9375 3.62640772438252
7.96875 3.62116260261031
8 3.6159174808381
8.03125 3.61067235906589
8.0625 3.60542723729368
8.09375 3.60018211552147
8.125 3.59493699374926
8.15625 3.58969187197705
8.1875 3.58444675020483
8.21875 3.57920162843262
8.25 3.57395650666041
8.28125 3.5687113848882
8.3125 3.56346626311599
8.34375 3.55822114134378
8.375 3.55297601957157
8.40625 3.54773089779936
8.4375 3.54248577602715
8.46875 3.53724065425494
8.5 3.53199553248272
8.53125 3.52675041071051
8.5625 3.5215052889383
8.59375 3.51626016716609
8.625 3.51101504539388
8.65625 3.50576992362167
8.6875 3.50052480184946
8.71875 3.49527968007725
8.75 3.49003455830504
8.78125 3.48478943653283
8.8125 3.47954431476062
8.84375 3.4742991929884
8.875 3.46905407121619
8.90625 3.46380894944398
8.9375 3.45856382767177
8.96875 3.45331870589956
9 3.44807358412735
9.03125 3.44282846235514
9.0625 3.43758334058293
9.09375 3.43233821881072
9.125 3.42709309703851
9.15625 3.42184797526629
9.1875 3.41660285349408
9.21875 3.41135773172187
9.25 3.40611260994966
9.28125 3.40086748817745
9.3125 3.39562236640524
9.34375 3.39037724463303
9.375 3.38513212286082
9.40625 3.37988700108861
9.4375 3.3746418793164
9.46875 3.36939675754418
9.5 3.36415163577197
9.53125 3.35890651399976
9.5625 3.35366139222755
9.59375 3.34841627045534
9.625 3.34317114868313
9.65625 3.33792602691092
9.6875 3.33268090513871
9.71875 3.3274357833665
9.75 3.32219066159429
9.78125 3.31694553982208
9.8125 3.31170041804986
9.84375 3.30645529627765
9.875 3.30121017450544
9.90625 3.29596505273323
9.9375 3.29071993096102
9.96875 3.28547480918881
10 3.2802296874166
10.03125 3.27498456564439
10.0625 3.26973944387218
10.09375 3.26449432209997
10.125 3.25924920032775
10.15625 3.25400407855554
10.1875 3.24875895678333
10.21875 3.24351383501112
10.25 3.23826871323891
10.28125 3.2330235914667
10.3125 3.22777846969449
10.34375 3.22253334792228
10.375 3.21728822615007
10.40625 3.21204310437786
10.4375 3.20679798260564
10.46875 3.20155286083343
10.5 3.19630773906122
10.53125 3.19106261728901
10.5625 3.1858174955168
10.59375 3.18057237374459
10.625 3.17532725197238
10.65625 3.17008213020017
10.6875 3.16483700842796
10.71875 3.15959188665575
10.75 3.15434676488354
10.78125 3.14910164311132
10.8125 3.14385652133911
10.84375 3.1386113995669
10.875 3.13336627779469
10.90625 3.12812115602248
10.9375 3.12287603425027
10.96875 3.11763091247806
11 3.11238579070585
11.03125 3.10714066893364
11.0625 3.10189554716143
11.09375 3.09665042538921
11.125 3.091405303617
11.15625 3.08616018184479
11.1875 3.08091506007258
11.21875 3.07566993830037
11.25 3.07042481652816
11.28125 3.06517969475595
11.3125 3.05993457298374
11.34375 3.05468945121153
11.375 3.04944432943932
11.40625 3.04419920766711
11.4375 3.03895408589489
11.46875 3.03370896412268
11.5 3.02846384235047
11.53125 3.02321872057826
11.5625 3.01797359880605
11.59375 3.01272847703384
11.625 3.00748335526163
11.65625 3.00223823348942
11.6875 2.99699311171721
11.71875 2.991747989945
11.75 2.98650286817278
11.78125 2.98125774640057
11.8125 2.97601262462836
11.84375 2.97076750285615
11.875 2.96552238108394
11.90625 2.96027725931173
11.9375 2.95503213753952
11.96875 2.94978701576731
12 2.9445418939951
12.03125 2.93929677222289
12.0625 2.93405165045067
12.09375 2.92880652867846
12.125 2.92356140690625
12.15625 2.91831628513404
12.1875 2.91307116336183
12.21875 2.90782604158962
12.25 2.90258091981741
12.28125 2.8973357980452
12.3125 2.89209067627299
12.34375 2.88684555450078
12.375 2.88160043272857
12.40625 2.87635531095635
12.4375 2.87111018918414
12.46875 2.86586506741193
12.5 2.86061994563972
12.53125 2.85537482386751
12.5625 2.8501297020953
12.59375 2.84488458032309
12.625 2.83963945855088
12.65625 2.83439433677867
12.6875 2.82914921500646
12.71875 2.82390409323424
12.75 2.81865897146203
12.78125 2.81341384968982
12.8125 2.80816872791761
12.84375 2.8029236061454
12.875 2.79767848437319
12.90625 2.79243336260098
12.9375 2.78718824082877
12.96875 2.78194311905656
13 2.77669799728435
13.03125 2.77145287551213
13.0625 2.76620775373992
13.09375 2.76096263196771
13.125 2.7557175101955
13.15625 2.75047238842329
13.1875 2.74522726665108
13.21875 2.73998214487887
13.25 2.73473702310666
13.28125 2.72949190133445
13.3125 2.72424677956224
13.34375 2.71900165779003
13.375 2.71375653601781
13.40625 2.7085114142456
13.4375 2.70326629247339
13.46875 2.69802117070118
13.5 2.69277604892897
13.53125 2.68753092715676
13.5625 2.68228580538455
13.59375 2.67704068361234
13.625 2.67179556184013
13.65625 2.66655044006792
13.6875 2.6613053182957
13.71875 2.65606019652349
13.75 2.65081507475128
13.78125 2.64556995297907
13.8125 2.64032483120686
13.84375 2.63507970943465
13.875 2.62983458766244
13.90625 2.62458946589023
13.9375 2.61934434411802
13.96875 2.61409922234581
14 2.6088541005736
14.03125 2.60360897880138
14.0625 2.59836385702917
14.09375 2.59311873525696
14.125 2.58787361348475
14.15625 2.58262849171254
14.1875 2.57738336994033
14.21875 2.57213824816812
14.25 2.56689312639591
14.28125 2.5616480046237
14.3125 2.55640288285149
14.34375 2.55115776107927
14.375 2.54591263930706
14.40625 2.54066751753485
14.4375 2.53542239576264
14.46875 2.53017727399043
14.5 2.52493215221822
14.53125 2.51968703044601
14.5625 2.5144419086738
14.59375 2.50919678690159
14.625 2.50395166512938
14.65625 2.49870654335716
14.6875 2.49346142158495
14.71875 2.48821629981274
14.75 2.48297117804053
14.78125 2.47772605626832
14.8125 2.47248093449611
14.84375 2.4672358127239
14.875 2.46199069095169
14.90625 2.45674556917948
14.9375 2.45150044740727
14.96875 2.44625532563506
