2 6964
3 252
4 73
5 254
6 208
7 323
8 428
9 541
10 746
11 1469
12 1263
13 1465
14 1945
15 3661
16 2895
17 3182
18 3610
19 4246
20 5515
21 5527
22 5931
23 8150
24 8666
25 8936
26 10671
27 11940
28 13497
29 14345
30 16469
31 18143
32 21098
33 21363
34 24351
35 25095
36 27263
37 31444
38 34753
39 34392
40 42465
41 47725
42 44157
43 44817
44 48944
45 81735
46 105703
47 73192
48 72744
49 81478
50 78877
