\relax 
\newlabel{eq:diff-eq}{{1}{1}}
\newlabel{eq:init_cond}{{2}{1}}
\newlabel{eq:bad_init_cond}{{3}{1}}
\@writefile{lof}{\contentsline {figure}{\numberline {1}{\ignorespaces Demonstration of the implementation along with tabulated values from the standard System.Math library.}}{2}}
\newlabel{fig:sqrt}{{1}{2}}
