%!PS-Adobe-3.0 EPSF-3.0
%%Creator: cairo 1.15.10 (http://cairographics.org)
%%CreationDate: Tue May 26 11:50:46 2020
%%Pages: 1
%%DocumentData: Clean7Bit
%%LanguageLevel: 2
%%BoundingBox: 0 0 360 216
%%EndComments
%%BeginProlog
50 dict begin
/q { gsave } bind def
/Q { grestore } bind def
/cm { 6 array astore concat } bind def
/w { setlinewidth } bind def
/J { setlinecap } bind def
/j { setlinejoin } bind def
/M { setmiterlimit } bind def
/d { setdash } bind def
/m { moveto } bind def
/l { lineto } bind def
/c { curveto } bind def
/h { closepath } bind def
/re { exch dup neg 3 1 roll 5 3 roll moveto 0 rlineto
      0 exch rlineto 0 rlineto closepath } bind def
/S { stroke } bind def
/f { fill } bind def
/f* { eofill } bind def
/n { newpath } bind def
/W { clip } bind def
/W* { eoclip } bind def
/BT { } bind def
/ET { } bind def
/BDC { mark 3 1 roll /BDC pdfmark } bind def
/EMC { mark /EMC pdfmark } bind def
/cairo_store_point { /cairo_point_y exch def /cairo_point_x exch def } def
/Tj { show currentpoint cairo_store_point } bind def
/TJ {
  {
    dup
    type /stringtype eq
    { show } { -0.001 mul 0 cairo_font_matrix dtransform rmoveto } ifelse
  } forall
  currentpoint cairo_store_point
} bind def
/cairo_selectfont { cairo_font_matrix aload pop pop pop 0 0 6 array astore
    cairo_font exch selectfont cairo_point_x cairo_point_y moveto } bind def
/Tf { pop /cairo_font exch def /cairo_font_matrix where
      { pop cairo_selectfont } if } bind def
/Td { matrix translate cairo_font_matrix matrix concatmatrix dup
      /cairo_font_matrix exch def dup 4 get exch 5 get cairo_store_point
      /cairo_font where { pop cairo_selectfont } if } bind def
/Tm { 2 copy 8 2 roll 6 array astore /cairo_font_matrix exch def
      cairo_store_point /cairo_font where { pop cairo_selectfont } if } bind def
/g { setgray } bind def
/rg { setrgbcolor } bind def
/d1 { setcachedevice } bind def
/cairo_data_source {
  CairoDataIndex CairoData length lt
    { CairoData CairoDataIndex get /CairoDataIndex CairoDataIndex 1 add def }
    { () } ifelse
} def
/cairo_flush_ascii85_file { cairo_ascii85_file status { cairo_ascii85_file flushfile } if } def
/cairo_image { image cairo_flush_ascii85_file } def
/cairo_imagemask { imagemask cairo_flush_ascii85_file } def
%%EndProlog
%%BeginSetup
%%EndSetup
%%Page: 1 1
%%BeginPageSetup
%%PageBoundingBox: 0 0 360 216
%%EndPageSetup
q 37 29 309 181 rectclip
1 0 0 -1 0 216 cm q
0 g
0.2 w
0 J
0 j
[ 0.2 2] 0 d
3.8 M q 1 0 0 1 0 0 cm
41.551 183.051 m 341.449 183.051 l S Q
0.25 w
[] 0.0 d
q 1 0 0 1 0 0 cm
41.551 183.051 m 37.852 183.051 l S Q
q 1 0 0 1 0 0 cm
341.449 183.051 m 345.148 183.051 l S Q
0.2 w
[ 0.2 2] 0 d
q 1 0 0 1 0 0 cm
41.551 148.398 m 341.449 148.398 l S Q
0.25 w
[] 0.0 d
q 1 0 0 1 0 0 cm
41.551 148.398 m 37.852 148.398 l S Q
q 1 0 0 1 0 0 cm
341.449 148.398 m 345.148 148.398 l S Q
0.2 w
[ 0.2 2] 0 d
q 1 0 0 1 0 0 cm
41.551 113.75 m 341.449 113.75 l S Q
0.25 w
[] 0.0 d
q 1 0 0 1 0 0 cm
41.551 113.75 m 37.852 113.75 l S Q
q 1 0 0 1 0 0 cm
341.449 113.75 m 345.148 113.75 l S Q
0.2 w
[ 0.2 2] 0 d
q 1 0 0 1 0 0 cm
41.551 79.148 m 341.449 79.148 l S Q
0.25 w
[] 0.0 d
q 1 0 0 1 0 0 cm
41.551 79.148 m 37.852 79.148 l S Q
q 1 0 0 1 0 0 cm
341.449 79.148 m 345.148 79.148 l S Q
0.2 w
[ 0.2 2] 0 d
q 1 0 0 1 0 0 cm
41.551 44.5 m 341.449 44.5 l S Q
0.25 w
[] 0.0 d
q 1 0 0 1 0 0 cm
41.551 44.5 m 37.852 44.5 l S Q
q 1 0 0 1 0 0 cm
341.449 44.5 m 345.148 44.5 l S Q
0.2 w
[ 0.2 2] 0 d
q 1 0 0 1 0 0 cm
41.551 9.852 m 341.449 9.852 l S Q
0.25 w
[] 0.0 d
q 1 0 0 1 0 0 cm
41.551 9.852 m 37.852 9.852 l S Q
q 1 0 0 1 0 0 cm
341.449 9.852 m 345.148 9.852 l S Q
0.2 w
[ 0.2 2] 0 d
q 1 0 0 1 0 0 cm
41.551 183.051 m 41.551 9.852 l S Q
0.25 w
[] 0.0 d
q 1 0 0 1 0 0 cm
41.551 183.051 m 41.551 186.75 l S Q
q 1 0 0 1 0 0 cm
41.551 9.852 m 41.551 6.148 l S Q
0.2 w
[ 0.2 2] 0 d
q 1 0 0 1 0 0 cm
79.051 183.051 m 79.051 9.852 l S Q
0.25 w
[] 0.0 d
q 1 0 0 1 0 0 cm
79.051 183.051 m 79.051 186.75 l S Q
q 1 0 0 1 0 0 cm
79.051 9.852 m 79.051 6.148 l S Q
0.2 w
[ 0.2 2] 0 d
q 1 0 0 1 0 0 cm
116.551 183.051 m 116.551 9.852 l S Q
0.25 w
[] 0.0 d
q 1 0 0 1 0 0 cm
116.551 183.051 m 116.551 186.75 l S Q
q 1 0 0 1 0 0 cm
116.551 9.852 m 116.551 6.148 l S Q
0.2 w
[ 0.2 2] 0 d
q 1 0 0 1 0 0 cm
154 183.051 m 154 9.852 l S Q
0.25 w
[] 0.0 d
q 1 0 0 1 0 0 cm
154 183.051 m 154 186.75 l S Q
q 1 0 0 1 0 0 cm
154 9.852 m 154 6.148 l S Q
0.2 w
[ 0.2 2] 0 d
q 1 0 0 1 0 0 cm
191.5 183.051 m 191.5 179.352 l S Q
[ 0.2 2] 0 d
q 1 0 0 1 0 0 cm
191.5 154.551 m 191.5 9.852 l S Q
0.25 w
[] 0.0 d
q 1 0 0 1 0 0 cm
191.5 183.051 m 191.5 186.75 l S Q
q 1 0 0 1 0 0 cm
191.5 9.852 m 191.5 6.148 l S Q
0.2 w
[ 0.2 2] 0 d
q 1 0 0 1 0 0 cm
229 183.051 m 229 179.352 l S Q
[ 0.2 2] 0 d
q 1 0 0 1 0 0 cm
229 154.551 m 229 9.852 l S Q
0.25 w
[] 0.0 d
q 1 0 0 1 0 0 cm
229 183.051 m 229 186.75 l S Q
q 1 0 0 1 0 0 cm
229 9.852 m 229 6.148 l S Q
0.2 w
[ 0.2 2] 0 d
q 1 0 0 1 0 0 cm
266.5 183.051 m 266.5 179.352 l S Q
[ 0.2 2] 0 d
q 1 0 0 1 0 0 cm
266.5 154.551 m 266.5 9.852 l S Q
0.25 w
[] 0.0 d
q 1 0 0 1 0 0 cm
266.5 183.051 m 266.5 186.75 l S Q
q 1 0 0 1 0 0 cm
266.5 9.852 m 266.5 6.148 l S Q
0.2 w
[ 0.2 2] 0 d
q 1 0 0 1 0 0 cm
303.949 183.051 m 303.949 179.352 l S Q
[ 0.2 2] 0 d
q 1 0 0 1 0 0 cm
303.949 154.551 m 303.949 9.852 l S Q
0.25 w
[] 0.0 d
q 1 0 0 1 0 0 cm
303.949 183.051 m 303.949 186.75 l S Q
q 1 0 0 1 0 0 cm
303.949 9.852 m 303.949 6.148 l S Q
0.2 w
[ 0.2 2] 0 d
q 1 0 0 1 0 0 cm
341.449 183.051 m 341.449 9.852 l S Q
0.25 w
[] 0.0 d
q 1 0 0 1 0 0 cm
341.449 183.051 m 341.449 186.75 l S Q
q 1 0 0 1 0 0 cm
341.449 9.852 m 341.449 6.148 l S Q
q 1 0 0 1 0 0 cm
41.551 9.852 299.898 173.199 re S Q
0 0.447059 0.698039 rg
0.5 w
q 1 0 0 1 0 0 cm
298.648 160.75 m 329.551 160.75 l S Q
q 1 0 0 1 0 0 cm
41.551 183.051 m 43.898 170.801 l 46.25 165.75 l 48.602 161.852 l 50.898
 158.551 l 53.25 155.648 l 55.602 153.051 l 57.949 150.648 l 60.301 148.398
 l 62.648 146.301 l 65 144.301 l 67.301 142.449 l 69.648 140.648 l 72 138.898
 l 74.352 137.25 l 76.699 135.602 l 79.051 134.051 l 81.398 132.551 l 83.699
 131.102 l 86.051 129.648 l 88.398 128.301 l 90.75 126.949 l 93.102 125.602
 l 95.449 124.301 l 97.801 123.051 l 100.102 121.801 l 102.449 120.602 l
 104.801 119.398 l 107.148 118.25 l 109.5 117.102 l 111.852 115.949 l 114.199
 114.852 l 116.551 113.75 l 118.852 112.699 l 121.199 111.648 l 123.551 
110.602 l 125.898 109.551 l 130.602 107.551 l 132.949 106.551 l 135.25 105.602
 l 137.602 104.648 l 139.949 103.699 l 142.301 102.75 l 144.648 101.801 
l 147 100.898 l 149.352 100 l 151.648 99.102 l 154 98.199 l 156.352 97.301
 l 158.699 96.449 l 161.051 95.602 l 163.398 94.75 l 165.75 93.898 l 168.051
 93.051 l 170.398 92.199 l 172.75 91.398 l 175.102 90.602 l 177.449 89.801
 l 179.801 89 l 182.148 88.199 l 184.449 87.398 l 186.801 86.602 l 189.148
 85.852 l 191.5 85.051 l 193.852 84.301 l 196.199 83.551 l 198.551 82.801
 l 200.852 82.051 l 203.199 81.301 l 205.551 80.602 l 207.898 79.852 l 210.25
 79.148 l 212.602 78.398 l 214.949 77.699 l 217.25 77 l 219.602 76.301 l
 221.949 75.602 l 224.301 74.898 l 226.648 74.199 l 229 73.5 l 231.352 72.852
 l 233.648 72.148 l 236 71.449 l 238.352 70.801 l 240.699 70.148 l 243.051
 69.449 l 245.398 68.801 l 247.75 68.148 l 250.051 67.5 l 252.398 66.852
 l 254.75 66.199 l 257.102 65.602 l 259.449 64.949 l 261.801 64.301 l 264.148
 63.699 l 266.5 63.051 l 268.801 62.449 l 271.148 61.801 l 273.5 61.199 
l 275.852 60.602 l 278.199 59.949 l 280.551 59.352 l 282.898 58.75 l 285.199
 58.148 l 287.551 57.551 l 289.898 56.949 l 292.25 56.352 l 294.602 55.75
 l 296.949 55.199 l 299.301 54.602 l 301.602 54 l 303.949 53.449 l 306.301
 52.852 l 308.648 52.301 l 311 51.699 l 313.352 51.148 l 315.699 50.602 
l 318 50 l 320.352 49.449 l 322.699 48.898 l 325.051 48.352 l 327.398 47.75
 l 332.102 46.648 l 334.398 46.102 l 336.75 45.551 l 339.102 45.051 l 341.449
 44.5 l S Q
0 g
44.551 183.051 m 44.551 187.051 38.551 187.051 38.551 183.051 c 38.551 
179.051 44.551 179.051 44.551 183.051 c f
0.25 w
q 1 0 0 1 0 0 cm
44.551 183.051 m 44.551 187.051 38.551 187.051 38.551 183.051 c 38.551 
179.051 44.551 179.051 44.551 183.051 c S Q
82.051 134.051 m 82.051 138.051 76.051 138.051 76.051 134.051 c 76.051 
130.051 82.051 130.051 82.051 134.051 c f
q 1 0 0 1 0 0 cm
82.051 134.051 m 82.051 138.051 76.051 138.051 76.051 134.051 c 76.051 
130.051 82.051 130.051 82.051 134.051 c S Q
119.551 113.75 m 119.551 117.75 113.551 117.75 113.551 113.75 c 113.551
 109.75 119.551 109.75 119.551 113.75 c f
q 1 0 0 1 0 0 cm
119.551 113.75 m 119.551 117.75 113.551 117.75 113.551 113.75 c 113.551
 109.75 119.551 109.75 119.551 113.75 c S Q
157 98.199 m 157 102.199 151 102.199 151 98.199 c 151 94.199 157 94.199
 157 98.199 c f
q 1 0 0 1 0 0 cm
157 98.199 m 157 102.199 151 102.199 151 98.199 c 151 94.199 157 94.199
 157 98.199 c S Q
194.5 85.051 m 194.5 89.051 188.5 89.051 188.5 85.051 c 188.5 81.051 194.5
 81.051 194.5 85.051 c f
q 1 0 0 1 0 0 cm
194.5 85.051 m 194.5 89.051 188.5 89.051 188.5 85.051 c 188.5 81.051 194.5
 81.051 194.5 85.051 c S Q
232 73.5 m 232 77.5 226 77.5 226 73.5 c 226 69.5 232 69.5 232 73.5 c f
q 1 0 0 1 0 0 cm
232 73.5 m 232 77.5 226 77.5 226 73.5 c 226 69.5 232 69.5 232 73.5 c S Q
269.5 63.051 m 269.5 67.051 263.5 67.051 263.5 63.051 c 263.5 59.051 269.5
 59.051 269.5 63.051 c f
q 1 0 0 1 0 0 cm
269.5 63.051 m 269.5 67.051 263.5 67.051 263.5 63.051 c 263.5 59.051 269.5
 59.051 269.5 63.051 c S Q
306.949 53.449 m 306.949 57.449 300.949 57.449 300.949 53.449 c 300.949
 49.449 306.949 49.449 306.949 53.449 c f
q 1 0 0 1 0 0 cm
306.949 53.449 m 306.949 57.449 300.949 57.449 300.949 53.449 c 300.949
 49.449 306.949 49.449 306.949 53.449 c S Q
344.449 44.5 m 344.449 48.5 338.449 48.5 338.449 44.5 c 338.449 40.5 344.449
 40.5 344.449 44.5 c f
q 1 0 0 1 0 0 cm
344.449 44.5 m 344.449 48.5 338.449 48.5 338.449 44.5 c 338.449 40.5 344.449
 40.5 344.449 44.5 c S Q
317.102 173.148 m 317.102 177.148 311.102 177.148 311.102 173.148 c 311.102
 169.148 317.102 169.148 317.102 173.148 c f
q 1 0 0 1 0 0 cm
317.102 173.148 m 317.102 177.148 311.102 177.148 311.102 173.148 c 311.102
 169.148 317.102 169.148 317.102 173.148 c S Q
q 1 0 0 1 0 0 cm
41.551 9.852 299.898 173.199 re S Q
Q Q
showpage
%%Trailer
end
%%EOF
