\relax 
\citation{fedorovAnotherIntroductionNumerical}
\citation{fedorovAnotherIntroductionNumerical}
\citation{fedorovAnotherIntroductionNumerical}
\citation{RootfindingAlgorithms2020}
\@writefile{toc}{\contentsline {section}{\numberline {1}Introduction}{1}}
\newlabel{eq:Aform}{{1}{1}}
\newlabel{eq:sec_eq_1}{{2}{1}}
\newlabel{eq:sec_eq_2}{{3}{1}}
\@writefile{toc}{\contentsline {section}{\numberline {2}Initial Value}{1}}
\newlabel{sec:init_val}{{2}{1}}
\newlabel{eq:int_a}{{4}{1}}
\newlabel{eq:int_b}{{7}{1}}
\newlabel{eq:root_cond}{{8}{1}}
\citation{Quicksort2020}
\@writefile{lof}{\contentsline {figure}{\numberline {1}{\ignorespaces The function $f(\lambda )$ for a matrix A on the form of equation \textup  {\hbox {\mathsurround \z@ \normalfont  (\ignorespaces 1\hbox {}\unskip \@@italiccorr )}} with randomly generated matrix elements.}}{2}}
\newlabel{fig:func_test}{{1}{2}}
\newlabel{eq:init}{{9}{2}}
\@writefile{toc}{\contentsline {section}{\numberline {3}Sorting}{2}}
\@writefile{toc}{\contentsline {section}{\numberline {4}Test of the Implimentation}{2}}
\newlabel{sec:test}{{4}{2}}
\@writefile{toc}{\contentsline {subsection}{\numberline {4.1}Scaling of the Method}{2}}
\@writefile{lof}{\contentsline {figure}{\numberline {2}{\ignorespaces Output from the test of the quicksort algorithm.}}{3}}
\newlabel{fig:quicksort}{{2}{3}}
\@writefile{lof}{\contentsline {figure}{\numberline {3}{\ignorespaces Output from the diagonalization test of the symmetric rank-1 updated matrix method using Newton's method for root-finding.}}{3}}
\newlabel{fig:test_res}{{3}{3}}
\citation{RootfindingAlgorithms2020}
\@writefile{lof}{\contentsline {figure}{\numberline {4}{\ignorespaces Scaling of the number of operations for the symmetric rank-1 method.}}{4}}
\newlabel{fig:scaling_n}{{4}{4}}
\@writefile{lof}{\contentsline {figure}{\numberline {5}{\ignorespaces Scaling of time of computation for the symmetric rank-1 method.}}{4}}
\newlabel{fig:scaling_t}{{5}{4}}
\@writefile{toc}{\contentsline {section}{\numberline {5}Improvement of the Method}{4}}
\newlabel{eq:conv_crit1}{{11}{4}}
\@writefile{toc}{\contentsline {subsection}{\numberline {5.1}Eigenvalue Method with Bisection}{4}}
\@writefile{lof}{\contentsline {figure}{\numberline {6}{\ignorespaces Output from the first test of the bisection algorithm.}}{5}}
\newlabel{fig:bisection}{{6}{5}}
\@writefile{lof}{\contentsline {figure}{\numberline {7}{\ignorespaces Output from the diagonalization test of the symmetric rank-1 updated matrix method using the bisection root-finding algorithm.}}{5}}
\newlabel{fig:test_res_bi}{{7}{5}}
\@writefile{lof}{\contentsline {figure}{\numberline {8}{\ignorespaces Scaling of the number of operations for the three symmetric rank-1 method implementations and the two Jacobi methods.}}{6}}
\newlabel{fig:scaling_tot_n}{{8}{6}}
\@writefile{lof}{\contentsline {figure}{\numberline {9}{\ignorespaces Scaling of time of computation for the three symmetric rank-1 method implementations and the Jacobi methods.}}{6}}
\newlabel{fig:scaling_tot_t}{{9}{6}}
\@writefile{toc}{\contentsline {subsection}{\numberline {5.2}Hybrid Method}{6}}
\@writefile{toc}{\contentsline {subsection}{\numberline {5.3}Scaling of All Impementations}{6}}
\@writefile{lof}{\contentsline {figure}{\numberline {10}{\ignorespaces The function $\mathrm  {sign}[f(\lambda )]\qopname  \relax o{log}_{10}|f(\lambda )|$ for a size $n=40$ matrix A on the form of equation \textup  {\hbox {\mathsurround \z@ \normalfont  (\ignorespaces 1\hbox {}\unskip \@@italiccorr )}} with randomly generated matrix elements. This expression is plotted rather than the function $f(\lambda )$ itself to conserve the sign of the function while using a logarithmic scale. In the figure "Edge" denotes the point on the edge of interval from equations (4\hbox {}-7\hbox {}) that contains the eigenvalue not enclosed by adjacent elements of the diagonal matrix $D$. In the figure $d_i$ denote the sorted matrix elements of $D$ and $\lambda _{0i}$ denote the value that will be passed to Newton's method from the bisection iterations. From this figure one notes, that the gradient of all the orange points point towards the correct eigen value in green.}}{8}}
\newlabel{fig:func_test_hybrid}{{10}{8}}
\@writefile{lof}{\contentsline {figure}{\numberline {11}{\ignorespaces Output from the diagonalization test of the symmetric rank-1 updated matrix method using the hybrid root-finding algorithm.}}{9}}
\newlabel{fig:test_res_hybrid}{{11}{9}}
\bibstyle{unsrt}
\bibdata{ppnm}
\bibcite{fedorovAnotherIntroductionNumerical}{1}
\bibcite{RootfindingAlgorithms2020}{2}
\bibcite{Quicksort2020}{3}
