%!PS-Adobe-3.0 EPSF-3.0
%%Creator: cairo 1.15.10 (http://cairographics.org)
%%CreationDate: Sun Jun 21 13:38:13 2020
%%Pages: 1
%%DocumentData: Clean7Bit
%%LanguageLevel: 2
%%BoundingBox: 0 0 360 216
%%EndComments
%%BeginProlog
50 dict begin
/q { gsave } bind def
/Q { grestore } bind def
/cm { 6 array astore concat } bind def
/w { setlinewidth } bind def
/J { setlinecap } bind def
/j { setlinejoin } bind def
/M { setmiterlimit } bind def
/d { setdash } bind def
/m { moveto } bind def
/l { lineto } bind def
/c { curveto } bind def
/h { closepath } bind def
/re { exch dup neg 3 1 roll 5 3 roll moveto 0 rlineto
      0 exch rlineto 0 rlineto closepath } bind def
/S { stroke } bind def
/f { fill } bind def
/f* { eofill } bind def
/n { newpath } bind def
/W { clip } bind def
/W* { eoclip } bind def
/BT { } bind def
/ET { } bind def
/BDC { mark 3 1 roll /BDC pdfmark } bind def
/EMC { mark /EMC pdfmark } bind def
/cairo_store_point { /cairo_point_y exch def /cairo_point_x exch def } def
/Tj { show currentpoint cairo_store_point } bind def
/TJ {
  {
    dup
    type /stringtype eq
    { show } { -0.001 mul 0 cairo_font_matrix dtransform rmoveto } ifelse
  } forall
  currentpoint cairo_store_point
} bind def
/cairo_selectfont { cairo_font_matrix aload pop pop pop 0 0 6 array astore
    cairo_font exch selectfont cairo_point_x cairo_point_y moveto } bind def
/Tf { pop /cairo_font exch def /cairo_font_matrix where
      { pop cairo_selectfont } if } bind def
/Td { matrix translate cairo_font_matrix matrix concatmatrix dup
      /cairo_font_matrix exch def dup 4 get exch 5 get cairo_store_point
      /cairo_font where { pop cairo_selectfont } if } bind def
/Tm { 2 copy 8 2 roll 6 array astore /cairo_font_matrix exch def
      cairo_store_point /cairo_font where { pop cairo_selectfont } if } bind def
/g { setgray } bind def
/rg { setrgbcolor } bind def
/d1 { setcachedevice } bind def
/cairo_data_source {
  CairoDataIndex CairoData length lt
    { CairoData CairoDataIndex get /CairoDataIndex CairoDataIndex 1 add def }
    { () } ifelse
} def
/cairo_flush_ascii85_file { cairo_ascii85_file status { cairo_ascii85_file flushfile } if } def
/cairo_image { image cairo_flush_ascii85_file } def
/cairo_imagemask { imagemask cairo_flush_ascii85_file } def
%%EndProlog
%%BeginSetup
%%EndSetup
%%Page: 1 1
%%BeginPageSetup
%%PageBoundingBox: 0 0 360 216
%%EndPageSetup
q 53 29 293 181 rectclip
1 0 0 -1 0 216 cm q
0 g
0.2 w
0 J
0 j
[ 0.2 2] 0 d
3.8 M q 1 0 0 1 0 0 cm
56.852 183.051 m 341.449 183.051 l S Q
0.25 w
[] 0.0 d
q 1 0 0 1 0 0 cm
56.852 183.051 m 53.148 183.051 l S Q
q 1 0 0 1 0 0 cm
341.449 183.051 m 345.148 183.051 l S Q
q 1 0 0 1 0 0 cm
56.852 165.648 m 55 165.648 l S Q
q 1 0 0 1 0 0 cm
341.449 165.648 m 343.301 165.648 l S Q
q 1 0 0 1 0 0 cm
56.852 155.5 m 55 155.5 l S Q
q 1 0 0 1 0 0 cm
341.449 155.5 m 343.301 155.5 l S Q
q 1 0 0 1 0 0 cm
56.852 148.301 m 55 148.301 l S Q
q 1 0 0 1 0 0 cm
341.449 148.301 m 343.301 148.301 l S Q
q 1 0 0 1 0 0 cm
56.852 142.699 m 55 142.699 l S Q
q 1 0 0 1 0 0 cm
341.449 142.699 m 343.301 142.699 l S Q
q 1 0 0 1 0 0 cm
56.852 138.102 m 55 138.102 l S Q
q 1 0 0 1 0 0 cm
341.449 138.102 m 343.301 138.102 l S Q
q 1 0 0 1 0 0 cm
56.852 134.25 m 55 134.25 l S Q
q 1 0 0 1 0 0 cm
341.449 134.25 m 343.301 134.25 l S Q
q 1 0 0 1 0 0 cm
56.852 130.898 m 55 130.898 l S Q
q 1 0 0 1 0 0 cm
341.449 130.898 m 343.301 130.898 l S Q
q 1 0 0 1 0 0 cm
56.852 127.949 m 55 127.949 l S Q
q 1 0 0 1 0 0 cm
341.449 127.949 m 343.301 127.949 l S Q
0.2 w
[ 0.2 2] 0 d
q 1 0 0 1 0 0 cm
56.852 125.301 m 341.449 125.301 l S Q
0.25 w
[] 0.0 d
q 1 0 0 1 0 0 cm
56.852 125.301 m 53.148 125.301 l S Q
q 1 0 0 1 0 0 cm
341.449 125.301 m 345.148 125.301 l S Q
q 1 0 0 1 0 0 cm
56.852 107.949 m 55 107.949 l S Q
q 1 0 0 1 0 0 cm
341.449 107.949 m 343.301 107.949 l S Q
q 1 0 0 1 0 0 cm
56.852 97.75 m 55 97.75 l S Q
q 1 0 0 1 0 0 cm
341.449 97.75 m 343.301 97.75 l S Q
q 1 0 0 1 0 0 cm
56.852 90.551 m 55 90.551 l S Q
q 1 0 0 1 0 0 cm
341.449 90.551 m 343.301 90.551 l S Q
q 1 0 0 1 0 0 cm
56.852 84.949 m 55 84.949 l S Q
q 1 0 0 1 0 0 cm
341.449 84.949 m 343.301 84.949 l S Q
q 1 0 0 1 0 0 cm
56.852 80.398 m 55 80.398 l S Q
q 1 0 0 1 0 0 cm
341.449 80.398 m 343.301 80.398 l S Q
q 1 0 0 1 0 0 cm
56.852 76.551 m 55 76.551 l S Q
q 1 0 0 1 0 0 cm
341.449 76.551 m 343.301 76.551 l S Q
q 1 0 0 1 0 0 cm
56.852 73.199 m 55 73.199 l S Q
q 1 0 0 1 0 0 cm
341.449 73.199 m 343.301 73.199 l S Q
q 1 0 0 1 0 0 cm
56.852 70.25 m 55 70.25 l S Q
q 1 0 0 1 0 0 cm
341.449 70.25 m 343.301 70.25 l S Q
0.2 w
[ 0.2 2] 0 d
q 1 0 0 1 0 0 cm
56.852 67.602 m 341.449 67.602 l S Q
0.25 w
[] 0.0 d
q 1 0 0 1 0 0 cm
56.852 67.602 m 53.148 67.602 l S Q
q 1 0 0 1 0 0 cm
341.449 67.602 m 345.148 67.602 l S Q
q 1 0 0 1 0 0 cm
56.852 50.199 m 55 50.199 l S Q
q 1 0 0 1 0 0 cm
341.449 50.199 m 343.301 50.199 l S Q
q 1 0 0 1 0 0 cm
56.852 40.051 m 55 40.051 l S Q
q 1 0 0 1 0 0 cm
341.449 40.051 m 343.301 40.051 l S Q
q 1 0 0 1 0 0 cm
56.852 32.801 m 55 32.801 l S Q
q 1 0 0 1 0 0 cm
341.449 32.801 m 343.301 32.801 l S Q
q 1 0 0 1 0 0 cm
56.852 27.25 m 55 27.25 l S Q
q 1 0 0 1 0 0 cm
341.449 27.25 m 343.301 27.25 l S Q
q 1 0 0 1 0 0 cm
56.852 22.648 m 55 22.648 l S Q
q 1 0 0 1 0 0 cm
341.449 22.648 m 343.301 22.648 l S Q
q 1 0 0 1 0 0 cm
56.852 18.801 m 55 18.801 l S Q
q 1 0 0 1 0 0 cm
341.449 18.801 m 343.301 18.801 l S Q
q 1 0 0 1 0 0 cm
56.852 15.449 m 55 15.449 l S Q
q 1 0 0 1 0 0 cm
341.449 15.449 m 343.301 15.449 l S Q
q 1 0 0 1 0 0 cm
56.852 12.5 m 55 12.5 l S Q
q 1 0 0 1 0 0 cm
341.449 12.5 m 343.301 12.5 l S Q
0.2 w
[ 0.2 2] 0 d
q 1 0 0 1 0 0 cm
56.852 9.852 m 341.449 9.852 l S Q
0.25 w
[] 0.0 d
q 1 0 0 1 0 0 cm
56.852 9.852 m 53.148 9.852 l S Q
q 1 0 0 1 0 0 cm
341.449 9.852 m 345.148 9.852 l S Q
0.2 w
[ 0.2 2] 0 d
q 1 0 0 1 0 0 cm
56.852 183.051 m 56.852 9.852 l S Q
0.25 w
[] 0.0 d
q 1 0 0 1 0 0 cm
56.852 183.051 m 56.852 186.75 l S Q
q 1 0 0 1 0 0 cm
56.852 9.852 m 56.852 6.148 l S Q
0.2 w
[ 0.2 2] 0 d
q 1 0 0 1 0 0 cm
88.449 183.051 m 88.449 9.852 l S Q
0.25 w
[] 0.0 d
q 1 0 0 1 0 0 cm
88.449 183.051 m 88.449 186.75 l S Q
q 1 0 0 1 0 0 cm
88.449 9.852 m 88.449 6.148 l S Q
0.2 w
[ 0.2 2] 0 d
q 1 0 0 1 0 0 cm
120.102 183.051 m 120.102 9.852 l S Q
0.25 w
[] 0.0 d
q 1 0 0 1 0 0 cm
120.102 183.051 m 120.102 186.75 l S Q
q 1 0 0 1 0 0 cm
120.102 9.852 m 120.102 6.148 l S Q
0.2 w
[ 0.2 2] 0 d
q 1 0 0 1 0 0 cm
151.699 183.051 m 151.699 179.352 l S Q
[ 0.2 2] 0 d
q 1 0 0 1 0 0 cm
151.699 148.352 m 151.699 9.852 l S Q
0.25 w
[] 0.0 d
q 1 0 0 1 0 0 cm
151.699 183.051 m 151.699 186.75 l S Q
q 1 0 0 1 0 0 cm
151.699 9.852 m 151.699 6.148 l S Q
0.2 w
[ 0.2 2] 0 d
q 1 0 0 1 0 0 cm
183.352 183.051 m 183.352 179.352 l S Q
[ 0.2 2] 0 d
q 1 0 0 1 0 0 cm
183.352 148.352 m 183.352 9.852 l S Q
0.25 w
[] 0.0 d
q 1 0 0 1 0 0 cm
183.352 183.051 m 183.352 186.75 l S Q
q 1 0 0 1 0 0 cm
183.352 9.852 m 183.352 6.148 l S Q
0.2 w
[ 0.2 2] 0 d
q 1 0 0 1 0 0 cm
214.949 183.051 m 214.949 179.352 l S Q
[ 0.2 2] 0 d
q 1 0 0 1 0 0 cm
214.949 148.352 m 214.949 9.852 l S Q
0.25 w
[] 0.0 d
q 1 0 0 1 0 0 cm
214.949 183.051 m 214.949 186.75 l S Q
q 1 0 0 1 0 0 cm
214.949 9.852 m 214.949 6.148 l S Q
0.2 w
[ 0.2 2] 0 d
q 1 0 0 1 0 0 cm
246.602 183.051 m 246.602 179.352 l S Q
[ 0.2 2] 0 d
q 1 0 0 1 0 0 cm
246.602 148.352 m 246.602 9.852 l S Q
0.25 w
[] 0.0 d
q 1 0 0 1 0 0 cm
246.602 183.051 m 246.602 186.75 l S Q
q 1 0 0 1 0 0 cm
246.602 9.852 m 246.602 6.148 l S Q
0.2 w
[ 0.2 2] 0 d
q 1 0 0 1 0 0 cm
278.199 183.051 m 278.199 179.352 l S Q
[ 0.2 2] 0 d
q 1 0 0 1 0 0 cm
278.199 148.352 m 278.199 9.852 l S Q
0.25 w
[] 0.0 d
q 1 0 0 1 0 0 cm
278.199 183.051 m 278.199 186.75 l S Q
q 1 0 0 1 0 0 cm
278.199 9.852 m 278.199 6.148 l S Q
0.2 w
[ 0.2 2] 0 d
q 1 0 0 1 0 0 cm
309.852 183.051 m 309.852 179.352 l S Q
[ 0.2 2] 0 d
q 1 0 0 1 0 0 cm
309.852 148.352 m 309.852 9.852 l S Q
0.25 w
[] 0.0 d
q 1 0 0 1 0 0 cm
309.852 183.051 m 309.852 186.75 l S Q
q 1 0 0 1 0 0 cm
309.852 9.852 m 309.852 6.148 l S Q
0.2 w
[ 0.2 2] 0 d
q 1 0 0 1 0 0 cm
341.449 183.051 m 341.449 9.852 l S Q
0.25 w
[] 0.0 d
q 1 0 0 1 0 0 cm
341.449 183.051 m 341.449 186.75 l S Q
q 1 0 0 1 0 0 cm
341.449 9.852 m 341.449 6.148 l S Q
q 1 0 0 1 0 0 cm
56.852 9.852 284.598 173.199 re S Q
0.580392 0 0.827451 rg
0.75 w
q 1 0 0 1 0 0 cm
290.148 156.102 m 327.852 156.102 l S Q
q 1 0 0 1 0 0 cm
72.648 144.801 m 73.148 144.25 l 75.648 141.75 l 76.102 141.25 l 76.602
 140.75 l 77.102 140.301 l 77.602 139.801 l 78.102 139.352 l 78.602 138.898
 l 79.102 138.398 l 79.602 137.949 l 80.051 137.5 l 81.051 136.602 l 81.551
 136.148 l 82.051 135.75 l 83.051 134.852 l 83.551 134.449 l 84.051 134 
l 84.5 133.602 l 85 133.199 l 85.5 132.75 l 86 132.352 l 86.5 131.949 l 
87 131.551 l 87.5 131.148 l 88 130.75 l 88.449 130.352 l 88.949 129.949 
l 89.449 129.602 l 89.949 129.199 l 90.449 128.801 l 90.949 128.449 l 91.449
 128.051 l 91.949 127.699 l 92.449 127.301 l 92.898 126.949 l 93.398 126.602
 l 93.898 126.199 l 94.398 125.852 l 95.398 125.148 l 95.898 124.801 l 96.398
 124.449 l 96.852 124.102 l 97.852 123.398 l 98.352 123.102 l 99.352 122.398
 l 99.852 122.051 l 100.352 121.75 l 100.801 121.398 l 101.301 121.102 l
 101.801 120.75 l 102.301 120.449 l 102.801 120.102 l 103.801 119.5 l 104.301
 119.148 l 104.801 118.852 l 105.25 118.551 l 106.25 117.949 l 106.75 117.602
 l 108.75 116.398 l 109.199 116.148 l 109.699 115.852 l 111.699 114.648 
l 112.199 114.398 l 112.699 114.102 l 113.199 113.801 l 113.648 113.551 
l 114.148 113.25 l 114.648 113 l 115.148 112.699 l 115.648 112.449 l 116.148
 112.148 l 116.648 111.898 l 117.148 111.602 l 117.602 111.352 l 118.102
 111.102 l 118.602 110.801 l 119.602 110.301 l 120.102 110 l 121.602 109.25
 l 122.051 109 l 125.551 107.25 l 126 107 l 128.5 105.75 l 129 105.551 l
 130 105.051 l 130.449 104.801 l 130.949 104.602 l 131.949 104.102 l 132.449
 103.898 l 132.949 103.648 l 133.449 103.449 l 133.949 103.199 l 134.398
 102.949 l 134.898 102.75 l 135.398 102.5 l 135.898 102.301 l 136.398 102.051
 l 136.898 101.852 l 137.398 101.648 l 137.898 101.398 l 138.398 101.199
 l 138.852 100.949 l 139.852 100.551 l 140.352 100.301 l 140.852 100.102
 l 141.352 99.898 l 141.852 99.699 l 142.352 99.449 l 142.801 99.25 l 143.801
 98.852 l 144.301 98.648 l 144.801 98.398 l 146.801 97.602 l 147.25 97.398
 l 149.25 96.602 l 149.75 96.398 l 150.75 96 l 151.199 95.801 l 151.699 
95.602 l 152.199 95.398 l 153.699 94.801 l 154.199 94.648 l 155.199 94.25
 l 155.648 94.051 l 156.148 93.852 l 156.648 93.699 l 158.148 93.102 l 158.648
 92.949 l 159.148 92.75 l 159.602 92.551 l 160.102 92.352 l 160.602 92.199
 l 161.102 92 l 161.602 91.852 l 162.102 91.648 l 162.602 91.449 l 163.102
 91.301 l 163.602 91.102 l 164.051 90.949 l 165.051 90.551 l 165.551 90.398
 l 166.051 90.199 l 166.551 90.051 l 167.051 89.852 l 167.551 89.699 l 168
 89.5 l 168.5 89.352 l 169 89.148 l 170 88.852 l 170.5 88.648 l 171 88.5
 l 171.5 88.301 l 171.949 88.148 l 172.449 88 l 172.949 87.801 l 173.449
 87.648 l 173.949 87.5 l 174.449 87.301 l 174.949 87.148 l 175.449 87 l 
175.949 86.801 l 176.398 86.648 l 177.398 86.352 l 177.898 86.148 l 178.898
 85.852 l 179.398 85.699 l 179.898 85.5 l 180.352 85.352 l 180.852 85.199
 l 181.352 85.051 l 181.852 84.898 l 182.352 84.699 l 182.852 84.551 l 183.352
 84.398 l 184.352 84.102 l 184.801 83.949 l 185.301 83.801 l 185.801 83.648
 l 186.301 83.5 l 186.801 83.301 l 187.301 83.148 l 188.301 82.852 l 188.75
 82.699 l 189.25 82.551 l 189.75 82.398 l 190.75 82.102 l 191.25 81.949 
l 191.75 81.801 l 192.25 81.648 l 192.75 81.5 l 193.199 81.352 l 193.699
 81.199 l 194.199 81.051 l 194.699 80.949 l 195.199 80.801 l 195.699 80.648
 l 196.699 80.352 l 197.148 80.199 l 197.648 80.051 l 198.148 79.898 l 198.648
 79.75 l 199.148 79.648 l 200.148 79.352 l 200.648 79.199 l 201.148 79.051
 l 201.602 78.898 l 202.102 78.801 l 202.602 78.648 l 203.602 78.352 l 204.102
 78.199 l 204.602 78.102 l 205.102 77.949 l 205.551 77.801 l 206.051 77.648
 l 206.551 77.551 l 207.051 77.398 l 207.551 77.25 l 208.051 77.148 l 209.051
 76.852 l 209.551 76.699 l 210 76.602 l 210.5 76.449 l 211 76.301 l 211.5
 76.199 l 212 76.051 l 212.5 75.898 l 213 75.801 l 213.5 75.648 l 213.949
 75.551 l 214.449 75.398 l 214.949 75.25 l 215.449 75.148 l 215.949 75 l
 216.449 74.898 l 217.449 74.602 l 217.949 74.5 l 218.398 74.352 l 218.898
 74.25 l 219.398 74.102 l 219.898 74 l 220.398 73.852 l 220.898 73.699 l
 221.398 73.602 l 221.898 73.449 l 222.352 73.352 l 222.852 73.199 l 223.352
 73.102 l 223.852 72.949 l 224.352 72.852 l 224.852 72.699 l 225.352 72.602
 l 225.852 72.449 l 226.352 72.352 l 226.801 72.25 l 227.301 72.102 l 227.801
 72 l 228.301 71.852 l 228.801 71.75 l 229.301 71.602 l 229.801 71.5 l 230.301
 71.352 l 230.75 71.25 l 231.25 71.148 l 231.75 71 l 232.25 70.898 l 232.75
 70.75 l 233.25 70.648 l 233.75 70.551 l 234.25 70.398 l 234.75 70.301 l
 235.199 70.199 l 235.699 70.051 l 236.199 69.949 l 236.699 69.852 l 237.199
 69.699 l 237.699 69.602 l 238.199 69.5 l 238.699 69.352 l 239.148 69.25
 l 239.648 69.148 l 240.148 69 l 240.648 68.898 l 241.148 68.801 l 241.648
 68.648 l 242.148 68.551 l 242.648 68.449 l 243.102 68.352 l 243.602 68.199
 l 244.102 68.102 l 244.602 68 l 245.102 67.852 l 246.102 67.648 l 246.602
 67.551 l 247.102 67.398 l 247.551 67.301 l 248.051 67.199 l 248.551 67.102
 l 249.051 67 l 249.551 66.852 l 250.551 66.648 l 251.051 66.551 l 251.5
 66.449 l 252 66.301 l 252.5 66.199 l 253 66.102 l 254 65.898 l 254.5 65.801
 l 255 65.648 l 255.5 65.551 l 255.949 65.449 l 256.449 65.352 l 257.449
 65.148 l 257.949 65.051 l 258.449 64.898 l 258.949 64.801 l 259.449 64.699
 l 259.898 64.602 l 260.898 64.398 l 261.398 64.301 l 261.898 64.199 l 262.398
 64.102 l 262.898 63.949 l 263.398 63.852 l 263.898 63.75 l 264.352 63.648
 l 264.852 63.551 l 265.352 63.449 l 265.852 63.352 l 266.852 63.148 l 267.352
 63.051 l 267.852 62.949 l 268.301 62.852 l 269.301 62.648 l 269.801 62.551
 l 270.301 62.449 l 270.801 62.352 l 271.801 62.148 l 272.301 62.051 l 272.75
 61.949 l 273.25 61.852 l 274.25 61.648 l 274.75 61.551 l 275.25 61.449 
l 275.75 61.352 l 276.25 61.25 l 276.699 61.148 l 277.199 61.051 l 277.699
 60.949 l 278.199 60.852 l 279.199 60.648 l 279.699 60.551 l 280.199 60.449
 l 280.699 60.352 l 281.148 60.25 l 281.648 60.148 l 282.148 60.051 l 282.648
 59.949 l 283.148 59.852 l 283.648 59.75 l 284.148 59.699 l 284.648 59.602
 l 285.102 59.5 l 285.602 59.398 l 286.102 59.301 l 286.602 59.199 l 287.102
 59.102 l 288.102 58.898 l 288.602 58.801 l 289.102 58.75 l 289.551 58.648
 l 290.051 58.551 l 290.551 58.449 l 291.051 58.352 l 292.051 58.148 l 292.551
 58.102 l 293.051 58 l 293.5 57.898 l 294 57.801 l 294.5 57.699 l 295 57.602
 l 295.5 57.5 l 296 57.449 l 296.5 57.352 l 297.5 57.148 l 297.949 57.051
 l 298.449 57 l 298.949 56.898 l 299.449 56.801 l 299.949 56.699 l 300.449
 56.602 l 300.949 56.551 l 301.449 56.449 l 301.898 56.352 l 302.898 56.148
 l 303.398 56.102 l 304.398 55.898 l 304.898 55.801 l 305.398 55.699 l 305.898
 55.648 l 306.352 55.551 l 306.852 55.449 l 307.352 55.352 l 307.852 55.301
 l 308.352 55.199 l 308.852 55.102 l 309.352 55 l 309.852 54.949 l 310.301
 54.852 l 311.301 54.648 l 311.801 54.602 l 312.801 54.398 l 313.301 54.352
 l 313.801 54.25 l 314.25 54.148 l 314.75 54.051 l 315.25 54 l 315.75 53.898
 l 316.25 53.801 l 316.75 53.75 l 317.25 53.648 l 317.75 53.551 l 318.25
 53.449 l 318.699 53.398 l 319.199 53.301 l 319.699 53.199 l 320.199 53.148
 l 320.699 53.051 l 321.199 52.949 l 321.699 52.898 l 322.199 52.801 l 322.648
 52.699 l 323.148 52.648 l 323.648 52.551 l 324.148 52.449 l 324.648 52.398
 l 325.148 52.301 l 325.648 52.199 l 326.148 52.148 l 326.648 52.051 l 327.102
 52 l 327.602 51.898 l 328.102 51.801 l 328.602 51.75 l 329.102 51.648 l
 329.602 51.551 l 330.102 51.5 l 330.602 51.398 l 331.051 51.301 l 331.551
 51.25 l 332.051 51.148 l 332.551 51.102 l 333.551 50.898 l 334.051 50.852
 l 334.551 50.75 l 335.051 50.699 l 335.5 50.602 l 336 50.5 l 336.5 50.449
 l 337 50.352 l 337.5 50.301 l 338 50.199 l 338.5 50.102 l 339 50.051 l 
339.449 49.949 l 339.949 49.898 l 340.449 49.801 l 340.949 49.75 l 341.449
 49.648 l S Q
0 0.619608 0.45098 rg
q 1 0 0 1 0 0 cm
290.148 171.602 m 327.852 171.602 l S Q
q 1 0 0 1 0 0 cm
72.648 46.301 m 88.449 163.398 l 104.301 115.898 l 120.102 166.051 l 135.898
 133.449 l 151.699 142.75 l 167.551 118.301 l 183.352 117.5 l 199.148 101.852
 l 214.949 92.148 l 230.75 88.199 l 246.602 86 l 262.398 77.648 l 278.199
 73.051 l 294 72.75 l 309.852 54.449 l 325.648 68.898 l 341.449 49.648 l
 S Q
75.648 46.301 m 75.648 50.301 69.648 50.301 69.648 46.301 c 69.648 42.301
 75.648 42.301 75.648 46.301 c f
q 1 0 0 1 0 0 cm
75.648 46.301 m 75.648 50.301 69.648 50.301 69.648 46.301 c 69.648 42.301
 75.648 42.301 75.648 46.301 c S Q
91.449 163.398 m 91.449 167.398 85.449 167.398 85.449 163.398 c 85.449 
159.398 91.449 159.398 91.449 163.398 c f
q 1 0 0 1 0 0 cm
91.449 163.398 m 91.449 167.398 85.449 167.398 85.449 163.398 c 85.449 
159.398 91.449 159.398 91.449 163.398 c S Q
107.301 115.898 m 107.301 119.898 101.301 119.898 101.301 115.898 c 101.301
 111.898 107.301 111.898 107.301 115.898 c f
q 1 0 0 1 0 0 cm
107.301 115.898 m 107.301 119.898 101.301 119.898 101.301 115.898 c 101.301
 111.898 107.301 111.898 107.301 115.898 c S Q
123.102 166.051 m 123.102 170.051 117.102 170.051 117.102 166.051 c 117.102
 162.051 123.102 162.051 123.102 166.051 c f
q 1 0 0 1 0 0 cm
123.102 166.051 m 123.102 170.051 117.102 170.051 117.102 166.051 c 117.102
 162.051 123.102 162.051 123.102 166.051 c S Q
138.898 133.449 m 138.898 137.449 132.898 137.449 132.898 133.449 c 132.898
 129.449 138.898 129.449 138.898 133.449 c f
q 1 0 0 1 0 0 cm
138.898 133.449 m 138.898 137.449 132.898 137.449 132.898 133.449 c 132.898
 129.449 138.898 129.449 138.898 133.449 c S Q
154.699 142.75 m 154.699 146.75 148.699 146.75 148.699 142.75 c 148.699
 138.75 154.699 138.75 154.699 142.75 c f
q 1 0 0 1 0 0 cm
154.699 142.75 m 154.699 146.75 148.699 146.75 148.699 142.75 c 148.699
 138.75 154.699 138.75 154.699 142.75 c S Q
170.551 118.301 m 170.551 122.301 164.551 122.301 164.551 118.301 c 164.551
 114.301 170.551 114.301 170.551 118.301 c f
q 1 0 0 1 0 0 cm
170.551 118.301 m 170.551 122.301 164.551 122.301 164.551 118.301 c 164.551
 114.301 170.551 114.301 170.551 118.301 c S Q
186.352 117.5 m 186.352 121.5 180.352 121.5 180.352 117.5 c 180.352 113.5
 186.352 113.5 186.352 117.5 c f
q 1 0 0 1 0 0 cm
186.352 117.5 m 186.352 121.5 180.352 121.5 180.352 117.5 c 180.352 113.5
 186.352 113.5 186.352 117.5 c S Q
202.148 101.852 m 202.148 105.852 196.148 105.852 196.148 101.852 c 196.148
 97.852 202.148 97.852 202.148 101.852 c f
q 1 0 0 1 0 0 cm
202.148 101.852 m 202.148 105.852 196.148 105.852 196.148 101.852 c 196.148
 97.852 202.148 97.852 202.148 101.852 c S Q
217.949 92.148 m 217.949 96.148 211.949 96.148 211.949 92.148 c 211.949
 88.148 217.949 88.148 217.949 92.148 c f
q 1 0 0 1 0 0 cm
217.949 92.148 m 217.949 96.148 211.949 96.148 211.949 92.148 c 211.949
 88.148 217.949 88.148 217.949 92.148 c S Q
233.75 88.199 m 233.75 92.199 227.75 92.199 227.75 88.199 c 227.75 84.199
 233.75 84.199 233.75 88.199 c f
q 1 0 0 1 0 0 cm
233.75 88.199 m 233.75 92.199 227.75 92.199 227.75 88.199 c 227.75 84.199
 233.75 84.199 233.75 88.199 c S Q
249.602 86 m 249.602 90 243.602 90 243.602 86 c 243.602 82 249.602 82 249.602
 86 c f
q 1 0 0 1 0 0 cm
249.602 86 m 249.602 90 243.602 90 243.602 86 c 243.602 82 249.602 82 249.602
 86 c S Q
265.398 77.648 m 265.398 81.648 259.398 81.648 259.398 77.648 c 259.398
 73.648 265.398 73.648 265.398 77.648 c f
q 1 0 0 1 0 0 cm
265.398 77.648 m 265.398 81.648 259.398 81.648 259.398 77.648 c 259.398
 73.648 265.398 73.648 265.398 77.648 c S Q
281.199 73.051 m 281.199 77.051 275.199 77.051 275.199 73.051 c 275.199
 69.051 281.199 69.051 281.199 73.051 c f
q 1 0 0 1 0 0 cm
281.199 73.051 m 281.199 77.051 275.199 77.051 275.199 73.051 c 275.199
 69.051 281.199 69.051 281.199 73.051 c S Q
297 72.75 m 297 76.75 291 76.75 291 72.75 c 291 68.75 297 68.75 297 72.75
 c f
q 1 0 0 1 0 0 cm
297 72.75 m 297 76.75 291 76.75 291 72.75 c 291 68.75 297 68.75 297 72.75
 c S Q
312.852 54.449 m 312.852 58.449 306.852 58.449 306.852 54.449 c 306.852
 50.449 312.852 50.449 312.852 54.449 c f
q 1 0 0 1 0 0 cm
312.852 54.449 m 312.852 58.449 306.852 58.449 306.852 54.449 c 306.852
 50.449 312.852 50.449 312.852 54.449 c S Q
328.648 68.898 m 328.648 72.898 322.648 72.898 322.648 68.898 c 322.648
 64.898 328.648 64.898 328.648 68.898 c f
q 1 0 0 1 0 0 cm
328.648 68.898 m 328.648 72.898 322.648 72.898 322.648 68.898 c 322.648
 64.898 328.648 64.898 328.648 68.898 c S Q
344.449 49.648 m 344.449 53.648 338.449 53.648 338.449 49.648 c 338.449
 45.648 344.449 45.648 344.449 49.648 c f
q 1 0 0 1 0 0 cm
344.449 49.648 m 344.449 53.648 338.449 53.648 338.449 49.648 c 338.449
 45.648 344.449 45.648 344.449 49.648 c S Q
312 171.602 m 312 175.602 306 175.602 306 171.602 c 306 167.602 312 167.602
 312 171.602 c f
q 1 0 0 1 0 0 cm
312 171.602 m 312 175.602 306 175.602 306 171.602 c 306 167.602 312 167.602
 312 171.602 c S Q
0 g
0.25 w
q 1 0 0 1 0 0 cm
56.852 9.852 284.598 173.199 re S Q
Q Q
showpage
%%Trailer
end
%%EOF
