%!PS-Adobe-3.0 EPSF-3.0
%%Creator: cairo 1.15.10 (http://cairographics.org)
%%CreationDate: Sun Jun 21 12:53:48 2020
%%Pages: 1
%%DocumentData: Clean7Bit
%%LanguageLevel: 2
%%BoundingBox: 0 0 360 216
%%EndComments
%%BeginProlog
50 dict begin
/q { gsave } bind def
/Q { grestore } bind def
/cm { 6 array astore concat } bind def
/w { setlinewidth } bind def
/J { setlinecap } bind def
/j { setlinejoin } bind def
/M { setmiterlimit } bind def
/d { setdash } bind def
/m { moveto } bind def
/l { lineto } bind def
/c { curveto } bind def
/h { closepath } bind def
/re { exch dup neg 3 1 roll 5 3 roll moveto 0 rlineto
      0 exch rlineto 0 rlineto closepath } bind def
/S { stroke } bind def
/f { fill } bind def
/f* { eofill } bind def
/n { newpath } bind def
/W { clip } bind def
/W* { eoclip } bind def
/BT { } bind def
/ET { } bind def
/BDC { mark 3 1 roll /BDC pdfmark } bind def
/EMC { mark /EMC pdfmark } bind def
/cairo_store_point { /cairo_point_y exch def /cairo_point_x exch def } def
/Tj { show currentpoint cairo_store_point } bind def
/TJ {
  {
    dup
    type /stringtype eq
    { show } { -0.001 mul 0 cairo_font_matrix dtransform rmoveto } ifelse
  } forall
  currentpoint cairo_store_point
} bind def
/cairo_selectfont { cairo_font_matrix aload pop pop pop 0 0 6 array astore
    cairo_font exch selectfont cairo_point_x cairo_point_y moveto } bind def
/Tf { pop /cairo_font exch def /cairo_font_matrix where
      { pop cairo_selectfont } if } bind def
/Td { matrix translate cairo_font_matrix matrix concatmatrix dup
      /cairo_font_matrix exch def dup 4 get exch 5 get cairo_store_point
      /cairo_font where { pop cairo_selectfont } if } bind def
/Tm { 2 copy 8 2 roll 6 array astore /cairo_font_matrix exch def
      cairo_store_point /cairo_font where { pop cairo_selectfont } if } bind def
/g { setgray } bind def
/rg { setrgbcolor } bind def
/d1 { setcachedevice } bind def
/cairo_data_source {
  CairoDataIndex CairoData length lt
    { CairoData CairoDataIndex get /CairoDataIndex CairoDataIndex 1 add def }
    { () } ifelse
} def
/cairo_flush_ascii85_file { cairo_ascii85_file status { cairo_ascii85_file flushfile } if } def
/cairo_image { image cairo_flush_ascii85_file } def
/cairo_imagemask { imagemask cairo_flush_ascii85_file } def
%%EndProlog
%%BeginSetup
%%EndSetup
%%Page: 1 1
%%BeginPageSetup
%%PageBoundingBox: 0 0 360 216
%%EndPageSetup
q 53 29 293 181 rectclip
1 0 0 -1 0 216 cm q
0 g
0.2 w
0 J
0 j
[ 0.2 2] 0 d
3.8 M q 1 0 0 1 0 0 cm
56.852 183.051 m 341.449 183.051 l S Q
0.25 w
[] 0.0 d
q 1 0 0 1 0 0 cm
56.852 183.051 m 53.148 183.051 l S Q
q 1 0 0 1 0 0 cm
341.449 183.051 m 345.148 183.051 l S Q
q 1 0 0 1 0 0 cm
56.852 170 m 55 170 l S Q
q 1 0 0 1 0 0 cm
341.449 170 m 343.301 170 l S Q
q 1 0 0 1 0 0 cm
56.852 162.398 m 55 162.398 l S Q
q 1 0 0 1 0 0 cm
341.449 162.398 m 343.301 162.398 l S Q
q 1 0 0 1 0 0 cm
56.852 157 m 55 157 l S Q
q 1 0 0 1 0 0 cm
341.449 157 m 343.301 157 l S Q
q 1 0 0 1 0 0 cm
56.852 152.801 m 55 152.801 l S Q
q 1 0 0 1 0 0 cm
341.449 152.801 m 343.301 152.801 l S Q
q 1 0 0 1 0 0 cm
56.852 149.352 m 55 149.352 l S Q
q 1 0 0 1 0 0 cm
341.449 149.352 m 343.301 149.352 l S Q
q 1 0 0 1 0 0 cm
56.852 146.449 m 55 146.449 l S Q
q 1 0 0 1 0 0 cm
341.449 146.449 m 343.301 146.449 l S Q
q 1 0 0 1 0 0 cm
56.852 143.949 m 55 143.949 l S Q
q 1 0 0 1 0 0 cm
341.449 143.949 m 343.301 143.949 l S Q
q 1 0 0 1 0 0 cm
56.852 141.75 m 55 141.75 l S Q
q 1 0 0 1 0 0 cm
341.449 141.75 m 343.301 141.75 l S Q
0.2 w
[ 0.2 2] 0 d
q 1 0 0 1 0 0 cm
56.852 139.75 m 162.648 139.75 l S Q
[ 0.2 2] 0 d
q 1 0 0 1 0 0 cm
336.352 139.75 m 341.449 139.75 l S Q
0.25 w
[] 0.0 d
q 1 0 0 1 0 0 cm
56.852 139.75 m 53.148 139.75 l S Q
q 1 0 0 1 0 0 cm
341.449 139.75 m 345.148 139.75 l S Q
q 1 0 0 1 0 0 cm
56.852 126.699 m 55 126.699 l S Q
q 1 0 0 1 0 0 cm
341.449 126.699 m 343.301 126.699 l S Q
q 1 0 0 1 0 0 cm
56.852 119.102 m 55 119.102 l S Q
q 1 0 0 1 0 0 cm
341.449 119.102 m 343.301 119.102 l S Q
q 1 0 0 1 0 0 cm
56.852 113.699 m 55 113.699 l S Q
q 1 0 0 1 0 0 cm
341.449 113.699 m 343.301 113.699 l S Q
q 1 0 0 1 0 0 cm
56.852 109.5 m 55 109.5 l S Q
q 1 0 0 1 0 0 cm
341.449 109.5 m 343.301 109.5 l S Q
q 1 0 0 1 0 0 cm
56.852 106.051 m 55 106.051 l S Q
q 1 0 0 1 0 0 cm
341.449 106.051 m 343.301 106.051 l S Q
q 1 0 0 1 0 0 cm
56.852 103.148 m 55 103.148 l S Q
q 1 0 0 1 0 0 cm
341.449 103.148 m 343.301 103.148 l S Q
q 1 0 0 1 0 0 cm
56.852 100.648 m 55 100.648 l S Q
q 1 0 0 1 0 0 cm
341.449 100.648 m 343.301 100.648 l S Q
q 1 0 0 1 0 0 cm
56.852 98.449 m 55 98.449 l S Q
q 1 0 0 1 0 0 cm
341.449 98.449 m 343.301 98.449 l S Q
0.2 w
[ 0.2 2] 0 d
q 1 0 0 1 0 0 cm
56.852 96.449 m 341.449 96.449 l S Q
0.25 w
[] 0.0 d
q 1 0 0 1 0 0 cm
56.852 96.449 m 53.148 96.449 l S Q
q 1 0 0 1 0 0 cm
341.449 96.449 m 345.148 96.449 l S Q
q 1 0 0 1 0 0 cm
56.852 83.398 m 55 83.398 l S Q
q 1 0 0 1 0 0 cm
341.449 83.398 m 343.301 83.398 l S Q
q 1 0 0 1 0 0 cm
56.852 75.801 m 55 75.801 l S Q
q 1 0 0 1 0 0 cm
341.449 75.801 m 343.301 75.801 l S Q
q 1 0 0 1 0 0 cm
56.852 70.398 m 55 70.398 l S Q
q 1 0 0 1 0 0 cm
341.449 70.398 m 343.301 70.398 l S Q
q 1 0 0 1 0 0 cm
56.852 66.199 m 55 66.199 l S Q
q 1 0 0 1 0 0 cm
341.449 66.199 m 343.301 66.199 l S Q
q 1 0 0 1 0 0 cm
56.852 62.75 m 55 62.75 l S Q
q 1 0 0 1 0 0 cm
341.449 62.75 m 343.301 62.75 l S Q
q 1 0 0 1 0 0 cm
56.852 59.852 m 55 59.852 l S Q
q 1 0 0 1 0 0 cm
341.449 59.852 m 343.301 59.852 l S Q
q 1 0 0 1 0 0 cm
56.852 57.352 m 55 57.352 l S Q
q 1 0 0 1 0 0 cm
341.449 57.352 m 343.301 57.352 l S Q
q 1 0 0 1 0 0 cm
56.852 55.148 m 55 55.148 l S Q
q 1 0 0 1 0 0 cm
341.449 55.148 m 343.301 55.148 l S Q
0.2 w
[ 0.2 2] 0 d
q 1 0 0 1 0 0 cm
56.852 53.148 m 341.449 53.148 l S Q
0.25 w
[] 0.0 d
q 1 0 0 1 0 0 cm
56.852 53.148 m 53.148 53.148 l S Q
q 1 0 0 1 0 0 cm
341.449 53.148 m 345.148 53.148 l S Q
q 1 0 0 1 0 0 cm
56.852 40.102 m 55 40.102 l S Q
q 1 0 0 1 0 0 cm
341.449 40.102 m 343.301 40.102 l S Q
q 1 0 0 1 0 0 cm
56.852 32.5 m 55 32.5 l S Q
q 1 0 0 1 0 0 cm
341.449 32.5 m 343.301 32.5 l S Q
q 1 0 0 1 0 0 cm
56.852 27.102 m 55 27.102 l S Q
q 1 0 0 1 0 0 cm
341.449 27.102 m 343.301 27.102 l S Q
q 1 0 0 1 0 0 cm
56.852 22.898 m 55 22.898 l S Q
q 1 0 0 1 0 0 cm
341.449 22.898 m 343.301 22.898 l S Q
q 1 0 0 1 0 0 cm
56.852 19.449 m 55 19.449 l S Q
q 1 0 0 1 0 0 cm
341.449 19.449 m 343.301 19.449 l S Q
q 1 0 0 1 0 0 cm
56.852 16.551 m 55 16.551 l S Q
q 1 0 0 1 0 0 cm
341.449 16.551 m 343.301 16.551 l S Q
q 1 0 0 1 0 0 cm
56.852 14.051 m 55 14.051 l S Q
q 1 0 0 1 0 0 cm
341.449 14.051 m 343.301 14.051 l S Q
q 1 0 0 1 0 0 cm
56.852 11.852 m 55 11.852 l S Q
q 1 0 0 1 0 0 cm
341.449 11.852 m 343.301 11.852 l S Q
0.2 w
[ 0.2 2] 0 d
q 1 0 0 1 0 0 cm
56.852 9.852 m 341.449 9.852 l S Q
0.25 w
[] 0.0 d
q 1 0 0 1 0 0 cm
56.852 9.852 m 53.148 9.852 l S Q
q 1 0 0 1 0 0 cm
341.449 9.852 m 345.148 9.852 l S Q
0.2 w
[ 0.2 2] 0 d
q 1 0 0 1 0 0 cm
56.852 183.051 m 56.852 9.852 l S Q
0.25 w
[] 0.0 d
q 1 0 0 1 0 0 cm
56.852 183.051 m 56.852 186.75 l S Q
q 1 0 0 1 0 0 cm
56.852 9.852 m 56.852 6.148 l S Q
0.2 w
[ 0.2 2] 0 d
q 1 0 0 1 0 0 cm
85.301 183.051 m 85.301 9.852 l S Q
0.25 w
[] 0.0 d
q 1 0 0 1 0 0 cm
85.301 183.051 m 85.301 186.75 l S Q
q 1 0 0 1 0 0 cm
85.301 9.852 m 85.301 6.148 l S Q
0.2 w
[ 0.2 2] 0 d
q 1 0 0 1 0 0 cm
113.75 183.051 m 113.75 9.852 l S Q
0.25 w
[] 0.0 d
q 1 0 0 1 0 0 cm
113.75 183.051 m 113.75 186.75 l S Q
q 1 0 0 1 0 0 cm
113.75 9.852 m 113.75 6.148 l S Q
0.2 w
[ 0.2 2] 0 d
q 1 0 0 1 0 0 cm
142.25 183.051 m 142.25 9.852 l S Q
0.25 w
[] 0.0 d
q 1 0 0 1 0 0 cm
142.25 183.051 m 142.25 186.75 l S Q
q 1 0 0 1 0 0 cm
142.25 9.852 m 142.25 6.148 l S Q
0.2 w
[ 0.2 2] 0 d
q 1 0 0 1 0 0 cm
170.699 183.051 m 170.699 179.352 l S Q
[ 0.2 2] 0 d
q 1 0 0 1 0 0 cm
170.699 101.852 m 170.699 9.852 l S Q
0.25 w
[] 0.0 d
q 1 0 0 1 0 0 cm
170.699 183.051 m 170.699 186.75 l S Q
q 1 0 0 1 0 0 cm
170.699 9.852 m 170.699 6.148 l S Q
0.2 w
[ 0.2 2] 0 d
q 1 0 0 1 0 0 cm
199.148 183.051 m 199.148 179.352 l S Q
[ 0.2 2] 0 d
q 1 0 0 1 0 0 cm
199.148 101.852 m 199.148 9.852 l S Q
0.25 w
[] 0.0 d
q 1 0 0 1 0 0 cm
199.148 183.051 m 199.148 186.75 l S Q
q 1 0 0 1 0 0 cm
199.148 9.852 m 199.148 6.148 l S Q
0.2 w
[ 0.2 2] 0 d
q 1 0 0 1 0 0 cm
227.602 183.051 m 227.602 179.352 l S Q
[ 0.2 2] 0 d
q 1 0 0 1 0 0 cm
227.602 101.852 m 227.602 9.852 l S Q
0.25 w
[] 0.0 d
q 1 0 0 1 0 0 cm
227.602 183.051 m 227.602 186.75 l S Q
q 1 0 0 1 0 0 cm
227.602 9.852 m 227.602 6.148 l S Q
0.2 w
[ 0.2 2] 0 d
q 1 0 0 1 0 0 cm
256.051 183.051 m 256.051 179.352 l S Q
[ 0.2 2] 0 d
q 1 0 0 1 0 0 cm
256.051 101.852 m 256.051 9.852 l S Q
0.25 w
[] 0.0 d
q 1 0 0 1 0 0 cm
256.051 183.051 m 256.051 186.75 l S Q
q 1 0 0 1 0 0 cm
256.051 9.852 m 256.051 6.148 l S Q
0.2 w
[ 0.2 2] 0 d
q 1 0 0 1 0 0 cm
284.551 183.051 m 284.551 179.352 l S Q
[ 0.2 2] 0 d
q 1 0 0 1 0 0 cm
284.551 101.852 m 284.551 9.852 l S Q
0.25 w
[] 0.0 d
q 1 0 0 1 0 0 cm
284.551 183.051 m 284.551 186.75 l S Q
q 1 0 0 1 0 0 cm
284.551 9.852 m 284.551 6.148 l S Q
0.2 w
[ 0.2 2] 0 d
q 1 0 0 1 0 0 cm
313 183.051 m 313 179.352 l S Q
[ 0.2 2] 0 d
q 1 0 0 1 0 0 cm
313 101.852 m 313 9.852 l S Q
0.25 w
[] 0.0 d
q 1 0 0 1 0 0 cm
313 183.051 m 313 186.75 l S Q
q 1 0 0 1 0 0 cm
313 9.852 m 313 6.148 l S Q
0.2 w
[ 0.2 2] 0 d
q 1 0 0 1 0 0 cm
341.449 183.051 m 341.449 9.852 l S Q
0.25 w
[] 0.0 d
q 1 0 0 1 0 0 cm
341.449 183.051 m 341.449 186.75 l S Q
q 1 0 0 1 0 0 cm
341.449 9.852 m 341.449 6.148 l S Q
q 1 0 0 1 0 0 cm
56.852 9.852 284.598 173.199 re S Q
0.580392 0 0.827451 rg
0.75 w
q 1 0 0 1 0 0 cm
290.148 109.602 m 327.852 109.602 l S Q
q 1 0 0 1 0 0 cm
71.102 109.352 m 85.301 124.648 l 99.551 124.648 l 113.75 124.148 l 128
 124.898 l 142.25 117.551 l 156.449 113.801 l 170.699 89.051 l 184.898 91.75
 l 199.148 99.051 l 213.398 96.352 l 227.602 90.898 l 241.852 91.102 l 256.051
 84.352 l 270.301 81.801 l 284.551 78.648 l 298.75 82.852 l 313 71.648 l
 327.199 71.352 l S Q
74.102 109.352 m 74.102 113.352 68.102 113.352 68.102 109.352 c 68.102 
105.352 74.102 105.352 74.102 109.352 c f
q 1 0 0 1 0 0 cm
74.102 109.352 m 74.102 113.352 68.102 113.352 68.102 109.352 c 68.102 
105.352 74.102 105.352 74.102 109.352 c S Q
88.301 124.648 m 88.301 128.648 82.301 128.648 82.301 124.648 c 82.301 
120.648 88.301 120.648 88.301 124.648 c f
q 1 0 0 1 0 0 cm
88.301 124.648 m 88.301 128.648 82.301 128.648 82.301 124.648 c 82.301 
120.648 88.301 120.648 88.301 124.648 c S Q
102.551 124.648 m 102.551 128.648 96.551 128.648 96.551 124.648 c 96.551
 120.648 102.551 120.648 102.551 124.648 c f
q 1 0 0 1 0 0 cm
102.551 124.648 m 102.551 128.648 96.551 128.648 96.551 124.648 c 96.551
 120.648 102.551 120.648 102.551 124.648 c S Q
116.75 124.148 m 116.75 128.148 110.75 128.148 110.75 124.148 c 110.75 
120.148 116.75 120.148 116.75 124.148 c f
q 1 0 0 1 0 0 cm
116.75 124.148 m 116.75 128.148 110.75 128.148 110.75 124.148 c 110.75 
120.148 116.75 120.148 116.75 124.148 c S Q
131 124.898 m 131 128.898 125 128.898 125 124.898 c 125 120.898 131 120.898
 131 124.898 c f
q 1 0 0 1 0 0 cm
131 124.898 m 131 128.898 125 128.898 125 124.898 c 125 120.898 131 120.898
 131 124.898 c S Q
145.25 117.551 m 145.25 121.551 139.25 121.551 139.25 117.551 c 139.25 
113.551 145.25 113.551 145.25 117.551 c f
q 1 0 0 1 0 0 cm
145.25 117.551 m 145.25 121.551 139.25 121.551 139.25 117.551 c 139.25 
113.551 145.25 113.551 145.25 117.551 c S Q
159.449 113.801 m 159.449 117.801 153.449 117.801 153.449 113.801 c 153.449
 109.801 159.449 109.801 159.449 113.801 c f
q 1 0 0 1 0 0 cm
159.449 113.801 m 159.449 117.801 153.449 117.801 153.449 113.801 c 153.449
 109.801 159.449 109.801 159.449 113.801 c S Q
173.699 89.051 m 173.699 93.051 167.699 93.051 167.699 89.051 c 167.699
 85.051 173.699 85.051 173.699 89.051 c f
q 1 0 0 1 0 0 cm
173.699 89.051 m 173.699 93.051 167.699 93.051 167.699 89.051 c 167.699
 85.051 173.699 85.051 173.699 89.051 c S Q
187.898 91.75 m 187.898 95.75 181.898 95.75 181.898 91.75 c 181.898 87.75
 187.898 87.75 187.898 91.75 c f
q 1 0 0 1 0 0 cm
187.898 91.75 m 187.898 95.75 181.898 95.75 181.898 91.75 c 181.898 87.75
 187.898 87.75 187.898 91.75 c S Q
202.148 99.051 m 202.148 103.051 196.148 103.051 196.148 99.051 c 196.148
 95.051 202.148 95.051 202.148 99.051 c f
q 1 0 0 1 0 0 cm
202.148 99.051 m 202.148 103.051 196.148 103.051 196.148 99.051 c 196.148
 95.051 202.148 95.051 202.148 99.051 c S Q
216.398 96.352 m 216.398 100.352 210.398 100.352 210.398 96.352 c 210.398
 92.352 216.398 92.352 216.398 96.352 c f
q 1 0 0 1 0 0 cm
216.398 96.352 m 216.398 100.352 210.398 100.352 210.398 96.352 c 210.398
 92.352 216.398 92.352 216.398 96.352 c S Q
230.602 90.898 m 230.602 94.898 224.602 94.898 224.602 90.898 c 224.602
 86.898 230.602 86.898 230.602 90.898 c f
q 1 0 0 1 0 0 cm
230.602 90.898 m 230.602 94.898 224.602 94.898 224.602 90.898 c 224.602
 86.898 230.602 86.898 230.602 90.898 c S Q
244.852 91.102 m 244.852 95.102 238.852 95.102 238.852 91.102 c 238.852
 87.102 244.852 87.102 244.852 91.102 c f
q 1 0 0 1 0 0 cm
244.852 91.102 m 244.852 95.102 238.852 95.102 238.852 91.102 c 238.852
 87.102 244.852 87.102 244.852 91.102 c S Q
259.051 84.352 m 259.051 88.352 253.051 88.352 253.051 84.352 c 253.051
 80.352 259.051 80.352 259.051 84.352 c f
q 1 0 0 1 0 0 cm
259.051 84.352 m 259.051 88.352 253.051 88.352 253.051 84.352 c 253.051
 80.352 259.051 80.352 259.051 84.352 c S Q
273.301 81.801 m 273.301 85.801 267.301 85.801 267.301 81.801 c 267.301
 77.801 273.301 77.801 273.301 81.801 c f
q 1 0 0 1 0 0 cm
273.301 81.801 m 273.301 85.801 267.301 85.801 267.301 81.801 c 267.301
 77.801 273.301 77.801 273.301 81.801 c S Q
287.551 78.648 m 287.551 82.648 281.551 82.648 281.551 78.648 c 281.551
 74.648 287.551 74.648 287.551 78.648 c f
q 1 0 0 1 0 0 cm
287.551 78.648 m 287.551 82.648 281.551 82.648 281.551 78.648 c 281.551
 74.648 287.551 74.648 287.551 78.648 c S Q
301.75 82.852 m 301.75 86.852 295.75 86.852 295.75 82.852 c 295.75 78.852
 301.75 78.852 301.75 82.852 c f
q 1 0 0 1 0 0 cm
301.75 82.852 m 301.75 86.852 295.75 86.852 295.75 82.852 c 295.75 78.852
 301.75 78.852 301.75 82.852 c S Q
316 71.648 m 316 75.648 310 75.648 310 71.648 c 310 67.648 316 67.648 316
 71.648 c f
q 1 0 0 1 0 0 cm
316 71.648 m 316 75.648 310 75.648 310 71.648 c 310 67.648 316 67.648 316
 71.648 c S Q
330.199 71.352 m 330.199 75.352 324.199 75.352 324.199 71.352 c 324.199
 67.352 330.199 67.352 330.199 71.352 c f
q 1 0 0 1 0 0 cm
330.199 71.352 m 330.199 75.352 324.199 75.352 324.199 71.352 c 324.199
 67.352 330.199 67.352 330.199 71.352 c S Q
312 109.602 m 312 113.602 306 113.602 306 109.602 c 306 105.602 312 105.602
 312 109.602 c f
q 1 0 0 1 0 0 cm
312 109.602 m 312 113.602 306 113.602 306 109.602 c 306 105.602 312 105.602
 312 109.602 c S Q
0 0.619608 0.45098 rg
q 1 0 0 1 0 0 cm
290.148 125.102 m 327.852 125.102 l S Q
q 1 0 0 1 0 0 cm
71.102 143.699 m 85.301 149.352 l 99.551 138.852 l 113.75 133.949 l 128
 126 l 142.25 119.75 l 156.449 114.148 l 170.699 80.352 l 184.898 95.449
 l 199.148 98.699 l 213.398 94.25 l 227.602 90.551 l 241.852 89.199 l 256.051
 78.449 l 270.301 80.051 l 284.551 76.199 l 298.75 76.898 l 313 70.551 l
 327.199 70.5 l S Q
74.102 143.699 m 74.102 147.699 68.102 147.699 68.102 143.699 c 68.102 
139.699 74.102 139.699 74.102 143.699 c f
q 1 0 0 1 0 0 cm
74.102 143.699 m 74.102 147.699 68.102 147.699 68.102 143.699 c 68.102 
139.699 74.102 139.699 74.102 143.699 c S Q
88.301 149.352 m 88.301 153.352 82.301 153.352 82.301 149.352 c 82.301 
145.352 88.301 145.352 88.301 149.352 c f
q 1 0 0 1 0 0 cm
88.301 149.352 m 88.301 153.352 82.301 153.352 82.301 149.352 c 82.301 
145.352 88.301 145.352 88.301 149.352 c S Q
102.551 138.852 m 102.551 142.852 96.551 142.852 96.551 138.852 c 96.551
 134.852 102.551 134.852 102.551 138.852 c f
q 1 0 0 1 0 0 cm
102.551 138.852 m 102.551 142.852 96.551 142.852 96.551 138.852 c 96.551
 134.852 102.551 134.852 102.551 138.852 c S Q
116.75 133.949 m 116.75 137.949 110.75 137.949 110.75 133.949 c 110.75 
129.949 116.75 129.949 116.75 133.949 c f
q 1 0 0 1 0 0 cm
116.75 133.949 m 116.75 137.949 110.75 137.949 110.75 133.949 c 110.75 
129.949 116.75 129.949 116.75 133.949 c S Q
131 126 m 131 130 125 130 125 126 c 125 122 131 122 131 126 c f
q 1 0 0 1 0 0 cm
131 126 m 131 130 125 130 125 126 c 125 122 131 122 131 126 c S Q
145.25 119.75 m 145.25 123.75 139.25 123.75 139.25 119.75 c 139.25 115.75
 145.25 115.75 145.25 119.75 c f
q 1 0 0 1 0 0 cm
145.25 119.75 m 145.25 123.75 139.25 123.75 139.25 119.75 c 139.25 115.75
 145.25 115.75 145.25 119.75 c S Q
159.449 114.148 m 159.449 118.148 153.449 118.148 153.449 114.148 c 153.449
 110.148 159.449 110.148 159.449 114.148 c f
q 1 0 0 1 0 0 cm
159.449 114.148 m 159.449 118.148 153.449 118.148 153.449 114.148 c 153.449
 110.148 159.449 110.148 159.449 114.148 c S Q
173.699 80.352 m 173.699 84.352 167.699 84.352 167.699 80.352 c 167.699
 76.352 173.699 76.352 173.699 80.352 c f
q 1 0 0 1 0 0 cm
173.699 80.352 m 173.699 84.352 167.699 84.352 167.699 80.352 c 167.699
 76.352 173.699 76.352 173.699 80.352 c S Q
187.898 95.449 m 187.898 99.449 181.898 99.449 181.898 95.449 c 181.898
 91.449 187.898 91.449 187.898 95.449 c f
q 1 0 0 1 0 0 cm
187.898 95.449 m 187.898 99.449 181.898 99.449 181.898 95.449 c 181.898
 91.449 187.898 91.449 187.898 95.449 c S Q
202.148 98.699 m 202.148 102.699 196.148 102.699 196.148 98.699 c 196.148
 94.699 202.148 94.699 202.148 98.699 c f
q 1 0 0 1 0 0 cm
202.148 98.699 m 202.148 102.699 196.148 102.699 196.148 98.699 c 196.148
 94.699 202.148 94.699 202.148 98.699 c S Q
216.398 94.25 m 216.398 98.25 210.398 98.25 210.398 94.25 c 210.398 90.25
 216.398 90.25 216.398 94.25 c f
q 1 0 0 1 0 0 cm
216.398 94.25 m 216.398 98.25 210.398 98.25 210.398 94.25 c 210.398 90.25
 216.398 90.25 216.398 94.25 c S Q
230.602 90.551 m 230.602 94.551 224.602 94.551 224.602 90.551 c 224.602
 86.551 230.602 86.551 230.602 90.551 c f
q 1 0 0 1 0 0 cm
230.602 90.551 m 230.602 94.551 224.602 94.551 224.602 90.551 c 224.602
 86.551 230.602 86.551 230.602 90.551 c S Q
244.852 89.199 m 244.852 93.199 238.852 93.199 238.852 89.199 c 238.852
 85.199 244.852 85.199 244.852 89.199 c f
q 1 0 0 1 0 0 cm
244.852 89.199 m 244.852 93.199 238.852 93.199 238.852 89.199 c 238.852
 85.199 244.852 85.199 244.852 89.199 c S Q
259.051 78.449 m 259.051 82.449 253.051 82.449 253.051 78.449 c 253.051
 74.449 259.051 74.449 259.051 78.449 c f
q 1 0 0 1 0 0 cm
259.051 78.449 m 259.051 82.449 253.051 82.449 253.051 78.449 c 253.051
 74.449 259.051 74.449 259.051 78.449 c S Q
273.301 80.051 m 273.301 84.051 267.301 84.051 267.301 80.051 c 267.301
 76.051 273.301 76.051 273.301 80.051 c f
q 1 0 0 1 0 0 cm
273.301 80.051 m 273.301 84.051 267.301 84.051 267.301 80.051 c 267.301
 76.051 273.301 76.051 273.301 80.051 c S Q
287.551 76.199 m 287.551 80.199 281.551 80.199 281.551 76.199 c 281.551
 72.199 287.551 72.199 287.551 76.199 c f
q 1 0 0 1 0 0 cm
287.551 76.199 m 287.551 80.199 281.551 80.199 281.551 76.199 c 281.551
 72.199 287.551 72.199 287.551 76.199 c S Q
301.75 76.898 m 301.75 80.898 295.75 80.898 295.75 76.898 c 295.75 72.898
 301.75 72.898 301.75 76.898 c f
q 1 0 0 1 0 0 cm
301.75 76.898 m 301.75 80.898 295.75 80.898 295.75 76.898 c 295.75 72.898
 301.75 72.898 301.75 76.898 c S Q
316 70.551 m 316 74.551 310 74.551 310 70.551 c 310 66.551 316 66.551 316
 70.551 c f
q 1 0 0 1 0 0 cm
316 70.551 m 316 74.551 310 74.551 310 70.551 c 310 66.551 316 66.551 316
 70.551 c S Q
330.199 70.5 m 330.199 74.5 324.199 74.5 324.199 70.5 c 324.199 66.5 330.199
 66.5 330.199 70.5 c f
q 1 0 0 1 0 0 cm
330.199 70.5 m 330.199 74.5 324.199 74.5 324.199 70.5 c 324.199 66.5 330.199
 66.5 330.199 70.5 c S Q
312 125.102 m 312 129.102 306 129.102 306 125.102 c 306 121.102 312 121.102
 312 125.102 c f
q 1 0 0 1 0 0 cm
312 125.102 m 312 129.102 306 129.102 306 125.102 c 306 121.102 312 121.102
 312 125.102 c S Q
0.337255 0.705882 0.913725 rg
q 1 0 0 1 0 0 cm
290.148 140.602 m 327.852 140.602 l S Q
q 1 0 0 1 0 0 cm
71.102 78.75 m 85.301 77.602 l 99.551 79.898 l 113.75 116.75 l 128 107.852
 l 142.25 102 l 156.449 94.898 l 170.699 84.648 l 184.898 52.301 l 199.148
 73.102 l 213.398 58.602 l 227.602 64.449 l 241.852 68.25 l 256.051 55.648
 l 270.301 56.949 l 284.551 45.648 l 298.75 56.801 l S Q
74.102 78.75 m 74.102 82.75 68.102 82.75 68.102 78.75 c 68.102 74.75 74.102
 74.75 74.102 78.75 c f
q 1 0 0 1 0 0 cm
74.102 78.75 m 74.102 82.75 68.102 82.75 68.102 78.75 c 68.102 74.75 74.102
 74.75 74.102 78.75 c S Q
88.301 77.602 m 88.301 81.602 82.301 81.602 82.301 77.602 c 82.301 73.602
 88.301 73.602 88.301 77.602 c f
q 1 0 0 1 0 0 cm
88.301 77.602 m 88.301 81.602 82.301 81.602 82.301 77.602 c 82.301 73.602
 88.301 73.602 88.301 77.602 c S Q
102.551 79.898 m 102.551 83.898 96.551 83.898 96.551 79.898 c 96.551 75.898
 102.551 75.898 102.551 79.898 c f
q 1 0 0 1 0 0 cm
102.551 79.898 m 102.551 83.898 96.551 83.898 96.551 79.898 c 96.551 75.898
 102.551 75.898 102.551 79.898 c S Q
116.75 116.75 m 116.75 120.75 110.75 120.75 110.75 116.75 c 110.75 112.75
 116.75 112.75 116.75 116.75 c f
q 1 0 0 1 0 0 cm
116.75 116.75 m 116.75 120.75 110.75 120.75 110.75 116.75 c 110.75 112.75
 116.75 112.75 116.75 116.75 c S Q
131 107.852 m 131 111.852 125 111.852 125 107.852 c 125 103.852 131 103.852
 131 107.852 c f
q 1 0 0 1 0 0 cm
131 107.852 m 131 111.852 125 111.852 125 107.852 c 125 103.852 131 103.852
 131 107.852 c S Q
145.25 102 m 145.25 106 139.25 106 139.25 102 c 139.25 98 145.25 98 145.25
 102 c f
q 1 0 0 1 0 0 cm
145.25 102 m 145.25 106 139.25 106 139.25 102 c 139.25 98 145.25 98 145.25
 102 c S Q
159.449 94.898 m 159.449 98.898 153.449 98.898 153.449 94.898 c 153.449
 90.898 159.449 90.898 159.449 94.898 c f
q 1 0 0 1 0 0 cm
159.449 94.898 m 159.449 98.898 153.449 98.898 153.449 94.898 c 153.449
 90.898 159.449 90.898 159.449 94.898 c S Q
173.699 84.648 m 173.699 88.648 167.699 88.648 167.699 84.648 c 167.699
 80.648 173.699 80.648 173.699 84.648 c f
q 1 0 0 1 0 0 cm
173.699 84.648 m 173.699 88.648 167.699 88.648 167.699 84.648 c 167.699
 80.648 173.699 80.648 173.699 84.648 c S Q
187.898 52.301 m 187.898 56.301 181.898 56.301 181.898 52.301 c 181.898
 48.301 187.898 48.301 187.898 52.301 c f
q 1 0 0 1 0 0 cm
187.898 52.301 m 187.898 56.301 181.898 56.301 181.898 52.301 c 181.898
 48.301 187.898 48.301 187.898 52.301 c S Q
202.148 73.102 m 202.148 77.102 196.148 77.102 196.148 73.102 c 196.148
 69.102 202.148 69.102 202.148 73.102 c f
q 1 0 0 1 0 0 cm
202.148 73.102 m 202.148 77.102 196.148 77.102 196.148 73.102 c 196.148
 69.102 202.148 69.102 202.148 73.102 c S Q
216.398 58.602 m 216.398 62.602 210.398 62.602 210.398 58.602 c 210.398
 54.602 216.398 54.602 216.398 58.602 c f
q 1 0 0 1 0 0 cm
216.398 58.602 m 216.398 62.602 210.398 62.602 210.398 58.602 c 210.398
 54.602 216.398 54.602 216.398 58.602 c S Q
230.602 64.449 m 230.602 68.449 224.602 68.449 224.602 64.449 c 224.602
 60.449 230.602 60.449 230.602 64.449 c f
q 1 0 0 1 0 0 cm
230.602 64.449 m 230.602 68.449 224.602 68.449 224.602 64.449 c 224.602
 60.449 230.602 60.449 230.602 64.449 c S Q
244.852 68.25 m 244.852 72.25 238.852 72.25 238.852 68.25 c 238.852 64.25
 244.852 64.25 244.852 68.25 c f
q 1 0 0 1 0 0 cm
244.852 68.25 m 244.852 72.25 238.852 72.25 238.852 68.25 c 238.852 64.25
 244.852 64.25 244.852 68.25 c S Q
259.051 55.648 m 259.051 59.648 253.051 59.648 253.051 55.648 c 253.051
 51.648 259.051 51.648 259.051 55.648 c f
q 1 0 0 1 0 0 cm
259.051 55.648 m 259.051 59.648 253.051 59.648 253.051 55.648 c 253.051
 51.648 259.051 51.648 259.051 55.648 c S Q
273.301 56.949 m 273.301 60.949 267.301 60.949 267.301 56.949 c 267.301
 52.949 273.301 52.949 273.301 56.949 c f
q 1 0 0 1 0 0 cm
273.301 56.949 m 273.301 60.949 267.301 60.949 267.301 56.949 c 267.301
 52.949 273.301 52.949 273.301 56.949 c S Q
287.551 45.648 m 287.551 49.648 281.551 49.648 281.551 45.648 c 281.551
 41.648 287.551 41.648 287.551 45.648 c f
q 1 0 0 1 0 0 cm
287.551 45.648 m 287.551 49.648 281.551 49.648 281.551 45.648 c 281.551
 41.648 287.551 41.648 287.551 45.648 c S Q
301.75 56.801 m 301.75 60.801 295.75 60.801 295.75 56.801 c 295.75 52.801
 301.75 52.801 301.75 56.801 c f
q 1 0 0 1 0 0 cm
301.75 56.801 m 301.75 60.801 295.75 60.801 295.75 56.801 c 295.75 52.801
 301.75 52.801 301.75 56.801 c S Q
312 140.602 m 312 144.602 306 144.602 306 140.602 c 306 136.602 312 136.602
 312 140.602 c f
q 1 0 0 1 0 0 cm
312 140.602 m 312 144.602 306 144.602 306 140.602 c 306 136.602 312 136.602
 312 140.602 c S Q
0.901961 0.623529 0 rg
q 1 0 0 1 0 0 cm
290.148 156.102 m 327.852 156.102 l S Q
q 1 0 0 1 0 0 cm
71.102 121.699 m 85.301 120.801 l 99.551 114.699 l 113.75 107 l 128 101
 l 142.25 93.5 l 156.449 89.449 l 170.699 81.352 l 184.898 60.551 l 199.148
 67.352 l 213.398 61.398 l 227.602 58.398 l 241.852 54.551 l 256.051 50.75
 l S Q
74.102 121.699 m 74.102 125.699 68.102 125.699 68.102 121.699 c 68.102 
117.699 74.102 117.699 74.102 121.699 c f
q 1 0 0 1 0 0 cm
74.102 121.699 m 74.102 125.699 68.102 125.699 68.102 121.699 c 68.102 
117.699 74.102 117.699 74.102 121.699 c S Q
88.301 120.801 m 88.301 124.801 82.301 124.801 82.301 120.801 c 82.301 
116.801 88.301 116.801 88.301 120.801 c f
q 1 0 0 1 0 0 cm
88.301 120.801 m 88.301 124.801 82.301 124.801 82.301 120.801 c 82.301 
116.801 88.301 116.801 88.301 120.801 c S Q
102.551 114.699 m 102.551 118.699 96.551 118.699 96.551 114.699 c 96.551
 110.699 102.551 110.699 102.551 114.699 c f
q 1 0 0 1 0 0 cm
102.551 114.699 m 102.551 118.699 96.551 118.699 96.551 114.699 c 96.551
 110.699 102.551 110.699 102.551 114.699 c S Q
116.75 107 m 116.75 111 110.75 111 110.75 107 c 110.75 103 116.75 103 116.75
 107 c f
q 1 0 0 1 0 0 cm
116.75 107 m 116.75 111 110.75 111 110.75 107 c 110.75 103 116.75 103 116.75
 107 c S Q
131 101 m 131 105 125 105 125 101 c 125 97 131 97 131 101 c f
q 1 0 0 1 0 0 cm
131 101 m 131 105 125 105 125 101 c 125 97 131 97 131 101 c S Q
145.25 93.5 m 145.25 97.5 139.25 97.5 139.25 93.5 c 139.25 89.5 145.25 
89.5 145.25 93.5 c f
q 1 0 0 1 0 0 cm
145.25 93.5 m 145.25 97.5 139.25 97.5 139.25 93.5 c 139.25 89.5 145.25 
89.5 145.25 93.5 c S Q
159.449 89.449 m 159.449 93.449 153.449 93.449 153.449 89.449 c 153.449
 85.449 159.449 85.449 159.449 89.449 c f
q 1 0 0 1 0 0 cm
159.449 89.449 m 159.449 93.449 153.449 93.449 153.449 89.449 c 153.449
 85.449 159.449 85.449 159.449 89.449 c S Q
173.699 81.352 m 173.699 85.352 167.699 85.352 167.699 81.352 c 167.699
 77.352 173.699 77.352 173.699 81.352 c f
q 1 0 0 1 0 0 cm
173.699 81.352 m 173.699 85.352 167.699 85.352 167.699 81.352 c 167.699
 77.352 173.699 77.352 173.699 81.352 c S Q
187.898 60.551 m 187.898 64.551 181.898 64.551 181.898 60.551 c 181.898
 56.551 187.898 56.551 187.898 60.551 c f
q 1 0 0 1 0 0 cm
187.898 60.551 m 187.898 64.551 181.898 64.551 181.898 60.551 c 181.898
 56.551 187.898 56.551 187.898 60.551 c S Q
202.148 67.352 m 202.148 71.352 196.148 71.352 196.148 67.352 c 196.148
 63.352 202.148 63.352 202.148 67.352 c f
q 1 0 0 1 0 0 cm
202.148 67.352 m 202.148 71.352 196.148 71.352 196.148 67.352 c 196.148
 63.352 202.148 63.352 202.148 67.352 c S Q
216.398 61.398 m 216.398 65.398 210.398 65.398 210.398 61.398 c 210.398
 57.398 216.398 57.398 216.398 61.398 c f
q 1 0 0 1 0 0 cm
216.398 61.398 m 216.398 65.398 210.398 65.398 210.398 61.398 c 210.398
 57.398 216.398 57.398 216.398 61.398 c S Q
230.602 58.398 m 230.602 62.398 224.602 62.398 224.602 58.398 c 224.602
 54.398 230.602 54.398 230.602 58.398 c f
q 1 0 0 1 0 0 cm
230.602 58.398 m 230.602 62.398 224.602 62.398 224.602 58.398 c 224.602
 54.398 230.602 54.398 230.602 58.398 c S Q
244.852 54.551 m 244.852 58.551 238.852 58.551 238.852 54.551 c 238.852
 50.551 244.852 50.551 244.852 54.551 c f
q 1 0 0 1 0 0 cm
244.852 54.551 m 244.852 58.551 238.852 58.551 238.852 54.551 c 238.852
 50.551 244.852 50.551 244.852 54.551 c S Q
259.051 50.75 m 259.051 54.75 253.051 54.75 253.051 50.75 c 253.051 46.75
 259.051 46.75 259.051 50.75 c f
q 1 0 0 1 0 0 cm
259.051 50.75 m 259.051 54.75 253.051 54.75 253.051 50.75 c 253.051 46.75
 259.051 46.75 259.051 50.75 c S Q
312 156.102 m 312 160.102 306 160.102 306 156.102 c 306 152.102 312 152.102
 312 156.102 c f
q 1 0 0 1 0 0 cm
312 156.102 m 312 160.102 306 160.102 306 156.102 c 306 152.102 312 152.102
 312 156.102 c S Q
0.941176 0.894118 0.258824 rg
q 1 0 0 1 0 0 cm
290.148 171.602 m 327.852 171.602 l S Q
q 1 0 0 1 0 0 cm
71.102 134.551 m 85.301 126.148 l 99.551 120.801 l 113.75 113.801 l 128
 105.949 l 142.25 99.852 l 156.449 92.949 l 170.699 73.648 l 184.898 79.801
 l 199.148 73.301 l 213.398 54.949 l 227.602 69.25 l 241.852 66.398 l 256.051
 61.5 l 270.301 53.949 l S Q
74.102 134.551 m 74.102 138.551 68.102 138.551 68.102 134.551 c 68.102 
130.551 74.102 130.551 74.102 134.551 c f
q 1 0 0 1 0 0 cm
74.102 134.551 m 74.102 138.551 68.102 138.551 68.102 134.551 c 68.102 
130.551 74.102 130.551 74.102 134.551 c S Q
88.301 126.148 m 88.301 130.148 82.301 130.148 82.301 126.148 c 82.301 
122.148 88.301 122.148 88.301 126.148 c f
q 1 0 0 1 0 0 cm
88.301 126.148 m 88.301 130.148 82.301 130.148 82.301 126.148 c 82.301 
122.148 88.301 122.148 88.301 126.148 c S Q
102.551 120.801 m 102.551 124.801 96.551 124.801 96.551 120.801 c 96.551
 116.801 102.551 116.801 102.551 120.801 c f
q 1 0 0 1 0 0 cm
102.551 120.801 m 102.551 124.801 96.551 124.801 96.551 120.801 c 96.551
 116.801 102.551 116.801 102.551 120.801 c S Q
116.75 113.801 m 116.75 117.801 110.75 117.801 110.75 113.801 c 110.75 
109.801 116.75 109.801 116.75 113.801 c f
q 1 0 0 1 0 0 cm
116.75 113.801 m 116.75 117.801 110.75 117.801 110.75 113.801 c 110.75 
109.801 116.75 109.801 116.75 113.801 c S Q
131 105.949 m 131 109.949 125 109.949 125 105.949 c 125 101.949 131 101.949
 131 105.949 c f
q 1 0 0 1 0 0 cm
131 105.949 m 131 109.949 125 109.949 125 105.949 c 125 101.949 131 101.949
 131 105.949 c S Q
145.25 99.852 m 145.25 103.852 139.25 103.852 139.25 99.852 c 139.25 95.852
 145.25 95.852 145.25 99.852 c f
q 1 0 0 1 0 0 cm
145.25 99.852 m 145.25 103.852 139.25 103.852 139.25 99.852 c 139.25 95.852
 145.25 95.852 145.25 99.852 c S Q
159.449 92.949 m 159.449 96.949 153.449 96.949 153.449 92.949 c 153.449
 88.949 159.449 88.949 159.449 92.949 c f
q 1 0 0 1 0 0 cm
159.449 92.949 m 159.449 96.949 153.449 96.949 153.449 92.949 c 153.449
 88.949 159.449 88.949 159.449 92.949 c S Q
173.699 73.648 m 173.699 77.648 167.699 77.648 167.699 73.648 c 167.699
 69.648 173.699 69.648 173.699 73.648 c f
q 1 0 0 1 0 0 cm
173.699 73.648 m 173.699 77.648 167.699 77.648 167.699 73.648 c 167.699
 69.648 173.699 69.648 173.699 73.648 c S Q
187.898 79.801 m 187.898 83.801 181.898 83.801 181.898 79.801 c 181.898
 75.801 187.898 75.801 187.898 79.801 c f
q 1 0 0 1 0 0 cm
187.898 79.801 m 187.898 83.801 181.898 83.801 181.898 79.801 c 181.898
 75.801 187.898 75.801 187.898 79.801 c S Q
202.148 73.301 m 202.148 77.301 196.148 77.301 196.148 73.301 c 196.148
 69.301 202.148 69.301 202.148 73.301 c f
q 1 0 0 1 0 0 cm
202.148 73.301 m 202.148 77.301 196.148 77.301 196.148 73.301 c 196.148
 69.301 202.148 69.301 202.148 73.301 c S Q
216.398 54.949 m 216.398 58.949 210.398 58.949 210.398 54.949 c 210.398
 50.949 216.398 50.949 216.398 54.949 c f
q 1 0 0 1 0 0 cm
216.398 54.949 m 216.398 58.949 210.398 58.949 210.398 54.949 c 210.398
 50.949 216.398 50.949 216.398 54.949 c S Q
230.602 69.25 m 230.602 73.25 224.602 73.25 224.602 69.25 c 224.602 65.25
 230.602 65.25 230.602 69.25 c f
q 1 0 0 1 0 0 cm
230.602 69.25 m 230.602 73.25 224.602 73.25 224.602 69.25 c 224.602 65.25
 230.602 65.25 230.602 69.25 c S Q
244.852 66.398 m 244.852 70.398 238.852 70.398 238.852 66.398 c 238.852
 62.398 244.852 62.398 244.852 66.398 c f
q 1 0 0 1 0 0 cm
244.852 66.398 m 244.852 70.398 238.852 70.398 238.852 66.398 c 238.852
 62.398 244.852 62.398 244.852 66.398 c S Q
259.051 61.5 m 259.051 65.5 253.051 65.5 253.051 61.5 c 253.051 57.5 259.051
 57.5 259.051 61.5 c f
q 1 0 0 1 0 0 cm
259.051 61.5 m 259.051 65.5 253.051 65.5 253.051 61.5 c 253.051 57.5 259.051
 57.5 259.051 61.5 c S Q
273.301 53.949 m 273.301 57.949 267.301 57.949 267.301 53.949 c 267.301
 49.949 273.301 49.949 273.301 53.949 c f
q 1 0 0 1 0 0 cm
273.301 53.949 m 273.301 57.949 267.301 57.949 267.301 53.949 c 267.301
 49.949 273.301 49.949 273.301 53.949 c S Q
312 171.602 m 312 175.602 306 175.602 306 171.602 c 306 167.602 312 167.602
 312 171.602 c f
q 1 0 0 1 0 0 cm
312 171.602 m 312 175.602 306 175.602 306 171.602 c 306 167.602 312 167.602
 312 171.602 c S Q
0 g
0.25 w
q 1 0 0 1 0 0 cm
56.852 9.852 284.598 173.199 re S Q
Q Q
showpage
%%Trailer
end
%%EOF
