0 4999861 139 0
0.1 4999858.19848654 141.164787972837 0.636725482931889
0.6867223012409 4999840.85989595 154.562671204817 4.57743284706352
1.32784575795542 4999820.02680156 170.660810846735 9.31238759525302
2.05123738192858 4999793.90387517 190.846479292261 15.2496455395346
2.8310262162649 4999762.27365731 215.287692212324 22.4386504814682
3.65499923545777 4999724.43957014 244.522681821252 31.0377480351086
4.51414755001488 4999679.50915733 279.241028486262 41.2498141844656
5.40182563611203 4999626.37643132 320.297296701339 53.3262719757868
6.31291783251938 4999563.70907625 368.720917454488 67.5700062948181
7.24339059698834 4999489.92095128 425.737426808859 84.3416219132853
8.19000730556806 4999403.13524579 492.796924743265 104.067829468981
9.15013770400592 4999301.13857443 571.609530412417 127.251895163141
10.1216242288706 4999181.32556485 664.188177626947 154.486257525607
11.1026847045213 4999040.63287332 772.899571036411 186.467555646429
12.0918394156945 4998875.46112259 900.524463092909 224.014414318015
13.0878551724447 4998681.58285453 1050.32872131829 268.088424149644
14.0897016193847 4998454.03417629 1226.14697328774 319.818850424358
15.0965166195377 4998186.98732236 1432.48096708604 380.531710559177
16.1075785262049 4997873.60083366 1674.61518458148 451.783981760681
17.1222837918993 4997505.84344828 1958.75270895444 535.403842767521
18.1401287881091 4997074.2870863 2292.17489207149 633.538021625461
19.1606950020039 4996567.86346992 2683.42900888206 748.707521202813
20.1836369814973 4995973.57792287 3142.5488445873 883.873232547247
21.2086725513657 4995276.17270639 3681.31406130076 1042.51323231002
22.2355749339142 4994457.73083295 4313.55526224553 1228.71390480521
23.2641664948399 4993497.20960253 5055.51295129079 1447.27744618138
24.2943138992895 4992369.89107119 5926.26011472232 1703.84881408807
25.3259245203911 4991046.73420308 6948.19999167192 2005.06580524881
26.3589439876637 4989493.61048056 8147.65281582692 2358.7367036182
27.3933548028954 4987670.40112275 9555.54799500179 2774.0508822513
28.4291759885397 4985529.929624 11208.2414622466 3261.82891375135
29.4664637694407 4983016.69785454 13148.4819303902 3834.82021507351
30.5053133273795 4980065.38717279 15426.5547111389 4508.05811607154
31.5458617087925 4976599.07749886 18101.6378780023 5299.28462314544
32.5882920118371 4972527.12656889 21243.4132072326 6229.4602238818
33.6328390396793 4967742.63788491 24933.9840188712 7323.37809621771
34.6796251709505 4962120.42458638 29269.3962031916 8610.17921043496
35.7286892003671 4955514.0914377 34361.8203947169 10124.0881675854
36.7804680484823 4947749.07137048 40344.8241518999 11906.1044776226
37.8354532371447 4938619.16100695 47375.9049283929 14004.9340646578
38.8942322545996 4927880.27704223 55641.1087169308 16478.6142408403
39.9575067226565 4915243.04806158 65360.4639964292 19396.4879419982
41.0261174769451 4900363.75251646 76794.5719637213 22841.6755198264
42.1010760598615 4882833.17458132 90252.6299011759 26914.1955175086
43.183604945877 4862162.78416887 106102.266098323 31734.9497328106
44.2751895796533 4837767.43065464 124781.691689726 37450.8776556338
45.3776467123565 4808943.4190388 146814.858943643 44241.7220175567
46.4932156976411 4774840.35290278 172830.587439804 52329.0596574173
47.6246829185943 4734424.37493424 203587.033307911 61988.5917578486
48.7755553443578 4686429.22356991 240003.527686477 73567.248743611
49.9503093117205 4629289.49455469 283202.87789074 87507.6275545775
51.1547589275284 4561046.93321315 334569.062587591 104384.004199258
52.3966236357697 4479213.9543588 395828.617479076 124957.428162125
53.6864468516449 4380565.33107826 469170.664767782 150264.00415396
55.0391806371455 4260799.89451651 557435.107016016 181764.99846748
56.4771651697189 4113941.78187551 664434.958192331 221623.259932158
58.0364708966847 3931137.22087996 795588.514309472 273274.264810566
59.7833312902969 3697686.58709562 959469.408204652 342844.004699731
60 3666726.46475894 980874.888719624 352398.646521441


0 4999861 139 0
0.1 4999859.13855177 140.226845846998 0.634602384421968
1.13086165302413 4999838.96528031 153.522658040903 7.51206164424106
2.30075910655557 4999813.74448742 170.145154746604 16.1103578319989
3.6428181395162 4999781.43184398 191.441678328471 27.1264776908901
5.10086069936005 4999741.72704034 217.610107985471 40.6628516748762
6.64813770219231 4999693.6409512 249.302286536811 57.0567622607681
8.26549098820045 4999635.87572329 287.373502664832 76.7507740454212
9.93900162549026 4999566.80376857 332.896322470536 100.299908956181
11.6580928389624 4999484.44337207 387.176646972808 128.379980961906
13.414518139275 4999386.41065203 451.785347480467 161.804000488597
15.2017290654912 4999269.85526637 528.600602560105 201.544131074421
17.0144577001497 4999131.38003301 619.860821428865 248.759145564153
18.8484265041065 4998966.943215 728.228970843517 304.827814154405
20.7001387288233 4998771.74112633 856.869841326242 371.389032347695
22.5667224248283 4998540.06786766 1009.54234306934 450.389789271911
24.4458116279647 4998265.14817868 1190.70945886165 544.142362455102
26.3354542462074 4997938.93850649 1405.66905866555 655.392434845985
28.234039698504 4997551.89037567 1660.70943845465 787.400185872419
30.1402415391948 4997092.66895599 1963.29421550567 944.036828507198
32.052971704351 4996547.81830791 2322.2821246505 1129.89956743746
33.971343954713 4995901.36308778 2748.18835054554 1350.44856167666
35.894644733292 4995134.33444543 3253.49534004249 1612.17021452847
37.8223101177795 4994224.20536266 3853.02261810985 1922.77201923315
39.7539078843449 4993144.21765531 4564.36704197967 2291.41530270911
41.6891239589227 4991862.57915719 5408.42725250814 2728.99359030352
43.6277527341202 4990341.50504531 6410.02891903053 3248.46603566356
45.5696909012908 4988536.07161773 7598.67085849208 3865.25752377922
47.5149345939166 4986392.84379176 9009.41641121692 4597.73979702821
49.4635797786738 4983848.22873172 10683.9598059966 5467.81146227993
51.4158259702054 4980826.49677579 12671.9039529999 6501.59927120966
53.3719834925213 4977237.39643054 15032.294579936 7730.30898952061
55.332484690499 4972973.27151696 17835.4664702595 9191.26201278194
57.2978996986218 4967905.56404362 21165.2715664968 10929.1643898827
59.2685792982985 4961881.81136864 25120.9514616588 12997.2371697031
60 4959372.38692509 26768.1002222177 13859.512852692


0 4999861 139 0
0.1 4999859.60624132 139.760214303528 0.633544371136616
1.76014702170364 4999835.32182998 153.005920095437 11.672249924281
3.72344269233875 4999803.61606118 170.299455432931 26.0844833860216
5.99971038878325 4999762.34405787 192.81064294435 44.8452991850895
8.48540461540666 4999711.01927147 220.804752299347 68.1759762260139
11.1299884507402 4999648.20848547 255.063351485084 96.728163046836
13.8980706634208 4999572.00282825 296.62737228576 131.369799460122
16.7641866276853 4999479.99018519 346.812121367591 173.197693437897
19.7091639481954 4999369.20869398 407.232593746669 223.5587122677
22.7181808213859 4999236.06370696 479.848689991913 284.087603050878
25.7795663028936 4999076.21742089 567.025308702505 356.75727041214
28.8840128196153 4998884.45064474 671.607588597963 443.941766663015
32.0240315743691 4998654.49370695 797.012914828344 548.493378225891
35.1935609936994 4998378.82162452 947.342319994534 673.836055481175
38.3876767663365 4998048.40706185 1127.51476697298 824.078171178974
41.6023723151177 4997652.42295948 1343.42868021995 1004.14836029709
44.8343899178546 4997177.88485102 1602.15608083799 1219.9590681436
48.0810893884973 4996609.22068958 1912.17583924693 1478.60347117875
51.340345391385 4995927.75335423 2283.65394868761 1788.5926970826
54.6104671232372 4995111.07777459 2728.78040355206 2160.14182185505
57.8901359040399 4994132.31063085 3262.17431903367 2605.51505012131
60 4993403.87248034 3659.09101646226 2937.03650320145


0 4999861 139 0
0.1 4999860.07237577 139.295135522023 0.632488707315956
4.35616171532781 4999818.71062068 152.45478806052 28.8345912600977
9.92105908721064 4999758.68036455 171.553594300038 69.7660411459863
16.4685848536246 4999678.3529052 197.109247895367 124.537846903001
23.6729800501573 4999576.07534911 229.64690703905 194.277743846644
31.3632989635189 4999448.20647291 270.323951088397 281.469575997146
39.4243952644918 4999289.79827869 320.712926362152 389.488794950268
47.774696942334 4999094.51356838 382.827454389283 522.658977226718
56.3538367181638 4998854.43290057 459.183176899568 686.383922531492
60 4998738.41723404 496.078207087302 765.504558873954


0 4999861 139 0
0.1 4999859.60694565 139.61911364491 0.773940708710773
2.07812871748983 4999830.73903025 152.448801634295 16.812168113406
4.51938966758931 4999791.42990075 169.91870070366 38.6513985467734
7.36658070242288 4999739.85926294 192.837641238943 67.3030958225276
10.4863069207555 4999675.33318722 221.513800585538 103.153012199444
13.8110897943095 4999595.97171567 256.782352686137 147.245931642783
17.2944635319174 4999499.23957655 299.769551736897 200.990871717087
20.9031698790406 4999381.91885294 351.904802337956 266.176344721781
24.6122991776799 4999240.0409732 414.950774421401 345.008252379922
28.402684726326 4999068.76870508 491.05568785738 440.175607064606
32.2593052856283 4998862.23912636 582.822867470813 554.938006172638
36.1702410476258 4998613.36643078 693.398042624674 693.235526600859
40.1259544638725 4998313.59974151 826.576489127474 859.823769363886
44.1187751883097 4997952.62834259 986.933317001845 1060.43834040706
48.1425203789002 4997518.02428775 1179.98126542546 1301.99444682119
52.1922088867073 4996994.80973696 1412.36147991961 1592.8287831256
56.2638431135643 4996364.93334482 1692.07402488595 1942.99263029805
60 4995677.87942719 1997.12735602521 2324.99321678092


0 4999861 139 0
0.1 4999859.60586079 139.836467942215 0.557671263157025
1.63980119506249 4999837.04855757 153.370576163394 9.58086626835469
3.41801528722911 4999808.26904998 170.637872399502 21.0930776222462
5.47241070891268 4999770.9628846 193.020943707607 36.0161716879652
7.71118602117171 4999724.71565822 220.768346551675 54.5159952271434
10.0905075161358 4999668.25720757 254.642045987015 77.1007464437452
12.5793612679486 4999599.9094805 295.64868131645 104.441838184078
15.1553646410589 4999517.55757901 345.056914824584 137.385506168952
17.8016170149978 4999418.61041437 404.421002633437 176.968583000225
20.505020959081 4999299.92983203 475.623267876494 224.446900090145
23.2552396104445 4999157.73661253 560.930425847025 281.33296162187
26.0440103713586 4998987.49293585 663.063998986922 349.443065157722
28.8646691507267 4998783.75888163 785.286264590745 430.954853783063
31.7118075694259 4998540.0189674 931.504114040869 528.476918560337
34.5810185590757 4998248.47341566 1106.39398099283 645.132603343589
37.4687032923023 4997899.78750005 1315.5517877239 784.660712222446
40.3719222152858 4997482.79082096 1565.67274153427 951.536437501302
43.2882787646722 4996984.1166047 1864.76684162329 1151.11655368198
46.215827951508 4996387.7690186 2222.41718176107 1389.81379964191
49.1530043132033 4995674.6039511 2650.08960840241 1675.30644049521
52.0985652869725 4994821.70560309 3161.50408073337 2016.79031617697
55.0515471404216 4993801.63742855 3773.08025678846 2425.28231466447
58.0112313756406 4992581.54125977 4504.47249633499 2913.98624389159
60 4991631.71773302 5073.76587816879 3294.51638881161


0 4999861 139 0
0.1 4999859.60624132 139.760214303528 0.633544371136616
1.40965817444752 4999840.63341196 150.108771797939 9.25781623919619
2.92014797907025 4999817.00026505 162.999211411791 20.0005235399932
4.66547288433938 4999787.15472685 179.278058852582 33.5672142969662
6.56980293356083 4999751.17993589 198.899917143205 49.9201469626603
8.59798102265286 4999708.52602638 222.164638382327 69.3093352369591
10.7248336550931 4999658.42844894 249.489148076441 92.0824029869228
12.9320973471306 4999599.91225057 281.405101625516 118.682647803419
15.2058268518686 4999531.7979918 318.555645134008 149.646363065304
17.5350597427616 4999452.6883527 361.702705320292 185.608941978179
19.9109932949157 4999360.94517152 411.73949260109 227.315335876366
22.3264496918236 4999254.65868498 469.707250578177 275.634064441388
24.7755091860295 4999131.60958265 536.815915467779 331.574501878017
27.2532478846918 4998989.22368613 614.468785514954 396.307528351816
29.7555440108804 4998824.51861877 704.291541956695 471.189839269517
32.2789309078306 4998634.04151102 808.166136670809 557.792352313137
34.8204830951443 4998413.79651218 928.270209161709 657.933278659022
37.3777264370447 4998159.16060857 1067.12284077411 773.716550655201
39.9485663525759 4997864.78596238 1227.63760616626 907.576431454893
42.5312298477669 4997524.4866652 1413.18405224956 1062.32928254826
45.1242183509778 4997131.10743462 1627.65892782125 1241.23363755793
47.7262691520346 4996676.37135714 1875.56871050811 1448.05993235237
50.3363237980024 4996150.70328621 2162.12523605919 1687.17147773092
52.9535022194458 4995543.02491668 2493.35654012072 1963.61854320182
55.5770816440402 4994840.51686597 2876.23537899138 2283.24775503734
58.2064795760631 4994028.34226925 3318.82831713656 2652.8294136167
60.8412403002684 4993089.32540884 3830.46877018583 3080.20582097329
63.4810244929728 4992003.5777185 4421.95798529552 3574.46429619919
66.1256016372779 4990748.06207548 5105.79865112445 4146.13927339075
68.7748450453658 4989296.08455437 5896.46668581866 4807.44875981154
71.4287293579073 4987616.70070353 6810.72777836925 5572.5715180971
74.0873304866955 4985674.0207887 7868.00651457929 6457.97269672057
76.7508280443491 4983426.39520827 9090.81745216188 7482.78733956621
79.4195103847238 4980825.45723548 10505.2693975033 8669.27336701477
82.0937824895132 4977814.99510868 12141.6564949729 10043.3483963518
84.7741770361144 4974329.61896528 14035.1526877456 11635.2283469715
87.4613691398087 4970293.17966393 16226.629868077 13480.1904679891
90.1561954338262 4965616.88553045 18763.6248486208 15619.4896209334
92.8583722308418 4960199.86038753 21699.9630493377 18100.1765631296
95.568792519713 4953922.97775142 25099.0027362854 20978.0195122956
98.2888547180517 4946646.43931672 29034.8059824302 24318.7547008541
101.02018067198 4938206.6186298 33593.6554122127 28199.7259579844
103.764690945231 4928411.51151956 38876.2509263301 32712.2375541153
106.524666063012 4917035.23230302 45000.3171774788 37964.4505194998
109.302826561578 4903811.21073974 52103.763947996 44085.0253122667
112.102435361355 4888423.70114153 60348.5442765224 51227.7545819524
114.927430875189 4870497.05213811 69925.4113953794 59577.536466515
117.782602959038 4849581.94818944 81059.8540091549 69358.1978014085
120.673829988143 4825137.46371523 94019.6096227913 80842.9266619802
123.60840545357 4796507.17565659 109124.345491527 94368.4788518864
126.595499714097 4762886.58684901 126758.409253717 110355.003897272
129.646833264681 4723277.3785633 147388.090928257 129334.530508441
132.777695570815 4676420.81925145 171585.824487121 151993.356261424
136.008559099741 4620696.39008768 200065.69109384 179237.918818484
139.367789014695 4553958.34999855 233738.718447151 212302.9315543
142.896552627126 4473251.46747596 273806.328812034 252942.203712004
146.658701001911 4374261.66219691 321937.500308481 303800.837494606
150.7640134496 4250074.27614938 380667.426173767 369258.29767685
155.439092270203 4087528.44532062 454586.068764748 457885.485914637
160.562568303208 3884236.33391424 541937.05137272 573826.614713045
165.739757955885 3655028.01100215 632912.10475694 712059.884240913
171.214062127933 3392795.86322178 725940.986759043 881263.150019177
176.648105825978 3121071.99684414 807942.604321159 1070985.3988347
181.545168487174 2874858.27866895 867399.153971174 1257742.56735988
186.51253468429 2631529.86004228 909732.101168459 1458738.03878926
191.33875913739 2407393.83800867 931548.561870036 1661057.6001213
196.35898720249 2191804.80098289 933911.566466991 1874283.63255012
201.842596192268 1980122.32082812 914760.64953957 2105117.02963231
208.362263456806 1762434.14650592 867760.801063546 2369805.05243053
214.801018408209 1582444.77116417 802920.828301406 2614634.40053443
220.917538065156 1440601.3123421 731331.634834688 2828067.05282321
227.207903339149 1320394.70640815 653515.764640774 3026089.52895108
233.217454365536 1226120.57956927 579436.422993133 3194442.99743759
239.376603945334 1146826.73605373 506783.866254026 3346389.39769224
245.918161489255 1078359.72678166 435347.116568067 3486293.15665027
253.395307847809 1016041.95252678 362377.441002174 3621580.60647105
260.132694757721 971456.293106638 304977.549954738 3723566.15693863
266.258119687647 938500.416087882 259494.835592703 3802004.74831942
272.065754882822 912671.249288584 221897.726068036 3865431.02464338
277.646063853189 891947.648975328 190420.650832842 3917631.70019183
283.288444473176 874380.819355342 162779.660484934 3962839.52015973
288.704516434752 860194.164910004 139789.351116843 4000016.48397315
293.999353426996 848450.471308952 120291.167215852 4031258.3614752
299.195665702466 838650.032670508 103686.569761192 4057663.3975683
304.316230091415 830409.670904029 89485.2571678354 4080105.07192814
309.376243879887 823442.823041197 77304.2802798696 4099252.89667893
314.387252251594 817526.852568355 66833.0549015613 4115640.09253009
319.358079205073 812485.61714245 57816.2508796042 4129698.13197795
324.295645634237 808177.502806404 50041.419774695 4141781.0774189
329.205466436193 804487.235199686 43330.2861608719 4152182.47863944
334.091997152667 801320.029359643 37532.276069362 4161147.694571
338.958877458056 798597.302200632 32519.5757411831 4168883.12205819
343.809107951 796253.456487719 28183.2654752485 4175563.27803703
348.645181313766 794233.421824171 24430.2373025049 4181336.34087333
353.469181601466 792490.743303222 21180.7001822726 4186328.55651451
358.282860676162 790986.074736776 18366.1361841047 4190647.78907912
363.087697945295 789685.976214141 15927.6096885739 4194386.41409729
367.884947650363 788561.944283964 13814.3575100618 4197623.69820598
372.675676734877 787589.622477559 11982.605628206 4200427.77189424
377.460795474295 786748.153417979 10394.5708126341 4202857.27576939
382.241082468137 786019.643346455 9017.61454596841 4204962.74210758
387.017205199225 785388.716808142 7823.52339377331 4206787.75979809
391.789737057657 784842.144303123 6787.89506463154 4208369.96063225
396.559171527356 784368.529464004 5889.61330308451 4209741.85723291
400 784066.420511701 5316.18544877848 4210617.39403952


