%!PS-Adobe-3.0 EPSF-3.0
%%Creator: cairo 1.15.10 (http://cairographics.org)
%%CreationDate: Sun Jun 21 12:53:48 2020
%%Pages: 1
%%DocumentData: Clean7Bit
%%LanguageLevel: 2
%%BoundingBox: 0 0 360 216
%%EndComments
%%BeginProlog
50 dict begin
/q { gsave } bind def
/Q { grestore } bind def
/cm { 6 array astore concat } bind def
/w { setlinewidth } bind def
/J { setlinecap } bind def
/j { setlinejoin } bind def
/M { setmiterlimit } bind def
/d { setdash } bind def
/m { moveto } bind def
/l { lineto } bind def
/c { curveto } bind def
/h { closepath } bind def
/re { exch dup neg 3 1 roll 5 3 roll moveto 0 rlineto
      0 exch rlineto 0 rlineto closepath } bind def
/S { stroke } bind def
/f { fill } bind def
/f* { eofill } bind def
/n { newpath } bind def
/W { clip } bind def
/W* { eoclip } bind def
/BT { } bind def
/ET { } bind def
/BDC { mark 3 1 roll /BDC pdfmark } bind def
/EMC { mark /EMC pdfmark } bind def
/cairo_store_point { /cairo_point_y exch def /cairo_point_x exch def } def
/Tj { show currentpoint cairo_store_point } bind def
/TJ {
  {
    dup
    type /stringtype eq
    { show } { -0.001 mul 0 cairo_font_matrix dtransform rmoveto } ifelse
  } forall
  currentpoint cairo_store_point
} bind def
/cairo_selectfont { cairo_font_matrix aload pop pop pop 0 0 6 array astore
    cairo_font exch selectfont cairo_point_x cairo_point_y moveto } bind def
/Tf { pop /cairo_font exch def /cairo_font_matrix where
      { pop cairo_selectfont } if } bind def
/Td { matrix translate cairo_font_matrix matrix concatmatrix dup
      /cairo_font_matrix exch def dup 4 get exch 5 get cairo_store_point
      /cairo_font where { pop cairo_selectfont } if } bind def
/Tm { 2 copy 8 2 roll 6 array astore /cairo_font_matrix exch def
      cairo_store_point /cairo_font where { pop cairo_selectfont } if } bind def
/g { setgray } bind def
/rg { setrgbcolor } bind def
/d1 { setcachedevice } bind def
/cairo_data_source {
  CairoDataIndex CairoData length lt
    { CairoData CairoDataIndex get /CairoDataIndex CairoDataIndex 1 add def }
    { () } ifelse
} def
/cairo_flush_ascii85_file { cairo_ascii85_file status { cairo_ascii85_file flushfile } if } def
/cairo_image { image cairo_flush_ascii85_file } def
/cairo_imagemask { imagemask cairo_flush_ascii85_file } def
%%EndProlog
%%BeginSetup
%%EndSetup
%%Page: 1 1
%%BeginPageSetup
%%PageBoundingBox: 0 0 360 216
%%EndPageSetup
q 53 29 293 181 rectclip
1 0 0 -1 0 216 cm q
0 g
0.2 w
0 J
0 j
[ 0.2 2] 0 d
3.8 M q 1 0 0 1 0 0 cm
56.852 183.051 m 341.449 183.051 l S Q
0.25 w
[] 0.0 d
q 1 0 0 1 0 0 cm
56.852 183.051 m 53.148 183.051 l S Q
q 1 0 0 1 0 0 cm
341.449 183.051 m 345.148 183.051 l S Q
q 1 0 0 1 0 0 cm
56.852 172.602 m 55 172.602 l S Q
q 1 0 0 1 0 0 cm
341.449 172.602 m 343.301 172.602 l S Q
q 1 0 0 1 0 0 cm
56.852 166.5 m 55 166.5 l S Q
q 1 0 0 1 0 0 cm
341.449 166.5 m 343.301 166.5 l S Q
q 1 0 0 1 0 0 cm
56.852 162.199 m 55 162.199 l S Q
q 1 0 0 1 0 0 cm
341.449 162.199 m 343.301 162.199 l S Q
q 1 0 0 1 0 0 cm
56.852 158.852 m 55 158.852 l S Q
q 1 0 0 1 0 0 cm
341.449 158.852 m 343.301 158.852 l S Q
q 1 0 0 1 0 0 cm
56.852 156.102 m 55 156.102 l S Q
q 1 0 0 1 0 0 cm
341.449 156.102 m 343.301 156.102 l S Q
q 1 0 0 1 0 0 cm
56.852 153.801 m 55 153.801 l S Q
q 1 0 0 1 0 0 cm
341.449 153.801 m 343.301 153.801 l S Q
q 1 0 0 1 0 0 cm
56.852 151.75 m 55 151.75 l S Q
q 1 0 0 1 0 0 cm
341.449 151.75 m 343.301 151.75 l S Q
q 1 0 0 1 0 0 cm
56.852 150 m 55 150 l S Q
q 1 0 0 1 0 0 cm
341.449 150 m 343.301 150 l S Q
0.2 w
[ 0.2 2] 0 d
q 1 0 0 1 0 0 cm
56.852 148.398 m 162.648 148.398 l S Q
[ 0.2 2] 0 d
q 1 0 0 1 0 0 cm
336.352 148.398 m 341.449 148.398 l S Q
0.25 w
[] 0.0 d
q 1 0 0 1 0 0 cm
56.852 148.398 m 53.148 148.398 l S Q
q 1 0 0 1 0 0 cm
341.449 148.398 m 345.148 148.398 l S Q
q 1 0 0 1 0 0 cm
56.852 138 m 55 138 l S Q
q 1 0 0 1 0 0 cm
341.449 138 m 343.301 138 l S Q
q 1 0 0 1 0 0 cm
56.852 131.898 m 55 131.898 l S Q
q 1 0 0 1 0 0 cm
341.449 131.898 m 343.301 131.898 l S Q
q 1 0 0 1 0 0 cm
56.852 127.551 m 55 127.551 l S Q
q 1 0 0 1 0 0 cm
341.449 127.551 m 343.301 127.551 l S Q
q 1 0 0 1 0 0 cm
56.852 124.199 m 55 124.199 l S Q
q 1 0 0 1 0 0 cm
341.449 124.199 m 343.301 124.199 l S Q
q 1 0 0 1 0 0 cm
56.852 121.449 m 55 121.449 l S Q
q 1 0 0 1 0 0 cm
341.449 121.449 m 343.301 121.449 l S Q
q 1 0 0 1 0 0 cm
56.852 119.148 m 55 119.148 l S Q
q 1 0 0 1 0 0 cm
341.449 119.148 m 343.301 119.148 l S Q
q 1 0 0 1 0 0 cm
56.852 117.148 m 55 117.148 l S Q
q 1 0 0 1 0 0 cm
341.449 117.148 m 343.301 117.148 l S Q
q 1 0 0 1 0 0 cm
56.852 115.352 m 55 115.352 l S Q
q 1 0 0 1 0 0 cm
341.449 115.352 m 343.301 115.352 l S Q
0.2 w
[ 0.2 2] 0 d
q 1 0 0 1 0 0 cm
56.852 113.75 m 162.648 113.75 l S Q
[ 0.2 2] 0 d
q 1 0 0 1 0 0 cm
336.352 113.75 m 341.449 113.75 l S Q
0.25 w
[] 0.0 d
q 1 0 0 1 0 0 cm
56.852 113.75 m 53.148 113.75 l S Q
q 1 0 0 1 0 0 cm
341.449 113.75 m 345.148 113.75 l S Q
q 1 0 0 1 0 0 cm
56.852 103.352 m 55 103.352 l S Q
q 1 0 0 1 0 0 cm
341.449 103.352 m 343.301 103.352 l S Q
q 1 0 0 1 0 0 cm
56.852 97.25 m 55 97.25 l S Q
q 1 0 0 1 0 0 cm
341.449 97.25 m 343.301 97.25 l S Q
q 1 0 0 1 0 0 cm
56.852 92.898 m 55 92.898 l S Q
q 1 0 0 1 0 0 cm
341.449 92.898 m 343.301 92.898 l S Q
q 1 0 0 1 0 0 cm
56.852 89.551 m 55 89.551 l S Q
q 1 0 0 1 0 0 cm
341.449 89.551 m 343.301 89.551 l S Q
q 1 0 0 1 0 0 cm
56.852 86.801 m 55 86.801 l S Q
q 1 0 0 1 0 0 cm
341.449 86.801 m 343.301 86.801 l S Q
q 1 0 0 1 0 0 cm
56.852 84.5 m 55 84.5 l S Q
q 1 0 0 1 0 0 cm
341.449 84.5 m 343.301 84.5 l S Q
q 1 0 0 1 0 0 cm
56.852 82.5 m 55 82.5 l S Q
q 1 0 0 1 0 0 cm
341.449 82.5 m 343.301 82.5 l S Q
q 1 0 0 1 0 0 cm
56.852 80.699 m 55 80.699 l S Q
q 1 0 0 1 0 0 cm
341.449 80.699 m 343.301 80.699 l S Q
0.2 w
[ 0.2 2] 0 d
q 1 0 0 1 0 0 cm
56.852 79.148 m 341.449 79.148 l S Q
0.25 w
[] 0.0 d
q 1 0 0 1 0 0 cm
56.852 79.148 m 53.148 79.148 l S Q
q 1 0 0 1 0 0 cm
341.449 79.148 m 345.148 79.148 l S Q
q 1 0 0 1 0 0 cm
56.852 68.699 m 55 68.699 l S Q
q 1 0 0 1 0 0 cm
341.449 68.699 m 343.301 68.699 l S Q
q 1 0 0 1 0 0 cm
56.852 62.602 m 55 62.602 l S Q
q 1 0 0 1 0 0 cm
341.449 62.602 m 343.301 62.602 l S Q
q 1 0 0 1 0 0 cm
56.852 58.25 m 55 58.25 l S Q
q 1 0 0 1 0 0 cm
341.449 58.25 m 343.301 58.25 l S Q
q 1 0 0 1 0 0 cm
56.852 54.898 m 55 54.898 l S Q
q 1 0 0 1 0 0 cm
341.449 54.898 m 343.301 54.898 l S Q
q 1 0 0 1 0 0 cm
56.852 52.148 m 55 52.148 l S Q
q 1 0 0 1 0 0 cm
341.449 52.148 m 343.301 52.148 l S Q
q 1 0 0 1 0 0 cm
56.852 49.852 m 55 49.852 l S Q
q 1 0 0 1 0 0 cm
341.449 49.852 m 343.301 49.852 l S Q
q 1 0 0 1 0 0 cm
56.852 47.852 m 55 47.852 l S Q
q 1 0 0 1 0 0 cm
341.449 47.852 m 343.301 47.852 l S Q
q 1 0 0 1 0 0 cm
56.852 46.102 m 55 46.102 l S Q
q 1 0 0 1 0 0 cm
341.449 46.102 m 343.301 46.102 l S Q
0.2 w
[ 0.2 2] 0 d
q 1 0 0 1 0 0 cm
56.852 44.5 m 341.449 44.5 l S Q
0.25 w
[] 0.0 d
q 1 0 0 1 0 0 cm
56.852 44.5 m 53.148 44.5 l S Q
q 1 0 0 1 0 0 cm
341.449 44.5 m 345.148 44.5 l S Q
q 1 0 0 1 0 0 cm
56.852 34.051 m 55 34.051 l S Q
q 1 0 0 1 0 0 cm
341.449 34.051 m 343.301 34.051 l S Q
q 1 0 0 1 0 0 cm
56.852 27.949 m 55 27.949 l S Q
q 1 0 0 1 0 0 cm
341.449 27.949 m 343.301 27.949 l S Q
q 1 0 0 1 0 0 cm
56.852 23.648 m 55 23.648 l S Q
q 1 0 0 1 0 0 cm
341.449 23.648 m 343.301 23.648 l S Q
q 1 0 0 1 0 0 cm
56.852 20.301 m 55 20.301 l S Q
q 1 0 0 1 0 0 cm
341.449 20.301 m 343.301 20.301 l S Q
q 1 0 0 1 0 0 cm
56.852 17.551 m 55 17.551 l S Q
q 1 0 0 1 0 0 cm
341.449 17.551 m 343.301 17.551 l S Q
q 1 0 0 1 0 0 cm
56.852 15.199 m 55 15.199 l S Q
q 1 0 0 1 0 0 cm
341.449 15.199 m 343.301 15.199 l S Q
q 1 0 0 1 0 0 cm
56.852 13.199 m 55 13.199 l S Q
q 1 0 0 1 0 0 cm
341.449 13.199 m 343.301 13.199 l S Q
q 1 0 0 1 0 0 cm
56.852 11.449 m 55 11.449 l S Q
q 1 0 0 1 0 0 cm
341.449 11.449 m 343.301 11.449 l S Q
0.2 w
[ 0.2 2] 0 d
q 1 0 0 1 0 0 cm
56.852 9.852 m 341.449 9.852 l S Q
0.25 w
[] 0.0 d
q 1 0 0 1 0 0 cm
56.852 9.852 m 53.148 9.852 l S Q
q 1 0 0 1 0 0 cm
341.449 9.852 m 345.148 9.852 l S Q
0.2 w
[ 0.2 2] 0 d
q 1 0 0 1 0 0 cm
56.852 183.051 m 56.852 9.852 l S Q
0.25 w
[] 0.0 d
q 1 0 0 1 0 0 cm
56.852 183.051 m 56.852 186.75 l S Q
q 1 0 0 1 0 0 cm
56.852 9.852 m 56.852 6.148 l S Q
0.2 w
[ 0.2 2] 0 d
q 1 0 0 1 0 0 cm
85.301 183.051 m 85.301 9.852 l S Q
0.25 w
[] 0.0 d
q 1 0 0 1 0 0 cm
85.301 183.051 m 85.301 186.75 l S Q
q 1 0 0 1 0 0 cm
85.301 9.852 m 85.301 6.148 l S Q
0.2 w
[ 0.2 2] 0 d
q 1 0 0 1 0 0 cm
113.75 183.051 m 113.75 9.852 l S Q
0.25 w
[] 0.0 d
q 1 0 0 1 0 0 cm
113.75 183.051 m 113.75 186.75 l S Q
q 1 0 0 1 0 0 cm
113.75 9.852 m 113.75 6.148 l S Q
0.2 w
[ 0.2 2] 0 d
q 1 0 0 1 0 0 cm
142.25 183.051 m 142.25 9.852 l S Q
0.25 w
[] 0.0 d
q 1 0 0 1 0 0 cm
142.25 183.051 m 142.25 186.75 l S Q
q 1 0 0 1 0 0 cm
142.25 9.852 m 142.25 6.148 l S Q
0.2 w
[ 0.2 2] 0 d
q 1 0 0 1 0 0 cm
170.699 183.051 m 170.699 179.352 l S Q
[ 0.2 2] 0 d
q 1 0 0 1 0 0 cm
170.699 101.852 m 170.699 9.852 l S Q
0.25 w
[] 0.0 d
q 1 0 0 1 0 0 cm
170.699 183.051 m 170.699 186.75 l S Q
q 1 0 0 1 0 0 cm
170.699 9.852 m 170.699 6.148 l S Q
0.2 w
[ 0.2 2] 0 d
q 1 0 0 1 0 0 cm
199.148 183.051 m 199.148 179.352 l S Q
[ 0.2 2] 0 d
q 1 0 0 1 0 0 cm
199.148 101.852 m 199.148 9.852 l S Q
0.25 w
[] 0.0 d
q 1 0 0 1 0 0 cm
199.148 183.051 m 199.148 186.75 l S Q
q 1 0 0 1 0 0 cm
199.148 9.852 m 199.148 6.148 l S Q
0.2 w
[ 0.2 2] 0 d
q 1 0 0 1 0 0 cm
227.602 183.051 m 227.602 179.352 l S Q
[ 0.2 2] 0 d
q 1 0 0 1 0 0 cm
227.602 101.852 m 227.602 9.852 l S Q
0.25 w
[] 0.0 d
q 1 0 0 1 0 0 cm
227.602 183.051 m 227.602 186.75 l S Q
q 1 0 0 1 0 0 cm
227.602 9.852 m 227.602 6.148 l S Q
0.2 w
[ 0.2 2] 0 d
q 1 0 0 1 0 0 cm
256.051 183.051 m 256.051 179.352 l S Q
[ 0.2 2] 0 d
q 1 0 0 1 0 0 cm
256.051 101.852 m 256.051 9.852 l S Q
0.25 w
[] 0.0 d
q 1 0 0 1 0 0 cm
256.051 183.051 m 256.051 186.75 l S Q
q 1 0 0 1 0 0 cm
256.051 9.852 m 256.051 6.148 l S Q
0.2 w
[ 0.2 2] 0 d
q 1 0 0 1 0 0 cm
284.551 183.051 m 284.551 179.352 l S Q
[ 0.2 2] 0 d
q 1 0 0 1 0 0 cm
284.551 101.852 m 284.551 9.852 l S Q
0.25 w
[] 0.0 d
q 1 0 0 1 0 0 cm
284.551 183.051 m 284.551 186.75 l S Q
q 1 0 0 1 0 0 cm
284.551 9.852 m 284.551 6.148 l S Q
0.2 w
[ 0.2 2] 0 d
q 1 0 0 1 0 0 cm
313 183.051 m 313 179.352 l S Q
[ 0.2 2] 0 d
q 1 0 0 1 0 0 cm
313 101.852 m 313 9.852 l S Q
0.25 w
[] 0.0 d
q 1 0 0 1 0 0 cm
313 183.051 m 313 186.75 l S Q
q 1 0 0 1 0 0 cm
313 9.852 m 313 6.148 l S Q
0.2 w
[ 0.2 2] 0 d
q 1 0 0 1 0 0 cm
341.449 183.051 m 341.449 9.852 l S Q
0.25 w
[] 0.0 d
q 1 0 0 1 0 0 cm
341.449 183.051 m 341.449 186.75 l S Q
q 1 0 0 1 0 0 cm
341.449 9.852 m 341.449 6.148 l S Q
q 1 0 0 1 0 0 cm
56.852 9.852 284.598 173.199 re S Q
0.580392 0 0.827451 rg
0.75 w
q 1 0 0 1 0 0 cm
290.148 109.602 m 327.852 109.602 l S Q
q 1 0 0 1 0 0 cm
71.102 133.449 m 85.301 118.699 l 99.551 103.352 l 113.75 98.852 l 128 
87.102 l 142.25 80.801 l 156.449 75.25 l 170.699 66.949 l 184.898 62.5 l
 199.148 61.801 l 213.398 58.051 l 227.602 54.648 l 241.852 51.449 l 256.051
 48.449 l 270.301 45.648 l 284.551 43.051 l 298.75 44.898 l 313 34.852 l
 327.199 35.949 l S Q
74.102 133.449 m 74.102 137.449 68.102 137.449 68.102 133.449 c 68.102 
129.449 74.102 129.449 74.102 133.449 c f
q 1 0 0 1 0 0 cm
74.102 133.449 m 74.102 137.449 68.102 137.449 68.102 133.449 c 68.102 
129.449 74.102 129.449 74.102 133.449 c S Q
88.301 118.699 m 88.301 122.699 82.301 122.699 82.301 118.699 c 82.301 
114.699 88.301 114.699 88.301 118.699 c f
q 1 0 0 1 0 0 cm
88.301 118.699 m 88.301 122.699 82.301 122.699 82.301 118.699 c 82.301 
114.699 88.301 114.699 88.301 118.699 c S Q
102.551 103.352 m 102.551 107.352 96.551 107.352 96.551 103.352 c 96.551
 99.352 102.551 99.352 102.551 103.352 c f
q 1 0 0 1 0 0 cm
102.551 103.352 m 102.551 107.352 96.551 107.352 96.551 103.352 c 96.551
 99.352 102.551 99.352 102.551 103.352 c S Q
116.75 98.852 m 116.75 102.852 110.75 102.852 110.75 98.852 c 110.75 94.852
 116.75 94.852 116.75 98.852 c f
q 1 0 0 1 0 0 cm
116.75 98.852 m 116.75 102.852 110.75 102.852 110.75 98.852 c 110.75 94.852
 116.75 94.852 116.75 98.852 c S Q
131 87.102 m 131 91.102 125 91.102 125 87.102 c 125 83.102 131 83.102 131
 87.102 c f
q 1 0 0 1 0 0 cm
131 87.102 m 131 91.102 125 91.102 125 87.102 c 125 83.102 131 83.102 131
 87.102 c S Q
145.25 80.801 m 145.25 84.801 139.25 84.801 139.25 80.801 c 139.25 76.801
 145.25 76.801 145.25 80.801 c f
q 1 0 0 1 0 0 cm
145.25 80.801 m 145.25 84.801 139.25 84.801 139.25 80.801 c 139.25 76.801
 145.25 76.801 145.25 80.801 c S Q
159.449 75.25 m 159.449 79.25 153.449 79.25 153.449 75.25 c 153.449 71.25
 159.449 71.25 159.449 75.25 c f
q 1 0 0 1 0 0 cm
159.449 75.25 m 159.449 79.25 153.449 79.25 153.449 75.25 c 153.449 71.25
 159.449 71.25 159.449 75.25 c S Q
173.699 66.949 m 173.699 70.949 167.699 70.949 167.699 66.949 c 167.699
 62.949 173.699 62.949 173.699 66.949 c f
q 1 0 0 1 0 0 cm
173.699 66.949 m 173.699 70.949 167.699 70.949 167.699 66.949 c 167.699
 62.949 173.699 62.949 173.699 66.949 c S Q
187.898 62.5 m 187.898 66.5 181.898 66.5 181.898 62.5 c 181.898 58.5 187.898
 58.5 187.898 62.5 c f
q 1 0 0 1 0 0 cm
187.898 62.5 m 187.898 66.5 181.898 66.5 181.898 62.5 c 181.898 58.5 187.898
 58.5 187.898 62.5 c S Q
202.148 61.801 m 202.148 65.801 196.148 65.801 196.148 61.801 c 196.148
 57.801 202.148 57.801 202.148 61.801 c f
q 1 0 0 1 0 0 cm
202.148 61.801 m 202.148 65.801 196.148 65.801 196.148 61.801 c 196.148
 57.801 202.148 57.801 202.148 61.801 c S Q
216.398 58.051 m 216.398 62.051 210.398 62.051 210.398 58.051 c 210.398
 54.051 216.398 54.051 216.398 58.051 c f
q 1 0 0 1 0 0 cm
216.398 58.051 m 216.398 62.051 210.398 62.051 210.398 58.051 c 210.398
 54.051 216.398 54.051 216.398 58.051 c S Q
230.602 54.648 m 230.602 58.648 224.602 58.648 224.602 54.648 c 224.602
 50.648 230.602 50.648 230.602 54.648 c f
q 1 0 0 1 0 0 cm
230.602 54.648 m 230.602 58.648 224.602 58.648 224.602 54.648 c 224.602
 50.648 230.602 50.648 230.602 54.648 c S Q
244.852 51.449 m 244.852 55.449 238.852 55.449 238.852 51.449 c 238.852
 47.449 244.852 47.449 244.852 51.449 c f
q 1 0 0 1 0 0 cm
244.852 51.449 m 244.852 55.449 238.852 55.449 238.852 51.449 c 238.852
 47.449 244.852 47.449 244.852 51.449 c S Q
259.051 48.449 m 259.051 52.449 253.051 52.449 253.051 48.449 c 253.051
 44.449 259.051 44.449 259.051 48.449 c f
q 1 0 0 1 0 0 cm
259.051 48.449 m 259.051 52.449 253.051 52.449 253.051 48.449 c 253.051
 44.449 259.051 44.449 259.051 48.449 c S Q
273.301 45.648 m 273.301 49.648 267.301 49.648 267.301 45.648 c 267.301
 41.648 273.301 41.648 273.301 45.648 c f
q 1 0 0 1 0 0 cm
273.301 45.648 m 273.301 49.648 267.301 49.648 267.301 45.648 c 267.301
 41.648 273.301 41.648 273.301 45.648 c S Q
287.551 43.051 m 287.551 47.051 281.551 47.051 281.551 43.051 c 281.551
 39.051 287.551 39.051 287.551 43.051 c f
q 1 0 0 1 0 0 cm
287.551 43.051 m 287.551 47.051 281.551 47.051 281.551 43.051 c 281.551
 39.051 287.551 39.051 287.551 43.051 c S Q
301.75 44.898 m 301.75 48.898 295.75 48.898 295.75 44.898 c 295.75 40.898
 301.75 40.898 301.75 44.898 c f
q 1 0 0 1 0 0 cm
301.75 44.898 m 301.75 48.898 295.75 48.898 295.75 44.898 c 295.75 40.898
 301.75 40.898 301.75 44.898 c S Q
316 34.852 m 316 38.852 310 38.852 310 34.852 c 310 30.852 316 30.852 316
 34.852 c f
q 1 0 0 1 0 0 cm
316 34.852 m 316 38.852 310 38.852 310 34.852 c 310 30.852 316 30.852 316
 34.852 c S Q
330.199 35.949 m 330.199 39.949 324.199 39.949 324.199 35.949 c 324.199
 31.949 330.199 31.949 330.199 35.949 c f
q 1 0 0 1 0 0 cm
330.199 35.949 m 330.199 39.949 324.199 39.949 324.199 35.949 c 324.199
 31.949 330.199 31.949 330.199 35.949 c S Q
312 109.602 m 312 113.602 306 113.602 306 109.602 c 306 105.602 312 105.602
 312 109.602 c f
q 1 0 0 1 0 0 cm
312 109.602 m 312 113.602 306 113.602 306 109.602 c 306 105.602 312 105.602
 312 109.602 c S Q
0 0.619608 0.45098 rg
q 1 0 0 1 0 0 cm
290.148 125.102 m 327.852 125.102 l S Q
q 1 0 0 1 0 0 cm
71.102 156.102 m 85.301 142.301 l 99.551 134.648 l 113.75 130 l 128 123.898
 l 142.25 119.551 l 156.449 115.699 l 170.699 111.301 l 184.898 107.25 l
 199.148 105.949 l 213.398 102.898 l 227.602 100.648 l 241.852 100.25 l 
256.051 96.801 l 270.301 94.25 l 284.551 92.352 l 298.75 94.551 l 313 89.551
 l 327.199 88.5 l S Q
74.102 156.102 m 74.102 160.102 68.102 160.102 68.102 156.102 c 68.102 
152.102 74.102 152.102 74.102 156.102 c f
q 1 0 0 1 0 0 cm
74.102 156.102 m 74.102 160.102 68.102 160.102 68.102 156.102 c 68.102 
152.102 74.102 152.102 74.102 156.102 c S Q
88.301 142.301 m 88.301 146.301 82.301 146.301 82.301 142.301 c 82.301 
138.301 88.301 138.301 88.301 142.301 c f
q 1 0 0 1 0 0 cm
88.301 142.301 m 88.301 146.301 82.301 146.301 82.301 142.301 c 82.301 
138.301 88.301 138.301 88.301 142.301 c S Q
102.551 134.648 m 102.551 138.648 96.551 138.648 96.551 134.648 c 96.551
 130.648 102.551 130.648 102.551 134.648 c f
q 1 0 0 1 0 0 cm
102.551 134.648 m 102.551 138.648 96.551 138.648 96.551 134.648 c 96.551
 130.648 102.551 130.648 102.551 134.648 c S Q
116.75 130 m 116.75 134 110.75 134 110.75 130 c 110.75 126 116.75 126 116.75
 130 c f
q 1 0 0 1 0 0 cm
116.75 130 m 116.75 134 110.75 134 110.75 130 c 110.75 126 116.75 126 116.75
 130 c S Q
131 123.898 m 131 127.898 125 127.898 125 123.898 c 125 119.898 131 119.898
 131 123.898 c f
q 1 0 0 1 0 0 cm
131 123.898 m 131 127.898 125 127.898 125 123.898 c 125 119.898 131 119.898
 131 123.898 c S Q
145.25 119.551 m 145.25 123.551 139.25 123.551 139.25 119.551 c 139.25 
115.551 145.25 115.551 145.25 119.551 c f
q 1 0 0 1 0 0 cm
145.25 119.551 m 145.25 123.551 139.25 123.551 139.25 119.551 c 139.25 
115.551 145.25 115.551 145.25 119.551 c S Q
159.449 115.699 m 159.449 119.699 153.449 119.699 153.449 115.699 c 153.449
 111.699 159.449 111.699 159.449 115.699 c f
q 1 0 0 1 0 0 cm
159.449 115.699 m 159.449 119.699 153.449 119.699 153.449 115.699 c 153.449
 111.699 159.449 111.699 159.449 115.699 c S Q
173.699 111.301 m 173.699 115.301 167.699 115.301 167.699 111.301 c 167.699
 107.301 173.699 107.301 173.699 111.301 c f
q 1 0 0 1 0 0 cm
173.699 111.301 m 173.699 115.301 167.699 115.301 167.699 111.301 c 167.699
 107.301 173.699 107.301 173.699 111.301 c S Q
187.898 107.25 m 187.898 111.25 181.898 111.25 181.898 107.25 c 181.898
 103.25 187.898 103.25 187.898 107.25 c f
q 1 0 0 1 0 0 cm
187.898 107.25 m 187.898 111.25 181.898 111.25 181.898 107.25 c 181.898
 103.25 187.898 103.25 187.898 107.25 c S Q
202.148 105.949 m 202.148 109.949 196.148 109.949 196.148 105.949 c 196.148
 101.949 202.148 101.949 202.148 105.949 c f
q 1 0 0 1 0 0 cm
202.148 105.949 m 202.148 109.949 196.148 109.949 196.148 105.949 c 196.148
 101.949 202.148 101.949 202.148 105.949 c S Q
216.398 102.898 m 216.398 106.898 210.398 106.898 210.398 102.898 c 210.398
 98.898 216.398 98.898 216.398 102.898 c f
q 1 0 0 1 0 0 cm
216.398 102.898 m 216.398 106.898 210.398 106.898 210.398 102.898 c 210.398
 98.898 216.398 98.898 216.398 102.898 c S Q
230.602 100.648 m 230.602 104.648 224.602 104.648 224.602 100.648 c 224.602
 96.648 230.602 96.648 230.602 100.648 c f
q 1 0 0 1 0 0 cm
230.602 100.648 m 230.602 104.648 224.602 104.648 224.602 100.648 c 224.602
 96.648 230.602 96.648 230.602 100.648 c S Q
244.852 100.25 m 244.852 104.25 238.852 104.25 238.852 100.25 c 238.852
 96.25 244.852 96.25 244.852 100.25 c f
q 1 0 0 1 0 0 cm
244.852 100.25 m 244.852 104.25 238.852 104.25 238.852 100.25 c 238.852
 96.25 244.852 96.25 244.852 100.25 c S Q
259.051 96.801 m 259.051 100.801 253.051 100.801 253.051 96.801 c 253.051
 92.801 259.051 92.801 259.051 96.801 c f
q 1 0 0 1 0 0 cm
259.051 96.801 m 259.051 100.801 253.051 100.801 253.051 96.801 c 253.051
 92.801 259.051 92.801 259.051 96.801 c S Q
273.301 94.25 m 273.301 98.25 267.301 98.25 267.301 94.25 c 267.301 90.25
 273.301 90.25 273.301 94.25 c f
q 1 0 0 1 0 0 cm
273.301 94.25 m 273.301 98.25 267.301 98.25 267.301 94.25 c 267.301 90.25
 273.301 90.25 273.301 94.25 c S Q
287.551 92.352 m 287.551 96.352 281.551 96.352 281.551 92.352 c 281.551
 88.352 287.551 88.352 287.551 92.352 c f
q 1 0 0 1 0 0 cm
287.551 92.352 m 287.551 96.352 281.551 96.352 281.551 92.352 c 281.551
 88.352 287.551 88.352 287.551 92.352 c S Q
301.75 94.551 m 301.75 98.551 295.75 98.551 295.75 94.551 c 295.75 90.551
 301.75 90.551 301.75 94.551 c f
q 1 0 0 1 0 0 cm
301.75 94.551 m 301.75 98.551 295.75 98.551 295.75 94.551 c 295.75 90.551
 301.75 90.551 301.75 94.551 c S Q
316 89.551 m 316 93.551 310 93.551 310 89.551 c 310 85.551 316 85.551 316
 89.551 c f
q 1 0 0 1 0 0 cm
316 89.551 m 316 93.551 310 93.551 310 89.551 c 310 85.551 316 85.551 316
 89.551 c S Q
330.199 88.5 m 330.199 92.5 324.199 92.5 324.199 88.5 c 324.199 84.5 330.199
 84.5 330.199 88.5 c f
q 1 0 0 1 0 0 cm
330.199 88.5 m 330.199 92.5 324.199 92.5 324.199 88.5 c 324.199 84.5 330.199
 84.5 330.199 88.5 c S Q
312 125.102 m 312 129.102 306 129.102 306 125.102 c 306 121.102 312 121.102
 312 125.102 c f
q 1 0 0 1 0 0 cm
312 125.102 m 312 129.102 306 129.102 306 125.102 c 306 121.102 312 121.102
 312 125.102 c S Q
0.337255 0.705882 0.913725 rg
q 1 0 0 1 0 0 cm
290.148 140.602 m 327.852 140.602 l S Q
q 1 0 0 1 0 0 cm
71.102 130.449 m 85.301 120 l 99.551 123.898 l 113.75 120.5 l 128 117.699
 l 142.25 113.352 l 156.449 110.301 l 170.699 104.699 l 184.898 99.352 l
 199.148 100.301 l 213.398 97.5 l 227.602 97.199 l 241.852 102.102 l 256.051
 96.551 l 270.301 96.352 l 284.551 95.25 l 298.75 100.102 l S Q
74.102 130.449 m 74.102 134.449 68.102 134.449 68.102 130.449 c 68.102 
126.449 74.102 126.449 74.102 130.449 c f
q 1 0 0 1 0 0 cm
74.102 130.449 m 74.102 134.449 68.102 134.449 68.102 130.449 c 68.102 
126.449 74.102 126.449 74.102 130.449 c S Q
88.301 120 m 88.301 124 82.301 124 82.301 120 c 82.301 116 88.301 116 88.301
 120 c f
q 1 0 0 1 0 0 cm
88.301 120 m 88.301 124 82.301 124 82.301 120 c 82.301 116 88.301 116 88.301
 120 c S Q
102.551 123.898 m 102.551 127.898 96.551 127.898 96.551 123.898 c 96.551
 119.898 102.551 119.898 102.551 123.898 c f
q 1 0 0 1 0 0 cm
102.551 123.898 m 102.551 127.898 96.551 127.898 96.551 123.898 c 96.551
 119.898 102.551 119.898 102.551 123.898 c S Q
116.75 120.5 m 116.75 124.5 110.75 124.5 110.75 120.5 c 110.75 116.5 116.75
 116.5 116.75 120.5 c f
q 1 0 0 1 0 0 cm
116.75 120.5 m 116.75 124.5 110.75 124.5 110.75 120.5 c 110.75 116.5 116.75
 116.5 116.75 120.5 c S Q
131 117.699 m 131 121.699 125 121.699 125 117.699 c 125 113.699 131 113.699
 131 117.699 c f
q 1 0 0 1 0 0 cm
131 117.699 m 131 121.699 125 121.699 125 117.699 c 125 113.699 131 113.699
 131 117.699 c S Q
145.25 113.352 m 145.25 117.352 139.25 117.352 139.25 113.352 c 139.25 
109.352 145.25 109.352 145.25 113.352 c f
q 1 0 0 1 0 0 cm
145.25 113.352 m 145.25 117.352 139.25 117.352 139.25 113.352 c 139.25 
109.352 145.25 109.352 145.25 113.352 c S Q
159.449 110.301 m 159.449 114.301 153.449 114.301 153.449 110.301 c 153.449
 106.301 159.449 106.301 159.449 110.301 c f
q 1 0 0 1 0 0 cm
159.449 110.301 m 159.449 114.301 153.449 114.301 153.449 110.301 c 153.449
 106.301 159.449 106.301 159.449 110.301 c S Q
173.699 104.699 m 173.699 108.699 167.699 108.699 167.699 104.699 c 167.699
 100.699 173.699 100.699 173.699 104.699 c f
q 1 0 0 1 0 0 cm
173.699 104.699 m 173.699 108.699 167.699 108.699 167.699 104.699 c 167.699
 100.699 173.699 100.699 173.699 104.699 c S Q
187.898 99.352 m 187.898 103.352 181.898 103.352 181.898 99.352 c 181.898
 95.352 187.898 95.352 187.898 99.352 c f
q 1 0 0 1 0 0 cm
187.898 99.352 m 187.898 103.352 181.898 103.352 181.898 99.352 c 181.898
 95.352 187.898 95.352 187.898 99.352 c S Q
202.148 100.301 m 202.148 104.301 196.148 104.301 196.148 100.301 c 196.148
 96.301 202.148 96.301 202.148 100.301 c f
q 1 0 0 1 0 0 cm
202.148 100.301 m 202.148 104.301 196.148 104.301 196.148 100.301 c 196.148
 96.301 202.148 96.301 202.148 100.301 c S Q
216.398 97.5 m 216.398 101.5 210.398 101.5 210.398 97.5 c 210.398 93.5 
216.398 93.5 216.398 97.5 c f
q 1 0 0 1 0 0 cm
216.398 97.5 m 216.398 101.5 210.398 101.5 210.398 97.5 c 210.398 93.5 
216.398 93.5 216.398 97.5 c S Q
230.602 97.199 m 230.602 101.199 224.602 101.199 224.602 97.199 c 224.602
 93.199 230.602 93.199 230.602 97.199 c f
q 1 0 0 1 0 0 cm
230.602 97.199 m 230.602 101.199 224.602 101.199 224.602 97.199 c 224.602
 93.199 230.602 93.199 230.602 97.199 c S Q
244.852 102.102 m 244.852 106.102 238.852 106.102 238.852 102.102 c 238.852
 98.102 244.852 98.102 244.852 102.102 c f
q 1 0 0 1 0 0 cm
244.852 102.102 m 244.852 106.102 238.852 106.102 238.852 102.102 c 238.852
 98.102 244.852 98.102 244.852 102.102 c S Q
259.051 96.551 m 259.051 100.551 253.051 100.551 253.051 96.551 c 253.051
 92.551 259.051 92.551 259.051 96.551 c f
q 1 0 0 1 0 0 cm
259.051 96.551 m 259.051 100.551 253.051 100.551 253.051 96.551 c 253.051
 92.551 259.051 92.551 259.051 96.551 c S Q
273.301 96.352 m 273.301 100.352 267.301 100.352 267.301 96.352 c 267.301
 92.352 273.301 92.352 273.301 96.352 c f
q 1 0 0 1 0 0 cm
273.301 96.352 m 273.301 100.352 267.301 100.352 267.301 96.352 c 267.301
 92.352 273.301 92.352 273.301 96.352 c S Q
287.551 95.25 m 287.551 99.25 281.551 99.25 281.551 95.25 c 281.551 91.25
 287.551 91.25 287.551 95.25 c f
q 1 0 0 1 0 0 cm
287.551 95.25 m 287.551 99.25 281.551 99.25 281.551 95.25 c 281.551 91.25
 287.551 91.25 287.551 95.25 c S Q
301.75 100.102 m 301.75 104.102 295.75 104.102 295.75 100.102 c 295.75 
96.102 301.75 96.102 301.75 100.102 c f
q 1 0 0 1 0 0 cm
301.75 100.102 m 301.75 104.102 295.75 104.102 295.75 100.102 c 295.75 
96.102 301.75 96.102 301.75 100.102 c S Q
312 140.602 m 312 144.602 306 144.602 306 140.602 c 306 136.602 312 136.602
 312 140.602 c f
q 1 0 0 1 0 0 cm
312 140.602 m 312 144.602 306 144.602 306 140.602 c 306 136.602 312 136.602
 312 140.602 c S Q
0.901961 0.623529 0 rg
q 1 0 0 1 0 0 cm
290.148 156.102 m 327.852 156.102 l S Q
q 1 0 0 1 0 0 cm
71.102 125.801 m 85.301 120.699 l 99.551 116.551 l 113.75 112.199 l 128
 110.898 l 142.25 106.801 l 156.449 106.25 l 170.699 102.199 l 184.898 98.75
 l 199.148 96.949 l 213.398 94.5 l 227.602 92.801 l 241.852 91.5 l 256.051
 89.949 l S Q
74.102 125.801 m 74.102 129.801 68.102 129.801 68.102 125.801 c 68.102 
121.801 74.102 121.801 74.102 125.801 c f
q 1 0 0 1 0 0 cm
74.102 125.801 m 74.102 129.801 68.102 129.801 68.102 125.801 c 68.102 
121.801 74.102 121.801 74.102 125.801 c S Q
88.301 120.699 m 88.301 124.699 82.301 124.699 82.301 120.699 c 82.301 
116.699 88.301 116.699 88.301 120.699 c f
q 1 0 0 1 0 0 cm
88.301 120.699 m 88.301 124.699 82.301 124.699 82.301 120.699 c 82.301 
116.699 88.301 116.699 88.301 120.699 c S Q
102.551 116.551 m 102.551 120.551 96.551 120.551 96.551 116.551 c 96.551
 112.551 102.551 112.551 102.551 116.551 c f
q 1 0 0 1 0 0 cm
102.551 116.551 m 102.551 120.551 96.551 120.551 96.551 116.551 c 96.551
 112.551 102.551 112.551 102.551 116.551 c S Q
116.75 112.199 m 116.75 116.199 110.75 116.199 110.75 112.199 c 110.75 
108.199 116.75 108.199 116.75 112.199 c f
q 1 0 0 1 0 0 cm
116.75 112.199 m 116.75 116.199 110.75 116.199 110.75 112.199 c 110.75 
108.199 116.75 108.199 116.75 112.199 c S Q
131 110.898 m 131 114.898 125 114.898 125 110.898 c 125 106.898 131 106.898
 131 110.898 c f
q 1 0 0 1 0 0 cm
131 110.898 m 131 114.898 125 114.898 125 110.898 c 125 106.898 131 106.898
 131 110.898 c S Q
145.25 106.801 m 145.25 110.801 139.25 110.801 139.25 106.801 c 139.25 
102.801 145.25 102.801 145.25 106.801 c f
q 1 0 0 1 0 0 cm
145.25 106.801 m 145.25 110.801 139.25 110.801 139.25 106.801 c 139.25 
102.801 145.25 102.801 145.25 106.801 c S Q
159.449 106.25 m 159.449 110.25 153.449 110.25 153.449 106.25 c 153.449
 102.25 159.449 102.25 159.449 106.25 c f
q 1 0 0 1 0 0 cm
159.449 106.25 m 159.449 110.25 153.449 110.25 153.449 106.25 c 153.449
 102.25 159.449 102.25 159.449 106.25 c S Q
173.699 102.199 m 173.699 106.199 167.699 106.199 167.699 102.199 c 167.699
 98.199 173.699 98.199 173.699 102.199 c f
q 1 0 0 1 0 0 cm
173.699 102.199 m 173.699 106.199 167.699 106.199 167.699 102.199 c 167.699
 98.199 173.699 98.199 173.699 102.199 c S Q
187.898 98.75 m 187.898 102.75 181.898 102.75 181.898 98.75 c 181.898 94.75
 187.898 94.75 187.898 98.75 c f
q 1 0 0 1 0 0 cm
187.898 98.75 m 187.898 102.75 181.898 102.75 181.898 98.75 c 181.898 94.75
 187.898 94.75 187.898 98.75 c S Q
202.148 96.949 m 202.148 100.949 196.148 100.949 196.148 96.949 c 196.148
 92.949 202.148 92.949 202.148 96.949 c f
q 1 0 0 1 0 0 cm
202.148 96.949 m 202.148 100.949 196.148 100.949 196.148 96.949 c 196.148
 92.949 202.148 92.949 202.148 96.949 c S Q
216.398 94.5 m 216.398 98.5 210.398 98.5 210.398 94.5 c 210.398 90.5 216.398
 90.5 216.398 94.5 c f
q 1 0 0 1 0 0 cm
216.398 94.5 m 216.398 98.5 210.398 98.5 210.398 94.5 c 210.398 90.5 216.398
 90.5 216.398 94.5 c S Q
230.602 92.801 m 230.602 96.801 224.602 96.801 224.602 92.801 c 224.602
 88.801 230.602 88.801 230.602 92.801 c f
q 1 0 0 1 0 0 cm
230.602 92.801 m 230.602 96.801 224.602 96.801 224.602 92.801 c 224.602
 88.801 230.602 88.801 230.602 92.801 c S Q
244.852 91.5 m 244.852 95.5 238.852 95.5 238.852 91.5 c 238.852 87.5 244.852
 87.5 244.852 91.5 c f
q 1 0 0 1 0 0 cm
244.852 91.5 m 244.852 95.5 238.852 95.5 238.852 91.5 c 238.852 87.5 244.852
 87.5 244.852 91.5 c S Q
259.051 89.949 m 259.051 93.949 253.051 93.949 253.051 89.949 c 253.051
 85.949 259.051 85.949 259.051 89.949 c f
q 1 0 0 1 0 0 cm
259.051 89.949 m 259.051 93.949 253.051 93.949 253.051 89.949 c 253.051
 85.949 259.051 85.949 259.051 89.949 c S Q
312 156.102 m 312 160.102 306 160.102 306 156.102 c 306 152.102 312 152.102
 312 156.102 c f
q 1 0 0 1 0 0 cm
312 156.102 m 312 160.102 306 160.102 306 156.102 c 306 152.102 312 152.102
 312 156.102 c S Q
0.941176 0.894118 0.258824 rg
q 1 0 0 1 0 0 cm
290.148 171.602 m 327.852 171.602 l S Q
q 1 0 0 1 0 0 cm
71.102 130.449 m 85.301 122.75 l 99.551 120.25 l 113.75 117.5 l 128 114.051
 l 142.25 111.551 l 156.449 109.602 l 170.699 108.199 l 184.898 104.699 
l 199.148 103.699 l 213.398 102.449 l 227.602 101.25 l 241.852 100.602 l
 256.051 99.75 l 270.301 96.301 l S Q
74.102 130.449 m 74.102 134.449 68.102 134.449 68.102 130.449 c 68.102 
126.449 74.102 126.449 74.102 130.449 c f
q 1 0 0 1 0 0 cm
74.102 130.449 m 74.102 134.449 68.102 134.449 68.102 130.449 c 68.102 
126.449 74.102 126.449 74.102 130.449 c S Q
88.301 122.75 m 88.301 126.75 82.301 126.75 82.301 122.75 c 82.301 118.75
 88.301 118.75 88.301 122.75 c f
q 1 0 0 1 0 0 cm
88.301 122.75 m 88.301 126.75 82.301 126.75 82.301 122.75 c 82.301 118.75
 88.301 118.75 88.301 122.75 c S Q
102.551 120.25 m 102.551 124.25 96.551 124.25 96.551 120.25 c 96.551 116.25
 102.551 116.25 102.551 120.25 c f
q 1 0 0 1 0 0 cm
102.551 120.25 m 102.551 124.25 96.551 124.25 96.551 120.25 c 96.551 116.25
 102.551 116.25 102.551 120.25 c S Q
116.75 117.5 m 116.75 121.5 110.75 121.5 110.75 117.5 c 110.75 113.5 116.75
 113.5 116.75 117.5 c f
q 1 0 0 1 0 0 cm
116.75 117.5 m 116.75 121.5 110.75 121.5 110.75 117.5 c 110.75 113.5 116.75
 113.5 116.75 117.5 c S Q
131 114.051 m 131 118.051 125 118.051 125 114.051 c 125 110.051 131 110.051
 131 114.051 c f
q 1 0 0 1 0 0 cm
131 114.051 m 131 118.051 125 118.051 125 114.051 c 125 110.051 131 110.051
 131 114.051 c S Q
145.25 111.551 m 145.25 115.551 139.25 115.551 139.25 111.551 c 139.25 
107.551 145.25 107.551 145.25 111.551 c f
q 1 0 0 1 0 0 cm
145.25 111.551 m 145.25 115.551 139.25 115.551 139.25 111.551 c 139.25 
107.551 145.25 107.551 145.25 111.551 c S Q
159.449 109.602 m 159.449 113.602 153.449 113.602 153.449 109.602 c 153.449
 105.602 159.449 105.602 159.449 109.602 c f
q 1 0 0 1 0 0 cm
159.449 109.602 m 159.449 113.602 153.449 113.602 153.449 109.602 c 153.449
 105.602 159.449 105.602 159.449 109.602 c S Q
173.699 108.199 m 173.699 112.199 167.699 112.199 167.699 108.199 c 167.699
 104.199 173.699 104.199 173.699 108.199 c f
q 1 0 0 1 0 0 cm
173.699 108.199 m 173.699 112.199 167.699 112.199 167.699 108.199 c 167.699
 104.199 173.699 104.199 173.699 108.199 c S Q
187.898 104.699 m 187.898 108.699 181.898 108.699 181.898 104.699 c 181.898
 100.699 187.898 100.699 187.898 104.699 c f
q 1 0 0 1 0 0 cm
187.898 104.699 m 187.898 108.699 181.898 108.699 181.898 104.699 c 181.898
 100.699 187.898 100.699 187.898 104.699 c S Q
202.148 103.699 m 202.148 107.699 196.148 107.699 196.148 103.699 c 196.148
 99.699 202.148 99.699 202.148 103.699 c f
q 1 0 0 1 0 0 cm
202.148 103.699 m 202.148 107.699 196.148 107.699 196.148 103.699 c 196.148
 99.699 202.148 99.699 202.148 103.699 c S Q
216.398 102.449 m 216.398 106.449 210.398 106.449 210.398 102.449 c 210.398
 98.449 216.398 98.449 216.398 102.449 c f
q 1 0 0 1 0 0 cm
216.398 102.449 m 216.398 106.449 210.398 106.449 210.398 102.449 c 210.398
 98.449 216.398 98.449 216.398 102.449 c S Q
230.602 101.25 m 230.602 105.25 224.602 105.25 224.602 101.25 c 224.602
 97.25 230.602 97.25 230.602 101.25 c f
q 1 0 0 1 0 0 cm
230.602 101.25 m 230.602 105.25 224.602 105.25 224.602 101.25 c 224.602
 97.25 230.602 97.25 230.602 101.25 c S Q
244.852 100.602 m 244.852 104.602 238.852 104.602 238.852 100.602 c 238.852
 96.602 244.852 96.602 244.852 100.602 c f
q 1 0 0 1 0 0 cm
244.852 100.602 m 244.852 104.602 238.852 104.602 238.852 100.602 c 238.852
 96.602 244.852 96.602 244.852 100.602 c S Q
259.051 99.75 m 259.051 103.75 253.051 103.75 253.051 99.75 c 253.051 95.75
 259.051 95.75 259.051 99.75 c f
q 1 0 0 1 0 0 cm
259.051 99.75 m 259.051 103.75 253.051 103.75 253.051 99.75 c 253.051 95.75
 259.051 95.75 259.051 99.75 c S Q
273.301 96.301 m 273.301 100.301 267.301 100.301 267.301 96.301 c 267.301
 92.301 273.301 92.301 273.301 96.301 c f
q 1 0 0 1 0 0 cm
273.301 96.301 m 273.301 100.301 267.301 100.301 267.301 96.301 c 267.301
 92.301 273.301 92.301 273.301 96.301 c S Q
312 171.602 m 312 175.602 306 175.602 306 171.602 c 306 167.602 312 167.602
 312 171.602 c f
q 1 0 0 1 0 0 cm
312 171.602 m 312 175.602 306 175.602 306 171.602 c 306 167.602 312 167.602
 312 171.602 c S Q
0 g
0.25 w
q 1 0 0 1 0 0 cm
56.852 9.852 284.598 173.199 re S Q
Q Q
showpage
%%Trailer
end
%%EOF
