    -2.969     -5.55499773
    -2.906     -2.02661362
    -2.844     -1.34686187
    -2.781     -1.07885208
    -2.719     -0.95330703
    -2.656     -0.89859304
    -2.594     -0.88950732
    -2.531     -0.91754724
    -2.469     -0.98304043
    -2.406     -1.09387299
    -2.344     -1.26829531
    -2.281     -1.54408988
    -2.219     -2.00494931
    -2.156     -2.87119128
    -2.094     -4.95427136
    -2.031    -15.56720643
    -1.969     16.49139950
    -1.906      5.88984583
    -1.844      3.83013844
    -1.781      3.00055734
    -1.719      2.59180348
    -1.656      2.38688775
    -1.594      2.30715960
    -1.531      2.32254144
    -1.469      2.42688107
    -1.406      2.63213187
    -1.344      2.97256713
    -1.281      3.52245504
    -1.219      4.44848128
    -1.156      6.19100619
    -1.094     10.37300566
    -1.031     31.62088806
    -0.969    -32.46744277
    -0.906    -11.22751862
    -0.844     -7.06181775
    -0.781     -5.34474277
    -0.719     -4.45466224
    -0.656     -3.95328284
    -0.594     -3.67703561
    -0.531     -3.55639158
    -0.469     -3.56448157
    -0.406     -3.70143544
    -0.344     -3.99438708
    -0.281     -4.51314552
    -0.219     -5.42158656
    -0.156     -7.15835090
    -0.094    -11.34547494
    -0.031    -32.60904081
     0.031     31.45283517
     0.094     10.17493875
     0.156      5.95840873
     0.219      4.17558029
     0.281      3.20178848
     0.344      2.59434186
     0.406      2.18323990
     0.469      1.88933303
     0.531      1.67085073
     0.594      1.50370815
     0.656      1.37307056
     0.719      1.26932218
     0.781      1.18597206
     0.844      1.11849233
     0.906      1.06363828
     0.969      1.01903252
     1.031      0.98290110
     1.094      0.95390051
     1.156      0.93100136
     1.219      0.91340819
     1.281      0.90050301
     1.344      0.89180501
     1.406      0.88694121
     1.469      0.88562486
     1.531      0.88763945
     1.594      0.89282671
     1.656      0.90107755
     1.719      0.91232531
     1.781      0.92654067
     1.844      0.94372790
     1.906      0.96392219
     1.969      0.98718776
     2.031      1.01361676
     2.094      1.04332868
     2.156      1.07647033
     2.219      1.11321623
     2.281      1.15376948
     2.344      1.19836299
     2.406      1.24726107
     2.469      1.30076151
     2.531      1.35919791
     2.594      1.42294257
     2.656      1.49240970
     2.719      1.56805913
     2.781      1.65040057
     2.844      1.73999832
     2.906      1.83747667
     2.969      1.94352590
     3.031      2.05890904
     3.094      2.18446942
     3.156      2.32113914
     3.219      2.46994851
     3.281      2.63203663
     3.344      2.80866325
     3.406      3.00122196
     3.469      3.21125497
     3.531      3.44046971
     3.594      3.69075730
     3.656      3.96421326
     3.719      4.26316077
     3.781      4.59017659
     3.844      4.94812022
     3.906      5.34016657
     3.969      5.76984251


-2.5
-2
-1.5
-1
-0.5
0
0.5
1
1.5
2
2.5
3
3.5
