     0.031      3.44848913
     0.094      2.31992771
     0.156      1.78480345
     0.219      1.42925334
     0.281      1.16370955
     0.344      0.95333287
     0.406      0.78080996
     0.469      0.63622387
     0.531      0.51333292
     0.594      0.40793416
     0.656      0.31704952
     0.719      0.23848304
     0.781      0.17056274
     0.844      0.11198164
     0.906      0.06169537
     0.969      0.01885367
     1.031     -0.01724678
     1.094     -0.04719590
     1.156     -0.07149454
     1.219     -0.09057241
     1.281     -0.10480177
     1.344     -0.11450776
     1.406     -0.11997658
     1.469     -0.12146183
     1.531     -0.11918964
     1.594     -0.11336277
     1.656     -0.10416395
     1.719     -0.09175865
     1.781     -0.07629734
     1.844     -0.05791739
     1.906     -0.03674471
     1.969     -0.01289503
     2.031      0.01352488
     2.094      0.04241626
     2.156      0.07368747
     2.219      0.10725333
     2.281      0.14303439
     2.344      0.18095645
     2.406      0.22095001
     2.469      0.26294987
     2.531      0.30689476
     2.594      0.35272696
     2.656      0.40039206
     2.719      0.44983863
     2.781      0.50101803
     2.844      0.55388415
     2.906      0.60839325
     2.969      0.66450380
     3.031      0.72217625
     3.094      0.78137297
     3.156      0.84205807
     3.219      0.90419730
     3.281      0.96775793
     3.344      1.03270866
     3.406      1.09901952
     3.469      1.16666182
     3.531      1.23560801
     3.594      1.30583167
     3.656      1.37730742
     3.719      1.45001085
     3.781      1.52391850
     3.844      1.59900775
     3.906      1.67525684
     3.969      1.75264479
     4.031      1.83115133
     4.094      1.91075692
     4.156      1.99144269
     4.219      2.07319039
     4.281      2.15598238
     4.344      2.23980159
     4.406      2.32463150
     4.469      2.41045612
     4.531      2.49725992
     4.594      2.58502789
     4.656      2.67374545
     4.719      2.76339844
     4.781      2.85397314
     4.844      2.94545620
     4.906      3.03783468
     4.969      3.13109597


0.5
1
1.5
2
2.5
3
3.5
4
4.5
